{"pageNum":1,"retCode":"0000","message":"查询资源","timestamp":"1611912473386","page":0,"size":8,"count":8,"totalPages":3,"totalElements":"18","contents":[{"musicCategoryCodeArray":["topics","9c09","f2f9"],"resourceId":"275299814906789888","title":"1-8度音阶练习","publisherCode":"","publisherName":"","gradeCode":"","gradeName":"","mediaType":"video","mediaTypeName":"视频","source":"internet","sourceName":"互联网","musicCategory":"topics,9c09,f2f9","musicCategoryNames":"主题课程,音乐游戏,音准练习","resourceType":"composite","resourceTypeName":"主题资源","builtin":false,"needUnzip":false,"thumbnailFileUrl":"https://filecdn.jinduolingchuang.com/music/resources/r_275299814906789888/thumbnail-1294.jpg","resourceFileUrl":"https://filecdn.jinduolingchuang.com/music/resources/r_275299814906789888/content-299.mp4","resourceViewUrl":"https://filecdn.jinduolingchuang.com/music/resources/r_275299814906789888/content-299.mp4","published":false,"achieveFileUrl":"","description":""},{"musicCategoryCodeArray":["topics","9c09","f2f9"],"resourceId":"275300142632927232","title":"d-r-m-f-s","publisherCode":"","publisherName":"","gradeCode":"","gradeName":"","mediaType":"video","mediaTypeName":"视频","source":"internet","sourceName":"互联网","musicCategory":"topics,9c09,f2f9","musicCategoryNames":"主题课程,音乐游戏,音准练习","resourceType":"composite","resourceTypeName":"主题资源","builtin":false,"needUnzip":false,"thumbnailFileUrl":"https://filecdn.jinduolingchuang.com/music/resources/r_275300142632927232/thumbnail-9215.jpg","resourceFileUrl":"https://filecdn.jinduolingchuang.com/music/resources/r_275300142632927232/content-217.mp4","resourceViewUrl":"https://filecdn.jinduolingchuang.com/music/resources/r_275300142632927232/content-217.mp4","published":false,"achieveFileUrl":"","description":""},{"musicCategoryCodeArray":["topics","9c09","f2f9"],"resourceId":"275300675280175104","title":"d-r-m-s","publisherCode":"","publisherName":"","gradeCode":"","gradeName":"","mediaType":"video","mediaTypeName":"视频","source":"internet","sourceName":"互联网","musicCategory":"topics,9c09,f2f9","musicCategoryNames":"主题课程,音乐游戏,音准练习","resourceType":"composite","resourceTypeName":"主题资源","builtin":false,"needUnzip":false,"thumbnailFileUrl":"https://filecdn.jinduolingchuang.com/music/resources/r_275300675280175104/thumbnail-6197.jpg","resourceFileUrl":"https://filecdn.jinduolingchuang.com/music/resources/r_275300675280175104/content-199.mp4","resourceViewUrl":"https://filecdn.jinduolingchuang.com/music/resources/r_275300675280175104/content-199.mp4","published":false,"achieveFileUrl":"","description":""},{"musicCategoryCodeArray":["topics","9c09","f2f9"],"resourceId":"275300886996058112","title":"m-s-l","publisherCode":"","publisherName":"","gradeCode":"","gradeName":"","mediaType":"video","mediaTypeName":"视频","source":"internet","sourceName":"互联网","musicCategory":"topics,9c09,f2f9","musicCategoryNames":"主题课程,音乐游戏,音准练习","resourceType":"composite","resourceTypeName":"主题资源","builtin":false,"needUnzip":false,"thumbnailFileUrl":"https://filecdn.jinduolingchuang.com/music/resources/r_275300886996058112/thumbnail-6655.jpg","resourceFileUrl":"https://filecdn.jinduolingchuang.com/music/resources/r_275300886996058112/content-657.mp4","resourceViewUrl":"https://filecdn.jinduolingchuang.com/music/resources/r_275300886996058112/content-657.mp4","published":false,"achieveFileUrl":"","description":""},{"musicCategoryCodeArray":["topics","9c09","f2f9"],"resourceId":"275301254626803712","title":"s-m-d","publisherCode":"","publisherName":"","gradeCode":"","gradeName":"","mediaType":"video","mediaTypeName":"视频","source":"internet","sourceName":"互联网","musicCategory":"topics,9c09,f2f9","musicCategoryNames":"主题课程,音乐游戏,音准练习","resourceType":"composite","resourceTypeName":"主题资源","builtin":false,"needUnzip":false,"thumbnailFileUrl":"https://filecdn.jinduolingchuang.com/music/resources/r_275301254626803712/thumbnail-4314.jpg","resourceFileUrl":"https://filecdn.jinduolingchuang.com/music/resources/r_275301254626803712/content-316.mp4","resourceViewUrl":"https://filecdn.jinduolingchuang.com/music/resources/r_275301254626803712/content-316.mp4","published":false,"achieveFileUrl":"","description":""},{"musicCategoryCodeArray":["topics","9c09","f2f9"],"resourceId":"275301799601111040","title":"和声小调练习","publisherCode":"","publisherName":"","gradeCode":"","gradeName":"","mediaType":"video","mediaTypeName":"视频","source":"internet","sourceName":"互联网","musicCategory":"topics,9c09,f2f9","musicCategoryNames":"主题课程,音乐游戏,音准练习","resourceType":"composite","resourceTypeName":"主题资源","builtin":false,"needUnzip":false,"thumbnailFileUrl":"https://filecdn.jinduolingchuang.com/music/resources/r_275301799601111040/thumbnail-4512.jpg","resourceFileUrl":"https://filecdn.jinduolingchuang.com/music/resources/r_275301799601111040/content-513.mp4","resourceViewUrl":"https://filecdn.jinduolingchuang.com/music/resources/r_275301799601111040/content-513.mp4","published":false,"achieveFileUrl":"","description":""},{"musicCategoryCodeArray":["topics","9c09","f2f9"],"resourceId":"275301419135795200","title":"大调音阶练习","publisherCode":"","publisherName":"","gradeCode":"","gradeName":"","mediaType":"video","mediaTypeName":"视频","source":"internet","sourceName":"互联网","musicCategory":"topics,9c09,f2f9","musicCategoryNames":"主题课程,音乐游戏,音准练习","resourceType":"composite","resourceTypeName":"主题资源","builtin":false,"needUnzip":false,"thumbnailFileUrl":"https://filecdn.jinduolingchuang.com/music/resources/r_275301419135795200/thumbnail-3528.jpg","resourceFileUrl":"https://filecdn.jinduolingchuang.com/music/resources/r_275301419135795200/content-529.mp4","resourceViewUrl":"https://filecdn.jinduolingchuang.com/music/resources/r_275301419135795200/content-529.mp4","published":false,"achieveFileUrl":"","description":""},{"musicCategoryCodeArray":["topics","9c09","f2f9"],"resourceId":"275309419573542912","title":"旋律小调音阶练习","publisherCode":"","publisherName":"","gradeCode":"","gradeName":"","mediaType":"video","mediaTypeName":"视频","source":"internet","sourceName":"互联网","musicCategory":"topics,9c09,f2f9","musicCategoryNames":"主题课程,音乐游戏,音准练习","resourceType":"composite","resourceTypeName":"主题资源","builtin":false,"needUnzip":false,"thumbnailFileUrl":"https://filecdn.jinduolingchuang.com/music/resources/r_275309419573542912/thumbnail-1218.jpg","resourceFileUrl":"https://filecdn.jinduolingchuang.com/music/resources/r_275309419573542912/content-220.mp4","resourceViewUrl":"https://filecdn.jinduolingchuang.com/music/resources/r_275309419573542912/content-220.mp4","published":false,"achieveFileUrl":"","description":""}],"nonce":"0"}