{"pageNum":2,"retCode":"0000","message":"查询资源","timestamp":"1611912578808","page":1,"size":8,"count":8,"totalPages":3,"totalElements":"18","contents":[{"musicCategoryCodeArray":["topics","9c09","f2f9"],"resourceId":"275303368136589312","title":"暖声","publisherCode":"","publisherName":"","gradeCode":"","gradeName":"","mediaType":"video","mediaTypeName":"视频","source":"internet","sourceName":"互联网","musicCategory":"topics,9c09,f2f9","musicCategoryNames":"主题课程,音乐游戏,音准练习","resourceType":"composite","resourceTypeName":"主题资源","builtin":false,"needUnzip":false,"thumbnailFileUrl":"https://filecdn.jinduolingchuang.com/music/resources/r_275303368136589312/thumbnail-8200.jpg","resourceFileUrl":"https://filecdn.jinduolingchuang.com/music/resources/r_275303368136589312/content-202.mp4","resourceViewUrl":"https://filecdn.jinduolingchuang.com/music/resources/r_275303368136589312/content-202.mp4","published":false,"achieveFileUrl":"","description":""},{"musicCategoryCodeArray":["topics","9c09","f2f9"],"resourceId":"275303733842149376","title":"暖声练习","publisherCode":"","publisherName":"","gradeCode":"","gradeName":"","mediaType":"video","mediaTypeName":"视频","source":"internet","sourceName":"互联网","musicCategory":"topics,9c09,f2f9","musicCategoryNames":"主题课程,音乐游戏,音准练习","resourceType":"composite","resourceTypeName":"主题资源","builtin":false,"needUnzip":false,"thumbnailFileUrl":"https://filecdn.jinduolingchuang.com/music/resources/r_275303733842149376/thumbnail-5396.jpg","resourceFileUrl":"https://filecdn.jinduolingchuang.com/music/resources/r_275303733842149376/content-397.mp4","resourceViewUrl":"https://filecdn.jinduolingchuang.com/music/resources/r_275303733842149376/content-397.mp4","published":false,"achieveFileUrl":"","description":""},{"musicCategoryCodeArray":["topics","9c09","f2f9"],"resourceId":"275303919872114688","title":"暖声练习2","publisherCode":"","publisherName":"","gradeCode":"","gradeName":"","mediaType":"video","mediaTypeName":"视频","source":"internet","sourceName":"互联网","musicCategory":"topics,9c09,f2f9","musicCategoryNames":"主题课程,音乐游戏,音准练习","resourceType":"composite","resourceTypeName":"主题资源","builtin":false,"needUnzip":false,"thumbnailFileUrl":"https://filecdn.jinduolingchuang.com/music/resources/r_275303919872114688/thumbnail-9743.jpg","resourceFileUrl":"https://filecdn.jinduolingchuang.com/music/resources/r_275303919872114688/content-745.mp4","resourceViewUrl":"https://filecdn.jinduolingchuang.com/music/resources/r_275303919872114688/content-745.mp4","published":false,"achieveFileUrl":"","description":""},{"musicCategoryCodeArray":["topics","9c09","f2f9"],"resourceId":"275303063223271424","title":"每日练习","publisherCode":"","publisherName":"","gradeCode":"","gradeName":"","mediaType":"video","mediaTypeName":"视频","source":"internet","sourceName":"互联网","musicCategory":"topics,9c09,f2f9","musicCategoryNames":"主题课程,音乐游戏,音准练习","resourceType":"composite","resourceTypeName":"主题资源","builtin":false,"needUnzip":false,"thumbnailFileUrl":"https://filecdn.jinduolingchuang.com/music/resources/r_275303063223271424/thumbnail-5533.jpg","resourceFileUrl":"https://filecdn.jinduolingchuang.com/music/resources/r_275303063223271424/content-534.mp4","resourceViewUrl":"https://filecdn.jinduolingchuang.com/music/resources/r_275303063223271424/content-534.mp4","published":false,"achieveFileUrl":"","description":""},{"musicCategoryCodeArray":["topics","9c09","f2f9"],"resourceId":"275302131995508736","title":"每课练习","publisherCode":"","publisherName":"","gradeCode":"","gradeName":"","mediaType":"video","mediaTypeName":"视频","source":"internet","sourceName":"互联网","musicCategory":"topics,9c09,f2f9","musicCategoryNames":"主题课程,音乐游戏,音准练习","resourceType":"composite","resourceTypeName":"主题资源","builtin":false,"needUnzip":false,"thumbnailFileUrl":"https://filecdn.jinduolingchuang.com/music/resources/r_275302131995508736/thumbnail-3482.jpg","resourceFileUrl":"https://filecdn.jinduolingchuang.com/music/resources/r_275302131995508736/content-483.mp4","resourceViewUrl":"https://filecdn.jinduolingchuang.com/music/resources/r_275302131995508736/content-483.mp4","published":false,"achieveFileUrl":"","description":""},{"musicCategoryCodeArray":["topics","9c09","f2f9"],"resourceId":"275302412640583680","title":"每课音准训练","publisherCode":"","publisherName":"","gradeCode":"","gradeName":"","mediaType":"video","mediaTypeName":"视频","source":"internet","sourceName":"互联网","musicCategory":"topics,9c09,f2f9","musicCategoryNames":"主题课程,音乐游戏,音准练习","resourceType":"composite","resourceTypeName":"主题资源","builtin":false,"needUnzip":false,"thumbnailFileUrl":"https://filecdn.jinduolingchuang.com/music/resources/r_275302412640583680/thumbnail-407.jpg","resourceFileUrl":"https://filecdn.jinduolingchuang.com/music/resources/r_275302412640583680/content-408.mp4","resourceViewUrl":"https://filecdn.jinduolingchuang.com/music/resources/r_275302412640583680/content-408.mp4","published":false,"achieveFileUrl":"","description":""},{"musicCategoryCodeArray":["topics","9c09","f2f9"],"resourceId":"275301942530408448","title":"科尔文手势","publisherCode":"","publisherName":"","gradeCode":"","gradeName":"","mediaType":"video","mediaTypeName":"视频","source":"internet","sourceName":"互联网","musicCategory":"topics,9c09,f2f9","musicCategoryNames":"主题课程,音乐游戏,音准练习","resourceType":"composite","resourceTypeName":"主题资源","builtin":false,"needUnzip":false,"thumbnailFileUrl":"https://filecdn.jinduolingchuang.com/music/resources/r_275301942530408448/thumbnail-8324.jpg","resourceFileUrl":"https://filecdn.jinduolingchuang.com/music/resources/r_275301942530408448/content-326.mp4","resourceViewUrl":"https://filecdn.jinduolingchuang.com/music/resources/r_275301942530408448/content-326.mp4","published":false,"achieveFileUrl":"","description":""},{"musicCategoryCodeArray":["topics","9c09","f2f9"],"resourceId":"275309158184517632","title":"稳定听觉C大调音阶（5分钟）","publisherCode":"","publisherName":"","gradeCode":"","gradeName":"","mediaType":"video","mediaTypeName":"视频","source":"internet","sourceName":"互联网","musicCategory":"topics,9c09,f2f9","musicCategoryNames":"主题课程,音乐游戏,音准练习","resourceType":"composite","resourceTypeName":"主题资源","builtin":false,"needUnzip":false,"thumbnailFileUrl":"https://filecdn.jinduolingchuang.com/music/resources/r_275309158184517632/thumbnail-8837.jpg","resourceFileUrl":"https://filecdn.jinduolingchuang.com/music/resources/r_275309158184517632/content-838.mp4","resourceViewUrl":"https://filecdn.jinduolingchuang.com/music/resources/r_275309158184517632/content-838.mp4","published":false,"achieveFileUrl":"","description":""}],"nonce":"0"}