{"pageNum":3,"retCode":"0000","message":"查询资源","timestamp":"1611912597467","page":2,"size":8,"count":2,"totalPages":3,"totalElements":"18","contents":[{"musicCategoryCodeArray":["topics","9c09","f2f9"],"resourceId":"275310005660418048","title":"自然小调音阶练习","publisherCode":"","publisherName":"","gradeCode":"","gradeName":"","mediaType":"video","mediaTypeName":"视频","source":"internet","sourceName":"互联网","musicCategory":"topics,9c09,f2f9","musicCategoryNames":"主题课程,音乐游戏,音准练习","resourceType":"composite","resourceTypeName":"主题资源","builtin":false,"needUnzip":false,"thumbnailFileUrl":"https://filecdn.jinduolingchuang.com/music/resources/r_275310005660418048/thumbnail-721.jpg","resourceFileUrl":"https://filecdn.jinduolingchuang.com/music/resources/r_275310005660418048/content-722.mp4","resourceViewUrl":"https://filecdn.jinduolingchuang.com/music/resources/r_275310005660418048/content-722.mp4","published":false,"achieveFileUrl":"","description":""},{"musicCategoryCodeArray":["topics","9c09","f2f9"],"resourceId":"275309714617663488","title":"音阶热身（快板）","publisherCode":"","publisherName":"","gradeCode":"","gradeName":"","mediaType":"video","mediaTypeName":"视频","source":"internet","sourceName":"互联网","musicCategory":"topics,9c09,f2f9","musicCategoryNames":"主题课程,音乐游戏,音准练习","resourceType":"composite","resourceTypeName":"主题资源","builtin":false,"needUnzip":false,"thumbnailFileUrl":"https://filecdn.jinduolingchuang.com/music/resources/r_275309714617663488/thumbnail-3604.jpg","resourceFileUrl":"https://filecdn.jinduolingchuang.com/music/resources/r_275309714617663488/content-883.mp4","resourceViewUrl":"https://filecdn.jinduolingchuang.com/music/resources/r_275309714617663488/content-883.mp4","published":false,"achieveFileUrl":"","description":""}],"nonce":"0"}