{"pageNum":1,"retCode":"0000","message":"查询资源","timestamp":"1610704176973","page":0,"size":8,"count":8,"totalPages":3,"totalElements":"18","contents":[{"musicCategoryCodeArray":["topics","7f12","3e99"],"resourceId":"163325750789799936","title":"节奏型01","publisherCode":"","publisherName":"","gradeCode":"","gradeName":"","mediaType":"course","mediaTypeName":"课程","source":"jinduo","sourceName":"发子","musicCategory":"topics,7f12,3e99","musicCategoryNames":"主题课程,身体打击乐,四拍子节奏","resourceType":"composite","resourceTypeName":"主题资源","builtin":false,"needUnzip":true,"thumbnailFileUrl":"https://filecdn.jinduolingchuang.com/music/resources/r_163325750789799936/thumbnail-62.jpg","resourceFileUrl":"https://filecdn.jinduolingchuang.com/music/resources/r_163325750789799936/content.zip","resourceViewUrl":"https://filecdn.jinduolingchuang.com/music/resources/r_163325750789799936/content/index.html","published":false,"achieveFileUrl":"","extractFiles":[{"fileId":"166954461447585792","resourceId":"163325750789799936","title":"中速","fileName":"中速.ogv","fileExt":"ogv","fileUrl":"https://filecdn.jinduolingchuang.com/music/resources/r_163325750789799936/content/节奏型1/中速.ogv","fileRelativeUrl":"节奏型1/中速.ogv"},{"fileId":"166954461451780096","resourceId":"163325750789799936","title":"慢速","fileName":"慢速.ogv","fileExt":"ogv","fileUrl":"https://filecdn.jinduolingchuang.com/music/resources/r_163325750789799936/content/节奏型1/慢速.ogv","fileRelativeUrl":"节奏型1/慢速.ogv"}],"description":""},{"musicCategoryCodeArray":["topics","7f12","3e99"],"resourceId":"163326392090492928","title":"节奏型02","publisherCode":"","publisherName":"","gradeCode":"","gradeName":"","mediaType":"course","mediaTypeName":"课程","source":"jinduo","sourceName":"发子","musicCategory":"topics,7f12,3e99","musicCategoryNames":"主题课程,身体打击乐,四拍子节奏","resourceType":"composite","resourceTypeName":"主题资源","builtin":false,"needUnzip":true,"thumbnailFileUrl":"https://filecdn.jinduolingchuang.com/music/resources/r_163326392090492928/thumbnail-4692.jpg","resourceFileUrl":"https://filecdn.jinduolingchuang.com/music/resources/r_163326392090492928/content.zip","resourceViewUrl":"https://filecdn.jinduolingchuang.com/music/resources/r_163326392090492928/content/index.html","published":false,"achieveFileUrl":"","extractFiles":[{"fileId":"166954461820878848","resourceId":"163326392090492928","title":"中速","fileName":"中速.ogv","fileExt":"ogv","fileUrl":"https://filecdn.jinduolingchuang.com/music/resources/r_163326392090492928/content/节奏型2/中速.ogv","fileRelativeUrl":"节奏型2/中速.ogv"},{"fileId":"166954461825073152","resourceId":"163326392090492928","title":"慢速","fileName":"慢速.ogv","fileExt":"ogv","fileUrl":"https://filecdn.jinduolingchuang.com/music/resources/r_163326392090492928/content/节奏型2/慢速.ogv","fileRelativeUrl":"节奏型2/慢速.ogv"}],"description":""},{"musicCategoryCodeArray":["topics","7f12","3e99"],"resourceId":"163326821293621248","title":"节奏型03","publisherCode":"","publisherName":"","gradeCode":"","gradeName":"","mediaType":"course","mediaTypeName":"课程","source":"jinduo","sourceName":"发子","musicCategory":"topics,7f12,3e99","musicCategoryNames":"主题课程,身体打击乐,四拍子节奏","resourceType":"composite","resourceTypeName":"主题资源","builtin":false,"needUnzip":true,"thumbnailFileUrl":"https://filecdn.jinduolingchuang.com/music/resources/r_163326821293621248/thumbnail-5661.jpg","resourceFileUrl":"https://filecdn.jinduolingchuang.com/music/resources/r_163326821293621248/content.zip","resourceViewUrl":"https://filecdn.jinduolingchuang.com/music/resources/r_163326821293621248/content/index.html","published":false,"achieveFileUrl":"","extractFiles":[{"fileId":"166954462030594048","resourceId":"163326821293621248","title":"中速","fileName":"中速.ogv","fileExt":"ogv","fileUrl":"https://filecdn.jinduolingchuang.com/music/resources/r_163326821293621248/content/节奏型3/中速.ogv","fileRelativeUrl":"节奏型3/中速.ogv"},{"fileId":"166954462034788352","resourceId":"163326821293621248","title":"慢速","fileName":"慢速.ogv","fileExt":"ogv","fileUrl":"https://filecdn.jinduolingchuang.com/music/resources/r_163326821293621248/content/节奏型3/慢速.ogv","fileRelativeUrl":"节奏型3/慢速.ogv"}],"description":""},{"musicCategoryCodeArray":["topics","7f12","3e99"],"resourceId":"163327875850698752","title":"节奏型04--慢速","publisherCode":"","publisherName":"","gradeCode":"","gradeName":"","mediaType":"video","mediaTypeName":"视频","source":"jinduo","sourceName":"发子","musicCategory":"topics,7f12,3e99","musicCategoryNames":"主题课程,身体打击乐,四拍子节奏","resourceType":"composite","resourceTypeName":"主题资源","builtin":false,"needUnzip":false,"thumbnailFileUrl":"https://filecdn.jinduolingchuang.com/music/resources/r_163327875850698752/thumbnail-5415.jpg","resourceFileUrl":"https://filecdn.jinduolingchuang.com/music/resources/r_163327875850698752/content.ogv","resourceViewUrl":"https://filecdn.jinduolingchuang.com/music/resources/r_163327875850698752/content.ogv","published":false,"achieveFileUrl":"","description":""},{"musicCategoryCodeArray":["topics","7f12","3e99"],"resourceId":"163328744700772352","title":"节奏型05--慢速","publisherCode":"","publisherName":"","gradeCode":"","gradeName":"","mediaType":"video","mediaTypeName":"视频","source":"jinduo","sourceName":"发子","musicCategory":"topics,7f12,3e99","musicCategoryNames":"主题课程,身体打击乐,四拍子节奏","resourceType":"composite","resourceTypeName":"主题资源","builtin":false,"needUnzip":false,"thumbnailFileUrl":"https://filecdn.jinduolingchuang.com/music/resources/r_163328744700772352/thumbnail-7258.jpg","resourceFileUrl":"https://filecdn.jinduolingchuang.com/music/resources/r_163328744700772352/content.ogv","resourceViewUrl":"https://filecdn.jinduolingchuang.com/music/resources/r_163328744700772352/content.ogv","published":false,"achieveFileUrl":"","description":""},{"musicCategoryCodeArray":["topics","7f12","3e99"],"resourceId":"163329650557190144","title":"节奏型05--慢速（双声部）","publisherCode":"","publisherName":"","gradeCode":"","gradeName":"","mediaType":"video","mediaTypeName":"视频","source":"jinduo","sourceName":"发子","musicCategory":"topics,7f12,3e99","musicCategoryNames":"主题课程,身体打击乐,四拍子节奏","resourceType":"composite","resourceTypeName":"主题资源","builtin":false,"needUnzip":false,"thumbnailFileUrl":"https://filecdn.jinduolingchuang.com/music/resources/r_163329650557190144/thumbnail-3219.jpg","resourceFileUrl":"https://filecdn.jinduolingchuang.com/music/resources/r_163329650557190144/content.ogv","resourceViewUrl":"https://filecdn.jinduolingchuang.com/music/resources/r_163329650557190144/content.ogv","published":false,"achieveFileUrl":"","description":""},{"musicCategoryCodeArray":["topics","7f12","3e99"],"resourceId":"163329401067405312","title":"节奏型06--中速（双声部）","publisherCode":"","publisherName":"","gradeCode":"","gradeName":"","mediaType":"video","mediaTypeName":"视频","source":"jinduo","sourceName":"发子","musicCategory":"topics,7f12,3e99","musicCategoryNames":"主题课程,身体打击乐,四拍子节奏","resourceType":"composite","resourceTypeName":"主题资源","builtin":false,"needUnzip":false,"thumbnailFileUrl":"https://filecdn.jinduolingchuang.com/music/resources/r_163329401067405312/thumbnail-3737.jpg","resourceFileUrl":"https://filecdn.jinduolingchuang.com/music/resources/r_163329401067405312/content.ogv","resourceViewUrl":"https://filecdn.jinduolingchuang.com/music/resources/r_163329401067405312/content.ogv","published":false,"achieveFileUrl":"","description":""},{"musicCategoryCodeArray":["topics","7f12","3e99"],"resourceId":"163329014792978432","title":"节奏型06--慢速","publisherCode":"","publisherName":"","gradeCode":"","gradeName":"","mediaType":"video","mediaTypeName":"视频","source":"jinduo","sourceName":"发子","musicCategory":"topics,7f12,3e99","musicCategoryNames":"主题课程,身体打击乐,四拍子节奏","resourceType":"composite","resourceTypeName":"主题资源","builtin":false,"needUnzip":false,"thumbnailFileUrl":"https://filecdn.jinduolingchuang.com/music/resources/r_163329014792978432/thumbnail-1641.jpg","resourceFileUrl":"https://filecdn.jinduolingchuang.com/music/resources/r_163329014792978432/content.ogv","resourceViewUrl":"https://filecdn.jinduolingchuang.com/music/resources/r_163329014792978432/content.ogv","published":false,"achieveFileUrl":"","description":""}]}