{"pageNum":2,"retCode":"0000","message":"查询资源","timestamp":"1610704198467","page":1,"size":8,"count":8,"totalPages":3,"totalElements":"18","contents":[{"musicCategoryCodeArray":["topics","7f12","3e99"],"resourceId":"163330305300627456","title":"节奏型07--慢速","publisherCode":"","publisherName":"","gradeCode":"","gradeName":"","mediaType":"video","mediaTypeName":"视频","source":"jinduo","sourceName":"发子","musicCategory":"topics,7f12,3e99","musicCategoryNames":"主题课程,身体打击乐,四拍子节奏","resourceType":"composite","resourceTypeName":"主题资源","builtin":false,"needUnzip":false,"thumbnailFileUrl":"https://filecdn.jinduolingchuang.com/music/resources/r_163330305300627456/thumbnail-6583.jpg","resourceFileUrl":"https://filecdn.jinduolingchuang.com/music/resources/r_163330305300627456/content.ogv","resourceViewUrl":"https://filecdn.jinduolingchuang.com/music/resources/r_163330305300627456/content.ogv","published":false,"achieveFileUrl":"","description":""},{"musicCategoryCodeArray":["topics","7f12","3e99"],"resourceId":"163330580614742016","title":"节奏型08--慢速","publisherCode":"","publisherName":"","gradeCode":"","gradeName":"","mediaType":"video","mediaTypeName":"视频","source":"jinduo","sourceName":"发子","musicCategory":"topics,7f12,3e99","musicCategoryNames":"主题课程,身体打击乐,四拍子节奏","resourceType":"composite","resourceTypeName":"主题资源","builtin":false,"needUnzip":false,"thumbnailFileUrl":"https://filecdn.jinduolingchuang.com/music/resources/r_163330580614742016/thumbnail-4963.jpg","resourceFileUrl":"https://filecdn.jinduolingchuang.com/music/resources/r_163330580614742016/content.ogv","resourceViewUrl":"https://filecdn.jinduolingchuang.com/music/resources/r_163330580614742016/content.ogv","published":false,"achieveFileUrl":"","description":""},{"musicCategoryCodeArray":["topics","7f12","3e99"],"resourceId":"163330800241082368","title":"节奏型09--慢速","publisherCode":"","publisherName":"","gradeCode":"","gradeName":"","mediaType":"video","mediaTypeName":"视频","source":"jinduo","sourceName":"发子","musicCategory":"topics,7f12,3e99","musicCategoryNames":"主题课程,身体打击乐,四拍子节奏","resourceType":"composite","resourceTypeName":"主题资源","builtin":false,"needUnzip":false,"thumbnailFileUrl":"https://filecdn.jinduolingchuang.com/music/resources/r_163330800241082368/thumbnail-7329.jpg","resourceFileUrl":"https://filecdn.jinduolingchuang.com/music/resources/r_163330800241082368/content.ogv","resourceViewUrl":"https://filecdn.jinduolingchuang.com/music/resources/r_163330800241082368/content.ogv","published":false,"achieveFileUrl":"","description":""},{"musicCategoryCodeArray":["topics","7f12","3e99"],"resourceId":"163331012921655296","title":"节奏型10--慢速","publisherCode":"","publisherName":"","gradeCode":"","gradeName":"","mediaType":"video","mediaTypeName":"视频","source":"jinduo","sourceName":"发子","musicCategory":"topics,7f12,3e99","musicCategoryNames":"主题课程,身体打击乐,四拍子节奏","resourceType":"composite","resourceTypeName":"主题资源","builtin":false,"needUnzip":false,"thumbnailFileUrl":"https://filecdn.jinduolingchuang.com/music/resources/r_163331012921655296/thumbnail-8038.jpg","resourceFileUrl":"https://filecdn.jinduolingchuang.com/music/resources/r_163331012921655296/content.ogv","resourceViewUrl":"https://filecdn.jinduolingchuang.com/music/resources/r_163331012921655296/content.ogv","published":false,"achieveFileUrl":"","description":""},{"musicCategoryCodeArray":["topics","7f12","3e99"],"resourceId":"163331172716249088","title":"节奏型11--慢速","publisherCode":"","publisherName":"","gradeCode":"","gradeName":"","mediaType":"video","mediaTypeName":"视频","source":"jinduo","sourceName":"发子","musicCategory":"topics,7f12,3e99","musicCategoryNames":"主题课程,身体打击乐,四拍子节奏","resourceType":"composite","resourceTypeName":"主题资源","builtin":false,"needUnzip":false,"thumbnailFileUrl":"https://filecdn.jinduolingchuang.com/music/resources/r_163331172716249088/thumbnail-6136.jpg","resourceFileUrl":"https://filecdn.jinduolingchuang.com/music/resources/r_163331172716249088/content.ogv","resourceViewUrl":"https://filecdn.jinduolingchuang.com/music/resources/r_163331172716249088/content.ogv","published":false,"achieveFileUrl":"","description":""},{"musicCategoryCodeArray":["topics","7f12","3e99"],"resourceId":"163331343797714944","title":"节奏型12--慢速","publisherCode":"","publisherName":"","gradeCode":"","gradeName":"","mediaType":"video","mediaTypeName":"视频","source":"jinduo","sourceName":"发子","musicCategory":"topics,7f12,3e99","musicCategoryNames":"主题课程,身体打击乐,四拍子节奏","resourceType":"composite","resourceTypeName":"主题资源","builtin":false,"needUnzip":false,"thumbnailFileUrl":"https://filecdn.jinduolingchuang.com/music/resources/r_163331343797714944/thumbnail-6918.jpg","resourceFileUrl":"https://filecdn.jinduolingchuang.com/music/resources/r_163331343797714944/content.ogv","resourceViewUrl":"https://filecdn.jinduolingchuang.com/music/resources/r_163331343797714944/content.ogv","published":false,"achieveFileUrl":"","description":""},{"musicCategoryCodeArray":["topics","7f12","3e99"],"resourceId":"163331506645762048","title":"节奏型13--中速","publisherCode":"","publisherName":"","gradeCode":"","gradeName":"","mediaType":"video","mediaTypeName":"视频","source":"jinduo","sourceName":"发子","musicCategory":"topics,7f12,3e99","musicCategoryNames":"主题课程,身体打击乐,四拍子节奏","resourceType":"composite","resourceTypeName":"主题资源","builtin":false,"needUnzip":false,"thumbnailFileUrl":"https://filecdn.jinduolingchuang.com/music/resources/r_163331506645762048/thumbnail-5750.jpg","resourceFileUrl":"https://filecdn.jinduolingchuang.com/music/resources/r_163331506645762048/content.ogv","resourceViewUrl":"https://filecdn.jinduolingchuang.com/music/resources/r_163331506645762048/content.ogv","published":false,"achieveFileUrl":"","description":""},{"musicCategoryCodeArray":["topics","7f12","3e99"],"resourceId":"163331679899877376","title":"节奏型14--中速","publisherCode":"","publisherName":"","gradeCode":"","gradeName":"","mediaType":"video","mediaTypeName":"视频","source":"jinduo","sourceName":"发子","musicCategory":"topics,7f12,3e99","musicCategoryNames":"主题课程,身体打击乐,四拍子节奏","resourceType":"composite","resourceTypeName":"主题资源","builtin":false,"needUnzip":false,"thumbnailFileUrl":"https://filecdn.jinduolingchuang.com/music/resources/r_163331679899877376/thumbnail-7056.jpg","resourceFileUrl":"https://filecdn.jinduolingchuang.com/music/resources/r_163331679899877376/content.ogv","resourceViewUrl":"https://filecdn.jinduolingchuang.com/music/resources/r_163331679899877376/content.ogv","published":false,"achieveFileUrl":"","description":""}]}