{"pageNum":3,"retCode":"0000","message":"查询资源","timestamp":"1610704223005","page":2,"size":8,"count":2,"totalPages":3,"totalElements":"18","contents":[{"musicCategoryCodeArray":["topics","7f12","3e99"],"resourceId":"163331823185690624","title":"节奏型15--中速","publisherCode":"","publisherName":"","gradeCode":"","gradeName":"","mediaType":"video","mediaTypeName":"视频","source":"jinduo","sourceName":"发子","musicCategory":"topics,7f12,3e99","musicCategoryNames":"主题课程,身体打击乐,四拍子节奏","resourceType":"composite","resourceTypeName":"主题资源","builtin":false,"needUnzip":false,"thumbnailFileUrl":"https://filecdn.jinduolingchuang.com/music/resources/r_163331823185690624/thumbnail-1219.jpg","resourceFileUrl":"https://filecdn.jinduolingchuang.com/music/resources/r_163331823185690624/content.ogv","resourceViewUrl":"https://filecdn.jinduolingchuang.com/music/resources/r_163331823185690624/content.ogv","published":false,"achieveFileUrl":"","description":""},{"musicCategoryCodeArray":["topics","7f12","3e99"],"resourceId":"163332004933271552","title":"节奏型16--中速","publisherCode":"","publisherName":"","gradeCode":"","gradeName":"","mediaType":"video","mediaTypeName":"视频","source":"jinduo","sourceName":"发子","musicCategory":"topics,7f12,3e99","musicCategoryNames":"主题课程,身体打击乐,四拍子节奏","resourceType":"composite","resourceTypeName":"主题资源","builtin":false,"needUnzip":false,"thumbnailFileUrl":"https://filecdn.jinduolingchuang.com/music/resources/r_163332004933271552/thumbnail-4551.jpg","resourceFileUrl":"https://filecdn.jinduolingchuang.com/music/resources/r_163332004933271552/content.ogv","resourceViewUrl":"https://filecdn.jinduolingchuang.com/music/resources/r_163332004933271552/content.ogv","published":false,"achieveFileUrl":"","description":""}]}