{"pageNum":1,"retCode":"0000","message":"查询资源","timestamp":"1612869064895","page":0,"size":8,"count":8,"totalPages":3,"totalElements":"23","contents":[{"musicCategoryCodeArray":["topics","9c09","a3b1"],"resourceId":"272359550424711168","title":"你好老师（挑战三连音）","publisherCode":"","publisherName":"","gradeCode":"","gradeName":"","mediaType":"video","mediaTypeName":"视频","source":"internet","sourceName":"互联网","musicCategory":"topics,9c09,a3b1","musicCategoryNames":"主题课程,音乐游戏,声势游戏","resourceType":"composite","resourceTypeName":"主题资源","builtin":false,"needUnzip":false,"thumbnailFileUrl":"https://filecdn.jinduolingchuang.com/music/resources/r_272359550424711168/thumbnail-7390.jpg","resourceFileUrl":"https://filecdn.jinduolingchuang.com/music/resources/r_272359550424711168/content-392.mp4","resourceViewUrl":"https://filecdn.jinduolingchuang.com/music/resources/r_272359550424711168/content-392.mp4","published":false,"achieveFileUrl":"","favorite":false,"description":""},{"musicCategoryCodeArray":["topics","9c09","a3b1"],"resourceId":"272358404561829888","title":"俄罗斯舞-小打乐器","publisherCode":"","publisherName":"","gradeCode":"","gradeName":"","mediaType":"video","mediaTypeName":"视频","source":"internet","sourceName":"互联网","musicCategory":"topics,9c09,a3b1","musicCategoryNames":"主题课程,音乐游戏,声势游戏","resourceType":"composite","resourceTypeName":"主题资源","builtin":false,"needUnzip":false,"thumbnailFileUrl":"https://filecdn.jinduolingchuang.com/music/resources/r_272358404561829888/thumbnail-4177.jpg","resourceFileUrl":"https://filecdn.jinduolingchuang.com/music/resources/r_272358404561829888/content-178.mp4","resourceViewUrl":"https://filecdn.jinduolingchuang.com/music/resources/r_272358404561829888/content-178.mp4","published":false,"achieveFileUrl":"","favorite":false,"description":""},{"musicCategoryCodeArray":["topics","9c09","a3b1"],"resourceId":"271991808844627968","title":"光明节-声势","publisherCode":"","publisherName":"","gradeCode":"","gradeName":"","mediaType":"video","mediaTypeName":"视频","source":"internet","sourceName":"互联网","musicCategory":"topics,9c09,a3b1","musicCategoryNames":"主题课程,音乐游戏,声势游戏","resourceType":"composite","resourceTypeName":"主题资源","builtin":false,"needUnzip":false,"thumbnailFileUrl":"https://filecdn.jinduolingchuang.com/music/resources/r_271991808844627968/thumbnail-974.jpg","resourceFileUrl":"https://filecdn.jinduolingchuang.com/music/resources/r_271991808844627968/content-976.mp4","resourceViewUrl":"https://filecdn.jinduolingchuang.com/music/resources/r_271991808844627968/content-976.mp4","published":false,"achieveFileUrl":"","favorite":false,"description":""},{"musicCategoryCodeArray":["topics","9c09","a3b1"],"resourceId":"271992179944062976","title":"哈瓦_纳吉拉-声势","publisherCode":"","publisherName":"","gradeCode":"","gradeName":"","mediaType":"video","mediaTypeName":"视频","source":"internet","sourceName":"互联网","musicCategory":"topics,9c09,a3b1","musicCategoryNames":"主题课程,音乐游戏,声势游戏","resourceType":"composite","resourceTypeName":"主题资源","builtin":false,"needUnzip":false,"thumbnailFileUrl":"https://filecdn.jinduolingchuang.com/music/resources/r_271992179944062976/thumbnail-9464.jpg","resourceFileUrl":"https://filecdn.jinduolingchuang.com/music/resources/r_271992179944062976/content-465.mp4","resourceViewUrl":"https://filecdn.jinduolingchuang.com/music/resources/r_271992179944062976/content-465.mp4","published":false,"achieveFileUrl":"","favorite":false,"description":""},{"musicCategoryCodeArray":["topics","9c09","a3b1"],"resourceId":"271996517097668608","title":"在上王大厅里","publisherCode":"","publisherName":"","gradeCode":"","gradeName":"","mediaType":"video","mediaTypeName":"视频","source":"internet","sourceName":"互联网","musicCategory":"topics,9c09,a3b1","musicCategoryNames":"主题课程,音乐游戏,声势游戏","resourceType":"composite","resourceTypeName":"主题资源","builtin":false,"needUnzip":false,"thumbnailFileUrl":"https://filecdn.jinduolingchuang.com/music/resources/r_271996517097668608/thumbnail-3491.jpg","resourceFileUrl":"https://filecdn.jinduolingchuang.com/music/resources/r_271996517097668608/content-492.mp4","resourceViewUrl":"https://filecdn.jinduolingchuang.com/music/resources/r_271996517097668608/content-492.mp4","published":false,"achieveFileUrl":"","favorite":false,"description":""},{"musicCategoryCodeArray":["topics","9c09","a3b1"],"resourceId":"271991163588706304","title":"地狱勇士-声势","publisherCode":"","publisherName":"","gradeCode":"","gradeName":"","mediaType":"video","mediaTypeName":"视频","source":"internet","sourceName":"互联网","musicCategory":"topics,9c09,a3b1","musicCategoryNames":"主题课程,音乐游戏,声势游戏","resourceType":"composite","resourceTypeName":"主题资源","builtin":false,"needUnzip":false,"thumbnailFileUrl":"https://filecdn.jinduolingchuang.com/music/resources/r_271991163588706304/thumbnail-6909.jpg","resourceFileUrl":"https://filecdn.jinduolingchuang.com/music/resources/r_271991163588706304/content-911.mp4","resourceViewUrl":"https://filecdn.jinduolingchuang.com/music/resources/r_271991163588706304/content-911.mp4","published":false,"achieveFileUrl":"","favorite":false,"description":""},{"musicCategoryCodeArray":["topics","9c09","a3b1"],"resourceId":"272359908534386688","title":"塞比拉理发师（罗西尼）-小打乐器","publisherCode":"","publisherName":"","gradeCode":"","gradeName":"","mediaType":"video","mediaTypeName":"视频","source":"internet","sourceName":"互联网","musicCategory":"topics,9c09,a3b1","musicCategoryNames":"主题课程,音乐游戏,声势游戏","resourceType":"composite","resourceTypeName":"主题资源","builtin":false,"needUnzip":false,"thumbnailFileUrl":"https://filecdn.jinduolingchuang.com/music/resources/r_272359908534386688/thumbnail-2831.jpg","resourceFileUrl":"https://filecdn.jinduolingchuang.com/music/resources/r_272359908534386688/content-833.mp4","resourceViewUrl":"https://filecdn.jinduolingchuang.com/music/resources/r_272359908534386688/content-833.mp4","published":false,"achieveFileUrl":"","favorite":false,"description":""},{"musicCategoryCodeArray":["topics","9c09","a3b1"],"resourceId":"271992820871462912","title":"奶奶的缝制（希腊儿歌）-声势3","publisherCode":"","publisherName":"","gradeCode":"","gradeName":"","mediaType":"video","mediaTypeName":"视频","source":"internet","sourceName":"互联网","musicCategory":"topics,9c09,a3b1","musicCategoryNames":"主题课程,音乐游戏,声势游戏","resourceType":"composite","resourceTypeName":"主题资源","builtin":false,"needUnzip":false,"thumbnailFileUrl":"https://filecdn.jinduolingchuang.com/music/resources/r_271992820871462912/thumbnail-2267.jpg","resourceFileUrl":"https://filecdn.jinduolingchuang.com/music/resources/r_271992820871462912/content-767.mp4","resourceViewUrl":"https://filecdn.jinduolingchuang.com/music/resources/r_271992820871462912/content-767.mp4","published":false,"achieveFileUrl":"","favorite":false,"description":""}],"nonce":"279328338105860096"}