{"pageNum":2,"retCode":"0000","message":"查询资源","timestamp":"1611642819848","page":1,"size":8,"count":8,"totalPages":3,"totalElements":"23","contents":[{"musicCategoryCodeArray":["topics","9c09","a3b1"],"resourceId":"271993844650737664","title":"威廉退尔","publisherCode":"","publisherName":"","gradeCode":"","gradeName":"","mediaType":"video","mediaTypeName":"视频","source":"internet","sourceName":"互联网","musicCategory":"topics,9c09,a3b1","musicCategoryNames":"主题课程,音乐游戏,声势游戏","resourceType":"composite","resourceTypeName":"主题资源","builtin":false,"needUnzip":false,"thumbnailFileUrl":"https://filecdn.jinduolingchuang.com/music/resources/r_271993844650737664/thumbnail-6345.jpg","resourceFileUrl":"https://filecdn.jinduolingchuang.com/music/resources/r_271993844650737664/content-347.mp4","resourceViewUrl":"https://filecdn.jinduolingchuang.com/music/resources/r_271993844650737664/content-347.mp4","published":false,"achieveFileUrl":"","description":""},{"musicCategoryCodeArray":["topics","9c09","a3b1"],"resourceId":"272360705741553664","title":"小丑之舞-小打乐器","publisherCode":"","publisherName":"","gradeCode":"","gradeName":"","mediaType":"video","mediaTypeName":"视频","source":"internet","sourceName":"互联网","musicCategory":"topics,9c09,a3b1","musicCategoryNames":"主题课程,音乐游戏,声势游戏","resourceType":"composite","resourceTypeName":"主题资源","builtin":false,"needUnzip":false,"thumbnailFileUrl":"https://filecdn.jinduolingchuang.com/music/resources/r_272360705741553664/thumbnail-2824.jpg","resourceFileUrl":"https://filecdn.jinduolingchuang.com/music/resources/r_272360705741553664/content-826.mp4","resourceViewUrl":"https://filecdn.jinduolingchuang.com/music/resources/r_272360705741553664/content-826.mp4","published":false,"achieveFileUrl":"","description":""},{"musicCategoryCodeArray":["topics","9c09","a3b1"],"resourceId":"271995723120115712","title":"小猫一家-声势","publisherCode":"","publisherName":"","gradeCode":"","gradeName":"","mediaType":"video","mediaTypeName":"视频","source":"internet","sourceName":"互联网","musicCategory":"topics,9c09,a3b1","musicCategoryNames":"主题课程,音乐游戏,声势游戏","resourceType":"composite","resourceTypeName":"主题资源","builtin":false,"needUnzip":false,"thumbnailFileUrl":"https://filecdn.jinduolingchuang.com/music/resources/r_271995723120115712/thumbnail-4439.jpg","resourceFileUrl":"https://filecdn.jinduolingchuang.com/music/resources/r_271995723120115712/content-442.mp4","resourceViewUrl":"https://filecdn.jinduolingchuang.com/music/resources/r_271995723120115712/content-442.mp4","published":false,"achieveFileUrl":"","description":""},{"musicCategoryCodeArray":["topics","9c09","a3b1"],"resourceId":"272357972783398912","title":"巴巴亚嘎-小打乐器","publisherCode":"","publisherName":"","gradeCode":"","gradeName":"","mediaType":"video","mediaTypeName":"视频","source":"internet","sourceName":"互联网","musicCategory":"topics,9c09,a3b1","musicCategoryNames":"主题课程,音乐游戏,声势游戏","resourceType":"composite","resourceTypeName":"主题资源","builtin":false,"needUnzip":false,"thumbnailFileUrl":"https://filecdn.jinduolingchuang.com/music/resources/r_272357972783398912/thumbnail-2176.jpg","resourceFileUrl":"https://filecdn.jinduolingchuang.com/music/resources/r_272357972783398912/content-237.mp4","resourceViewUrl":"https://filecdn.jinduolingchuang.com/music/resources/r_272357972783398912/content-237.mp4","published":false,"achieveFileUrl":"","description":""},{"musicCategoryCodeArray":["topics","9c09","a3b1"],"resourceId":"271990778354466816","title":"布谷鸟","publisherCode":"","publisherName":"","gradeCode":"","gradeName":"","mediaType":"video","mediaTypeName":"视频","source":"internet","sourceName":"互联网","musicCategory":"topics,9c09,a3b1","musicCategoryNames":"主题课程,音乐游戏,声势游戏","resourceType":"composite","resourceTypeName":"主题资源","builtin":false,"needUnzip":false,"thumbnailFileUrl":"https://filecdn.jinduolingchuang.com/music/resources/r_271990778354466816/thumbnail-5652.jpg","resourceFileUrl":"https://filecdn.jinduolingchuang.com/music/resources/r_271990778354466816/content-655.mp4","resourceViewUrl":"https://filecdn.jinduolingchuang.com/music/resources/r_271990778354466816/content-655.mp4","published":false,"achieveFileUrl":"","description":""},{"musicCategoryCodeArray":["topics","9c09","a3b1"],"resourceId":"271992547956490240","title":"拉德斯基进行曲-声势","publisherCode":"","publisherName":"","gradeCode":"","gradeName":"","mediaType":"video","mediaTypeName":"视频","source":"internet","sourceName":"互联网","musicCategory":"topics,9c09,a3b1","musicCategoryNames":"主题课程,音乐游戏,声势游戏","resourceType":"composite","resourceTypeName":"主题资源","builtin":false,"needUnzip":false,"thumbnailFileUrl":"https://filecdn.jinduolingchuang.com/music/resources/r_271992547956490240/thumbnail-7407.jpg","resourceFileUrl":"https://filecdn.jinduolingchuang.com/music/resources/r_271992547956490240/content-409.mp4","resourceViewUrl":"https://filecdn.jinduolingchuang.com/music/resources/r_271992547956490240/content-409.mp4","published":false,"achieveFileUrl":"","description":""},{"musicCategoryCodeArray":["topics","9c09","a3b1"],"resourceId":"271333801819373568","title":"权力游戏-声势","publisherCode":"","publisherName":"","gradeCode":"","gradeName":"","mediaType":"video","mediaTypeName":"视频","source":"internet","sourceName":"互联网","musicCategory":"topics,9c09,a3b1","musicCategoryNames":"主题课程,音乐游戏,声势游戏","resourceType":"composite","resourceTypeName":"主题资源","builtin":false,"needUnzip":false,"thumbnailFileUrl":"https://filecdn.jinduolingchuang.com/music/resources/r_271333801819373568/thumbnail-5133.jpg","resourceFileUrl":"https://filecdn.jinduolingchuang.com/music/resources/r_271333801819373568/content-134.mp4","resourceViewUrl":"https://filecdn.jinduolingchuang.com/music/resources/r_271333801819373568/content-134.mp4","published":false,"achieveFileUrl":"","description":""},{"musicCategoryCodeArray":["topics","9c09","a3b1"],"resourceId":"271993498188644352","title":"糖梅仙子-声势","publisherCode":"","publisherName":"","gradeCode":"","gradeName":"","mediaType":"video","mediaTypeName":"视频","source":"internet","sourceName":"互联网","musicCategory":"topics,9c09,a3b1","musicCategoryNames":"主题课程,音乐游戏,声势游戏","resourceType":"composite","resourceTypeName":"主题资源","builtin":false,"needUnzip":false,"thumbnailFileUrl":"https://filecdn.jinduolingchuang.com/music/resources/r_271993498188644352/thumbnail-3738.jpg","resourceFileUrl":"https://filecdn.jinduolingchuang.com/music/resources/r_271993498188644352/content-739.mp4","resourceViewUrl":"https://filecdn.jinduolingchuang.com/music/resources/r_271993498188644352/content-739.mp4","published":false,"achieveFileUrl":"","description":""}],"nonce":"0"}