{"pageNum":3,"retCode":"0000","message":"查询资源","timestamp":"1611642854194","page":2,"size":8,"count":7,"totalPages":3,"totalElements":"23","contents":[{"musicCategoryCodeArray":["topics","9c09","a3b1"],"resourceId":"272360549885411328","title":"维瓦尔第（秋）-小打乐器","publisherCode":"","publisherName":"","gradeCode":"","gradeName":"","mediaType":"video","mediaTypeName":"视频","source":"internet","sourceName":"互联网","musicCategory":"topics,9c09,a3b1","musicCategoryNames":"主题课程,音乐游戏,声势游戏","resourceType":"composite","resourceTypeName":"主题资源","builtin":false,"needUnzip":false,"thumbnailFileUrl":"https://filecdn.jinduolingchuang.com/music/resources/r_272360549885411328/thumbnail-5916.jpg","resourceFileUrl":"https://filecdn.jinduolingchuang.com/music/resources/r_272360549885411328/content-918.mp4","resourceViewUrl":"https://filecdn.jinduolingchuang.com/music/resources/r_272360549885411328/content-918.mp4","published":false,"achieveFileUrl":"","description":""},{"musicCategoryCodeArray":["topics","9c09","a3b1"],"resourceId":"272358637219872768","title":"胡桃夹子-声势","publisherCode":"","publisherName":"","gradeCode":"","gradeName":"","mediaType":"video","mediaTypeName":"视频","source":"internet","sourceName":"互联网","musicCategory":"topics,9c09,a3b1","musicCategoryNames":"主题课程,音乐游戏,声势游戏","resourceType":"composite","resourceTypeName":"主题资源","builtin":false,"needUnzip":false,"thumbnailFileUrl":"https://filecdn.jinduolingchuang.com/music/resources/r_272358637219872768/thumbnail-9641.jpg","resourceFileUrl":"https://filecdn.jinduolingchuang.com/music/resources/r_272358637219872768/content-643.mp4","resourceViewUrl":"https://filecdn.jinduolingchuang.com/music/resources/r_272358637219872768/content-643.mp4","published":false,"achieveFileUrl":"","description":""},{"musicCategoryCodeArray":["topics","9c09","a3b1"],"resourceId":"271993153462992896","title":"舒伯特","publisherCode":"","publisherName":"","gradeCode":"","gradeName":"","mediaType":"video","mediaTypeName":"视频","source":"internet","sourceName":"互联网","musicCategory":"topics,9c09,a3b1","musicCategoryNames":"主题课程,音乐游戏,声势游戏","resourceType":"composite","resourceTypeName":"主题资源","builtin":false,"needUnzip":false,"thumbnailFileUrl":"https://filecdn.jinduolingchuang.com/music/resources/r_271993153462992896/thumbnail-1564.jpg","resourceFileUrl":"https://filecdn.jinduolingchuang.com/music/resources/r_271993153462992896/content-565.mp4","resourceViewUrl":"https://filecdn.jinduolingchuang.com/music/resources/r_271993153462992896/content-565.mp4","published":false,"achieveFileUrl":"","description":""},{"musicCategoryCodeArray":["topics","9c09","a3b1"],"resourceId":"272359297302659072","title":"铃儿响叮当-声势","publisherCode":"","publisherName":"","gradeCode":"","gradeName":"","mediaType":"video","mediaTypeName":"视频","source":"internet","sourceName":"互联网","musicCategory":"topics,9c09,a3b1","musicCategoryNames":"主题课程,音乐游戏,声势游戏","resourceType":"composite","resourceTypeName":"主题资源","builtin":false,"needUnzip":false,"thumbnailFileUrl":"https://filecdn.jinduolingchuang.com/music/resources/r_272359297302659072/thumbnail-7026.jpg","resourceFileUrl":"https://filecdn.jinduolingchuang.com/music/resources/r_272359297302659072/content-28.mp4","resourceViewUrl":"https://filecdn.jinduolingchuang.com/music/resources/r_272359297302659072/content-28.mp4","published":false,"achieveFileUrl":"","description":""},{"musicCategoryCodeArray":["topics","9c09","a3b1"],"resourceId":"271994435129049088","title":"闲聊波尔卡-声势","publisherCode":"","publisherName":"","gradeCode":"","gradeName":"","mediaType":"video","mediaTypeName":"视频","source":"internet","sourceName":"互联网","musicCategory":"topics,9c09,a3b1","musicCategoryNames":"主题课程,音乐游戏,声势游戏","resourceType":"composite","resourceTypeName":"主题资源","builtin":false,"needUnzip":false,"thumbnailFileUrl":"https://filecdn.jinduolingchuang.com/music/resources/r_271994435129049088/thumbnail-7122.jpg","resourceFileUrl":"https://filecdn.jinduolingchuang.com/music/resources/r_271994435129049088/content-123.mp4","resourceViewUrl":"https://filecdn.jinduolingchuang.com/music/resources/r_271994435129049088/content-123.mp4","published":false,"achieveFileUrl":"","description":""},{"musicCategoryCodeArray":["topics","9c09","a3b1"],"resourceId":"271994148670668800","title":"闲聊波尔卡（简易版）","publisherCode":"","publisherName":"","gradeCode":"","gradeName":"","mediaType":"video","mediaTypeName":"视频","source":"internet","sourceName":"互联网","musicCategory":"topics,9c09,a3b1","musicCategoryNames":"主题课程,音乐游戏,声势游戏","resourceType":"composite","resourceTypeName":"主题资源","builtin":false,"needUnzip":false,"thumbnailFileUrl":"https://filecdn.jinduolingchuang.com/music/resources/r_271994148670668800/thumbnail-8816.jpg","resourceFileUrl":"https://filecdn.jinduolingchuang.com/music/resources/r_271994148670668800/content-817.mp4","resourceViewUrl":"https://filecdn.jinduolingchuang.com/music/resources/r_271994148670668800/content-817.mp4","published":false,"achieveFileUrl":"","description":""},{"musicCategoryCodeArray":["topics","9c09","a3b1"],"resourceId":"271996165174591488","title":"雪橇之旅","publisherCode":"","publisherName":"","gradeCode":"","gradeName":"","mediaType":"video","mediaTypeName":"视频","source":"internet","sourceName":"互联网","musicCategory":"topics,9c09,a3b1","musicCategoryNames":"主题课程,音乐游戏,声势游戏","resourceType":"composite","resourceTypeName":"主题资源","builtin":false,"needUnzip":false,"thumbnailFileUrl":"https://filecdn.jinduolingchuang.com/music/resources/r_271996165174591488/thumbnail-9583.jpg","resourceFileUrl":"https://filecdn.jinduolingchuang.com/music/resources/r_271996165174591488/content-584.mp4","resourceViewUrl":"https://filecdn.jinduolingchuang.com/music/resources/r_271996165174591488/content-584.mp4","published":false,"achieveFileUrl":"","description":""}],"nonce":"0"}