{"pageNum":1,"retCode":"0000","message":"查询资源","timestamp":"1610704713650","page":0,"size":8,"count":8,"totalPages":2,"totalElements":"12","contents":[{"musicCategoryCodeArray":["topics","f16f"],"resourceId":"164017635544006656","title":"海顿《惊愕交响曲》","publisherCode":"","publisherName":"","gradeCode":"","gradeName":"","mediaType":"video","mediaTypeName":"视频","source":"jinduo","sourceName":"发子","musicCategory":"topics,f16f","musicCategoryNames":"主题课程,稳定速度训练","resourceType":"composite","resourceTypeName":"主题资源","builtin":false,"needUnzip":false,"thumbnailFileUrl":"https://filecdn.jinduolingchuang.com/music/resources/r_164017635544006656/thumbnail-1871.jpg","resourceFileUrl":"https://filecdn.jinduolingchuang.com/music/resources/r_164017635544006656/content.ogv","resourceViewUrl":"https://filecdn.jinduolingchuang.com/music/resources/r_164017635544006656/content.ogv","published":false,"achieveFileUrl":"","description":""},{"musicCategoryCodeArray":["topics","f16f"],"resourceId":"164019417984794624","title":"莫扎特《小星星变奏曲》","publisherCode":"","publisherName":"","gradeCode":"","gradeName":"","mediaType":"video","mediaTypeName":"视频","source":"jinduo","sourceName":"发子","musicCategory":"topics,f16f","musicCategoryNames":"主题课程,稳定速度训练","resourceType":"composite","resourceTypeName":"主题资源","builtin":false,"needUnzip":false,"thumbnailFileUrl":"https://filecdn.jinduolingchuang.com/music/resources/r_164019417984794624/thumbnail-6840.jpg","resourceFileUrl":"https://filecdn.jinduolingchuang.com/music/resources/r_164019417984794624/content.ogv","resourceViewUrl":"https://filecdn.jinduolingchuang.com/music/resources/r_164019417984794624/content.ogv","published":false,"achieveFileUrl":"","description":""},{"musicCategoryCodeArray":["topics","f16f"],"resourceId":"164017328516759552","title":"贝多芬《欢乐颂》","publisherCode":"","publisherName":"","gradeCode":"","gradeName":"","mediaType":"video","mediaTypeName":"视频","source":"jinduo","sourceName":"发子","musicCategory":"topics,f16f","musicCategoryNames":"主题课程,稳定速度训练","resourceType":"composite","resourceTypeName":"主题资源","builtin":false,"needUnzip":false,"thumbnailFileUrl":"https://filecdn.jinduolingchuang.com/music/resources/r_164017328516759552/thumbnail-8741.jpg","resourceFileUrl":"https://filecdn.jinduolingchuang.com/music/resources/r_164017328516759552/content.ogv","resourceViewUrl":"https://filecdn.jinduolingchuang.com/music/resources/r_164017328516759552/content.ogv","published":false,"achieveFileUrl":"","description":""},{"musicCategoryCodeArray":["topics","f16f"],"resourceId":"164017864062271488","title":"发子创作《非洲节奏》","publisherCode":"","publisherName":"","gradeCode":"","gradeName":"","mediaType":"video","mediaTypeName":"视频","source":"jinduo","sourceName":"发子","musicCategory":"topics,f16f","musicCategoryNames":"主题课程,稳定速度训练","resourceType":"composite","resourceTypeName":"主题资源","builtin":false,"needUnzip":false,"thumbnailFileUrl":"https://filecdn.jinduolingchuang.com/music/resources/r_164017864062271488/thumbnail-6357.jpg","resourceFileUrl":"https://filecdn.jinduolingchuang.com/music/resources/r_164017864062271488/content.ogv","resourceViewUrl":"https://filecdn.jinduolingchuang.com/music/resources/r_164017864062271488/content.ogv","published":false,"achieveFileUrl":"","description":""},{"musicCategoryCodeArray":["topics","f16f"],"resourceId":"164018856300380160","title":"发子改编《什锦菜》","publisherCode":"","publisherName":"","gradeCode":"","gradeName":"","mediaType":"video","mediaTypeName":"视频","source":"jinduo","sourceName":"发子","musicCategory":"topics,f16f","musicCategoryNames":"主题课程,稳定速度训练","resourceType":"composite","resourceTypeName":"主题资源","builtin":false,"needUnzip":false,"thumbnailFileUrl":"https://filecdn.jinduolingchuang.com/music/resources/r_164018856300380160/thumbnail-2938.jpg","resourceFileUrl":"https://filecdn.jinduolingchuang.com/music/resources/r_164018856300380160/content.ogv","resourceViewUrl":"https://filecdn.jinduolingchuang.com/music/resources/r_164018856300380160/content.ogv","published":false,"achieveFileUrl":"","description":""},{"musicCategoryCodeArray":["topics","f16f"],"resourceId":"164018190899216384","title":"发子改编《华尔兹》","publisherCode":"","publisherName":"","gradeCode":"","gradeName":"","mediaType":"video","mediaTypeName":"视频","source":"jinduo","sourceName":"发子","musicCategory":"topics,f16f","musicCategoryNames":"主题课程,稳定速度训练","resourceType":"composite","resourceTypeName":"主题资源","builtin":false,"needUnzip":false,"thumbnailFileUrl":"https://filecdn.jinduolingchuang.com/music/resources/r_164018190899216384/thumbnail-4272.jpg","resourceFileUrl":"https://filecdn.jinduolingchuang.com/music/resources/r_164018190899216384/content.ogv","resourceViewUrl":"https://filecdn.jinduolingchuang.com/music/resources/r_164018190899216384/content.ogv","published":false,"achieveFileUrl":"","description":""},{"musicCategoryCodeArray":["topics","f16f"],"resourceId":"164019022478704640","title":"发子改编《我和你》","publisherCode":"","publisherName":"","gradeCode":"","gradeName":"","mediaType":"video","mediaTypeName":"视频","source":"jinduo","sourceName":"发子","musicCategory":"topics,f16f","musicCategoryNames":"主题课程,稳定速度训练","resourceType":"composite","resourceTypeName":"主题资源","builtin":false,"needUnzip":false,"thumbnailFileUrl":"https://filecdn.jinduolingchuang.com/music/resources/r_164019022478704640/thumbnail-2547.jpg","resourceFileUrl":"https://filecdn.jinduolingchuang.com/music/resources/r_164019022478704640/content.ogv","resourceViewUrl":"https://filecdn.jinduolingchuang.com/music/resources/r_164019022478704640/content.ogv","published":false,"achieveFileUrl":"","description":""},{"musicCategoryCodeArray":["topics","f16f"],"resourceId":"164018515072778240","title":"发子改编《老麦克唐纳的牧场》","publisherCode":"","publisherName":"","gradeCode":"","gradeName":"","mediaType":"video","mediaTypeName":"视频","source":"jinduo","sourceName":"发子","musicCategory":"topics,f16f","musicCategoryNames":"主题课程,稳定速度训练","resourceType":"composite","resourceTypeName":"主题资源","builtin":false,"needUnzip":false,"thumbnailFileUrl":"https://filecdn.jinduolingchuang.com/music/resources/r_164018515072778240/thumbnail-1561.jpg","resourceFileUrl":"https://filecdn.jinduolingchuang.com/music/resources/r_164018515072778240/content.ogv","resourceViewUrl":"https://filecdn.jinduolingchuang.com/music/resources/r_164018515072778240/content.ogv","published":false,"achieveFileUrl":"","description":""}]}