{"pageNum":2,"retCode":"0000","message":"查询资源","timestamp":"1610704745821","page":1,"size":8,"count":4,"totalPages":2,"totalElements":"12","contents":[{"musicCategoryCodeArray":["topics","f16f"],"resourceId":"164019233674493952","title":"发子改编《趾高气扬的毛驴》","publisherCode":"","publisherName":"","gradeCode":"","gradeName":"","mediaType":"video","mediaTypeName":"视频","source":"jinduo","sourceName":"发子","musicCategory":"topics,f16f","musicCategoryNames":"主题课程,稳定速度训练","resourceType":"composite","resourceTypeName":"主题资源","builtin":false,"needUnzip":false,"thumbnailFileUrl":"https://filecdn.jinduolingchuang.com/music/resources/r_164019233674493952/thumbnail-2900.jpg","resourceFileUrl":"https://filecdn.jinduolingchuang.com/music/resources/r_164019233674493952/content.ogv","resourceViewUrl":"https://filecdn.jinduolingchuang.com/music/resources/r_164019233674493952/content.ogv","published":false,"achieveFileUrl":"","description":""},{"musicCategoryCodeArray":["topics","f16f"],"resourceId":"164018700792365056","title":"发子改编《铃儿响叮当》","publisherCode":"","publisherName":"","gradeCode":"","gradeName":"","mediaType":"video","mediaTypeName":"视频","source":"jinduo","sourceName":"发子","musicCategory":"topics,f16f","musicCategoryNames":"主题课程,稳定速度训练","resourceType":"composite","resourceTypeName":"主题资源","builtin":false,"needUnzip":false,"thumbnailFileUrl":"https://filecdn.jinduolingchuang.com/music/resources/r_164018700792365056/thumbnail-5902.jpg","resourceFileUrl":"https://filecdn.jinduolingchuang.com/music/resources/r_164018700792365056/content.ogv","resourceViewUrl":"https://filecdn.jinduolingchuang.com/music/resources/r_164018700792365056/content.ogv","published":false,"achieveFileUrl":"","description":""},{"musicCategoryCodeArray":["topics","f16f"],"resourceId":"164018357463416832","title":"发子改编《集市》","publisherCode":"","publisherName":"","gradeCode":"","gradeName":"","mediaType":"video","mediaTypeName":"视频","source":"jinduo","sourceName":"发子","musicCategory":"topics,f16f","musicCategoryNames":"主题课程,稳定速度训练","resourceType":"composite","resourceTypeName":"主题资源","builtin":false,"needUnzip":false,"thumbnailFileUrl":"https://filecdn.jinduolingchuang.com/music/resources/r_164018357463416832/thumbnail-3989.jpg","resourceFileUrl":"https://filecdn.jinduolingchuang.com/music/resources/r_164018357463416832/content.ogv","resourceViewUrl":"https://filecdn.jinduolingchuang.com/music/resources/r_164018357463416832/content.ogv","published":false,"achieveFileUrl":"","description":""},{"musicCategoryCodeArray":["topics","f16f"],"resourceId":"164018043196801024","title":"发子改编《非洲音乐》","publisherCode":"","publisherName":"","gradeCode":"","gradeName":"","mediaType":"video","mediaTypeName":"视频","source":"jinduo","sourceName":"发子","musicCategory":"topics,f16f","musicCategoryNames":"主题课程,稳定速度训练","resourceType":"composite","resourceTypeName":"主题资源","builtin":false,"needUnzip":false,"thumbnailFileUrl":"https://filecdn.jinduolingchuang.com/music/resources/r_164018043196801024/thumbnail-9059.jpg","resourceFileUrl":"https://filecdn.jinduolingchuang.com/music/resources/r_164018043196801024/content.ogv","resourceViewUrl":"https://filecdn.jinduolingchuang.com/music/resources/r_164018043196801024/content.ogv","published":false,"achieveFileUrl":"","description":""}]}