{"pageNum":1,"retCode":"0000","message":"查询资源","timestamp":"1610704926203","page":0,"size":8,"count":8,"totalPages":2,"totalElements":"13","contents":[{"musicCategoryCodeArray":["topics","ce1b"],"resourceId":"164801730335211520","title":"中提琴","publisherCode":"","publisherName":"","gradeCode":"","gradeName":"","mediaType":"video","mediaTypeName":"视频","source":"jinduo","sourceName":"发子","musicCategory":"topics,ce1b","musicCategoryNames":"主题课程,乐器介绍","resourceType":"composite","resourceTypeName":"主题资源","builtin":false,"needUnzip":false,"thumbnailFileUrl":"https://filecdn.jinduolingchuang.com/music/resources/r_164801730335211520/thumbnail-4633.jpg","resourceFileUrl":"https://filecdn.jinduolingchuang.com/music/resources/r_164801730335211520/content.ogv","resourceViewUrl":"https://filecdn.jinduolingchuang.com/music/resources/r_164801730335211520/content.ogv","published":false,"achieveFileUrl":"","description":""},{"musicCategoryCodeArray":["topics","ce1b"],"resourceId":"164800476217344000","title":"低音提琴","publisherCode":"","publisherName":"","gradeCode":"","gradeName":"","mediaType":"video","mediaTypeName":"视频","source":"jinduo","sourceName":"发子","musicCategory":"topics,ce1b","musicCategoryNames":"主题课程,乐器介绍","resourceType":"composite","resourceTypeName":"主题资源","builtin":false,"needUnzip":false,"thumbnailFileUrl":"https://filecdn.jinduolingchuang.com/music/resources/r_164800476217344000/thumbnail-5639.jpg","resourceFileUrl":"https://filecdn.jinduolingchuang.com/music/resources/r_164800476217344000/content.ogv","resourceViewUrl":"https://filecdn.jinduolingchuang.com/music/resources/r_164800476217344000/content.ogv","published":false,"achieveFileUrl":"","description":""},{"musicCategoryCodeArray":["topics","ce1b"],"resourceId":"164801007476277248","title":"双簧管","publisherCode":"","publisherName":"","gradeCode":"","gradeName":"","mediaType":"video","mediaTypeName":"视频","source":"jinduo","sourceName":"发子","musicCategory":"topics,ce1b","musicCategoryNames":"主题课程,乐器介绍","resourceType":"composite","resourceTypeName":"主题资源","builtin":false,"needUnzip":false,"thumbnailFileUrl":"https://filecdn.jinduolingchuang.com/music/resources/r_164801007476277248/thumbnail-2298.jpg","resourceFileUrl":"https://filecdn.jinduolingchuang.com/music/resources/r_164801007476277248/content.ogv","resourceViewUrl":"https://filecdn.jinduolingchuang.com/music/resources/r_164801007476277248/content.ogv","published":false,"achieveFileUrl":"","description":""},{"musicCategoryCodeArray":["topics","ce1b"],"resourceId":"164801396711882752","title":"圆号","publisherCode":"","publisherName":"","gradeCode":"","gradeName":"","mediaType":"video","mediaTypeName":"视频","source":"jinduo","sourceName":"发子","musicCategory":"topics,ce1b","musicCategoryNames":"主题课程,乐器介绍","resourceType":"composite","resourceTypeName":"主题资源","builtin":false,"needUnzip":false,"thumbnailFileUrl":"https://filecdn.jinduolingchuang.com/music/resources/r_164801396711882752/thumbnail-5092.jpg","resourceFileUrl":"https://filecdn.jinduolingchuang.com/music/resources/r_164801396711882752/content.ogv","resourceViewUrl":"https://filecdn.jinduolingchuang.com/music/resources/r_164801396711882752/content.ogv","published":false,"achieveFileUrl":"","description":""},{"musicCategoryCodeArray":["topics","ce1b"],"resourceId":"164800250974830592","title":"大提琴","publisherCode":"","publisherName":"","gradeCode":"","gradeName":"","mediaType":"video","mediaTypeName":"视频","source":"jinduo","sourceName":"发子","musicCategory":"topics,ce1b","musicCategoryNames":"主题课程,乐器介绍","resourceType":"composite","resourceTypeName":"主题资源","builtin":false,"needUnzip":false,"thumbnailFileUrl":"https://filecdn.jinduolingchuang.com/music/resources/r_164800250974830592/thumbnail-2038.jpg","resourceFileUrl":"https://filecdn.jinduolingchuang.com/music/resources/r_164800250974830592/content.ogv","resourceViewUrl":"https://filecdn.jinduolingchuang.com/music/resources/r_164800250974830592/content.ogv","published":false,"achieveFileUrl":"","description":""},{"musicCategoryCodeArray":["topics","ce1b"],"resourceId":"164801150049058816","title":"小号","publisherCode":"","publisherName":"","gradeCode":"","gradeName":"","mediaType":"video","mediaTypeName":"视频","source":"jinduo","sourceName":"发子","musicCategory":"topics,ce1b","musicCategoryNames":"主题课程,乐器介绍","resourceType":"composite","resourceTypeName":"主题资源","builtin":false,"needUnzip":false,"thumbnailFileUrl":"https://filecdn.jinduolingchuang.com/music/resources/r_164801150049058816/thumbnail-6282.jpg","resourceFileUrl":"https://filecdn.jinduolingchuang.com/music/resources/r_164801150049058816/content.ogv","resourceViewUrl":"https://filecdn.jinduolingchuang.com/music/resources/r_164801150049058816/content.ogv","published":false,"achieveFileUrl":"","description":""},{"musicCategoryCodeArray":["topics","ce1b"],"resourceId":"164801278646419456","title":"小提琴","publisherCode":"","publisherName":"","gradeCode":"","gradeName":"","mediaType":"video","mediaTypeName":"视频","source":"jinduo","sourceName":"发子","musicCategory":"topics,ce1b","musicCategoryNames":"主题课程,乐器介绍","resourceType":"composite","resourceTypeName":"主题资源","builtin":false,"needUnzip":false,"thumbnailFileUrl":"https://filecdn.jinduolingchuang.com/music/resources/r_164801278646419456/thumbnail-6945.jpg","resourceFileUrl":"https://filecdn.jinduolingchuang.com/music/resources/r_164801278646419456/content.ogv","resourceViewUrl":"https://filecdn.jinduolingchuang.com/music/resources/r_164801278646419456/content.ogv","published":false,"achieveFileUrl":"","description":""},{"musicCategoryCodeArray":["topics","ce1b"],"resourceId":"164800896608239616","title":"手风琴","publisherCode":"","publisherName":"","gradeCode":"","gradeName":"","mediaType":"video","mediaTypeName":"视频","source":"jinduo","sourceName":"发子","musicCategory":"topics,ce1b","musicCategoryNames":"主题课程,乐器介绍","resourceType":"composite","resourceTypeName":"主题资源","builtin":false,"needUnzip":false,"thumbnailFileUrl":"https://filecdn.jinduolingchuang.com/music/resources/r_164800896608239616/thumbnail-5857.jpg","resourceFileUrl":"https://filecdn.jinduolingchuang.com/music/resources/r_164800896608239616/content.ogv","resourceViewUrl":"https://filecdn.jinduolingchuang.com/music/resources/r_164800896608239616/content.ogv","published":false,"achieveFileUrl":"","description":""}]}