{"pageNum":2,"retCode":"0000","message":"查询资源","timestamp":"1610704977752","page":1,"size":8,"count":5,"totalPages":2,"totalElements":"13","contents":[{"musicCategoryCodeArray":["topics","ce1b"],"resourceId":"164800686771404800","title":"爵士鼓","publisherCode":"","publisherName":"","gradeCode":"","gradeName":"","mediaType":"video","mediaTypeName":"视频","source":"jinduo","sourceName":"发子","musicCategory":"topics,ce1b","musicCategoryNames":"主题课程,乐器介绍","resourceType":"composite","resourceTypeName":"主题资源","builtin":false,"needUnzip":false,"thumbnailFileUrl":"https://filecdn.jinduolingchuang.com/music/resources/r_164800686771404800/thumbnail-5829.jpg","resourceFileUrl":"https://filecdn.jinduolingchuang.com/music/resources/r_164800686771404800/content.ogv","resourceViewUrl":"https://filecdn.jinduolingchuang.com/music/resources/r_164800686771404800/content.ogv","published":false,"achieveFileUrl":"","description":""},{"musicCategoryCodeArray":["topics","ce1b"],"resourceId":"164800589279002624","title":"管风琴","publisherCode":"","publisherName":"","gradeCode":"","gradeName":"","mediaType":"video","mediaTypeName":"视频","source":"jinduo","sourceName":"发子","musicCategory":"topics,ce1b","musicCategoryNames":"主题课程,乐器介绍","resourceType":"composite","resourceTypeName":"主题资源","builtin":false,"needUnzip":false,"thumbnailFileUrl":"https://filecdn.jinduolingchuang.com/music/resources/r_164800589279002624/thumbnail-2586.jpg","resourceFileUrl":"https://filecdn.jinduolingchuang.com/music/resources/r_164800589279002624/content.ogv","resourceViewUrl":"https://filecdn.jinduolingchuang.com/music/resources/r_164800589279002624/content.ogv","published":false,"achieveFileUrl":"","description":""},{"musicCategoryCodeArray":["topics","ce1b"],"resourceId":"164801615302230016","title":"长号","publisherCode":"","publisherName":"","gradeCode":"","gradeName":"","mediaType":"video","mediaTypeName":"视频","source":"jinduo","sourceName":"发子","musicCategory":"topics,ce1b","musicCategoryNames":"主题课程,乐器介绍","resourceType":"composite","resourceTypeName":"主题资源","builtin":false,"needUnzip":false,"thumbnailFileUrl":"https://filecdn.jinduolingchuang.com/music/resources/r_164801615302230016/thumbnail-7209.jpg","resourceFileUrl":"https://filecdn.jinduolingchuang.com/music/resources/r_164801615302230016/content.ogv","resourceViewUrl":"https://filecdn.jinduolingchuang.com/music/resources/r_164801615302230016/content.ogv","published":false,"achieveFileUrl":"","description":""},{"musicCategoryCodeArray":["topics","ce1b"],"resourceId":"164801505860255744","title":"长笛","publisherCode":"","publisherName":"","gradeCode":"","gradeName":"","mediaType":"video","mediaTypeName":"视频","source":"jinduo","sourceName":"发子","musicCategory":"topics,ce1b","musicCategoryNames":"主题课程,乐器介绍","resourceType":"composite","resourceTypeName":"主题资源","builtin":false,"needUnzip":false,"thumbnailFileUrl":"https://filecdn.jinduolingchuang.com/music/resources/r_164801505860255744/thumbnail-1113.jpg","resourceFileUrl":"https://filecdn.jinduolingchuang.com/music/resources/r_164801505860255744/content.ogv","resourceViewUrl":"https://filecdn.jinduolingchuang.com/music/resources/r_164801505860255744/content.ogv","published":false,"achieveFileUrl":"","description":""},{"musicCategoryCodeArray":["topics","ce1b"],"resourceId":"164800797379395584","title":"马林巴琴","publisherCode":"","publisherName":"","gradeCode":"","gradeName":"","mediaType":"video","mediaTypeName":"视频","source":"jinduo","sourceName":"发子","musicCategory":"topics,ce1b","musicCategoryNames":"主题课程,乐器介绍","resourceType":"composite","resourceTypeName":"主题资源","builtin":false,"needUnzip":false,"thumbnailFileUrl":"https://filecdn.jinduolingchuang.com/music/resources/r_164800797379395584/thumbnail-2199.jpg","resourceFileUrl":"https://filecdn.jinduolingchuang.com/music/resources/r_164800797379395584/content.ogv","resourceViewUrl":"https://filecdn.jinduolingchuang.com/music/resources/r_164800797379395584/content.ogv","published":false,"achieveFileUrl":"","description":""}]}