{"pageNum":1,"retCode":"0000","message":"查询资源","timestamp":"1611642893666","page":0,"size":8,"count":8,"totalPages":5,"totalElements":"38","contents":[{"musicCategoryCodeArray":["topics","9c09","2569"],"resourceId":"271283065727221760","title":"01节奏阅读","publisherCode":"","publisherName":"","gradeCode":"","gradeName":"","mediaType":"video","mediaTypeName":"视频","source":"internet","sourceName":"互联网","musicCategory":"topics,9c09,2569","musicCategoryNames":"主题课程,音乐游戏,节奏游戏","resourceType":"composite","resourceTypeName":"主题资源","builtin":false,"needUnzip":false,"thumbnailFileUrl":"https://filecdn.jinduolingchuang.com/music/resources/r_271283065727221760/thumbnail-3368.jpg","resourceFileUrl":"https://filecdn.jinduolingchuang.com/music/resources/r_271283065727221760/content-374.mp4","resourceViewUrl":"https://filecdn.jinduolingchuang.com/music/resources/r_271283065727221760/content-374.mp4","published":false,"achieveFileUrl":"","description":""},{"musicCategoryCodeArray":["topics","9c09","2569"],"resourceId":"271283832819286016","title":"02节奏阅读","publisherCode":"","publisherName":"","gradeCode":"","gradeName":"","mediaType":"video","mediaTypeName":"视频","source":"internet","sourceName":"互联网","musicCategory":"topics,9c09,2569","musicCategoryNames":"主题课程,音乐游戏,节奏游戏","resourceType":"composite","resourceTypeName":"主题资源","builtin":false,"needUnzip":false,"thumbnailFileUrl":"https://filecdn.jinduolingchuang.com/music/resources/r_271283832819286016/thumbnail-6154.jpg","resourceFileUrl":"https://filecdn.jinduolingchuang.com/music/resources/r_271283832819286016/content-156.mp4","resourceViewUrl":"https://filecdn.jinduolingchuang.com/music/resources/r_271283832819286016/content-156.mp4","published":false,"achieveFileUrl":"","description":""},{"musicCategoryCodeArray":["topics","9c09","2569"],"resourceId":"271284617619701760","title":"03节奏阅读","publisherCode":"","publisherName":"","gradeCode":"","gradeName":"","mediaType":"video","mediaTypeName":"视频","source":"internet","sourceName":"互联网","musicCategory":"topics,9c09,2569","musicCategoryNames":"主题课程,音乐游戏,节奏游戏","resourceType":"composite","resourceTypeName":"主题资源","builtin":false,"needUnzip":false,"thumbnailFileUrl":"https://filecdn.jinduolingchuang.com/music/resources/r_271284617619701760/thumbnail-3336.jpg","resourceFileUrl":"https://filecdn.jinduolingchuang.com/music/resources/r_271284617619701760/content-337.mp4","resourceViewUrl":"https://filecdn.jinduolingchuang.com/music/resources/r_271284617619701760/content-337.mp4","published":false,"achieveFileUrl":"","description":""},{"musicCategoryCodeArray":["topics","9c09","2569"],"resourceId":"271285755681177600","title":"04节奏阅读","publisherCode":"","publisherName":"","gradeCode":"","gradeName":"","mediaType":"video","mediaTypeName":"视频","source":"internet","sourceName":"互联网","musicCategory":"topics,9c09,2569","musicCategoryNames":"主题课程,音乐游戏,节奏游戏","resourceType":"composite","resourceTypeName":"主题资源","builtin":false,"needUnzip":false,"thumbnailFileUrl":"https://filecdn.jinduolingchuang.com/music/resources/r_271285755681177600/thumbnail-5012.jpg","resourceFileUrl":"https://filecdn.jinduolingchuang.com/music/resources/r_271285755681177600/content-13.mp4","resourceViewUrl":"https://filecdn.jinduolingchuang.com/music/resources/r_271285755681177600/content-13.mp4","published":false,"achieveFileUrl":"","description":""},{"musicCategoryCodeArray":["topics","9c09","2569"],"resourceId":"271286276169138176","title":"05节奏阅读","publisherCode":"","publisherName":"","gradeCode":"","gradeName":"","mediaType":"video","mediaTypeName":"视频","source":"internet","sourceName":"互联网","musicCategory":"topics,9c09,2569","musicCategoryNames":"主题课程,音乐游戏,节奏游戏","resourceType":"composite","resourceTypeName":"主题资源","builtin":false,"needUnzip":false,"thumbnailFileUrl":"https://filecdn.jinduolingchuang.com/music/resources/r_271286276169138176/thumbnail-8847.jpg","resourceFileUrl":"https://filecdn.jinduolingchuang.com/music/resources/r_271286276169138176/content-848.mp4","resourceViewUrl":"https://filecdn.jinduolingchuang.com/music/resources/r_271286276169138176/content-848.mp4","published":false,"achieveFileUrl":"","description":""},{"musicCategoryCodeArray":["topics","9c09","2569"],"resourceId":"271289295745056768","title":"06节奏阅读","publisherCode":"","publisherName":"","gradeCode":"","gradeName":"","mediaType":"video","mediaTypeName":"视频","source":"internet","sourceName":"互联网","musicCategory":"topics,9c09,2569","musicCategoryNames":"主题课程,音乐游戏,节奏游戏","resourceType":"composite","resourceTypeName":"主题资源","builtin":false,"needUnzip":false,"thumbnailFileUrl":"https://filecdn.jinduolingchuang.com/music/resources/r_271289295745056768/thumbnail-8755.jpg","resourceFileUrl":"https://filecdn.jinduolingchuang.com/music/resources/r_271289295745056768/content-584.mp4","resourceViewUrl":"https://filecdn.jinduolingchuang.com/music/resources/r_271289295745056768/content-584.mp4","published":false,"achieveFileUrl":"","description":""},{"musicCategoryCodeArray":["topics","9c09","2569"],"resourceId":"271292552055881728","title":"07节奏阅读","publisherCode":"","publisherName":"","gradeCode":"","gradeName":"","mediaType":"video","mediaTypeName":"视频","source":"internet","sourceName":"互联网","musicCategory":"topics,9c09,2569","musicCategoryNames":"主题课程,音乐游戏,节奏游戏","resourceType":"composite","resourceTypeName":"主题资源","builtin":false,"needUnzip":false,"thumbnailFileUrl":"https://filecdn.jinduolingchuang.com/music/resources/r_271292552055881728/thumbnail-5425.jpg","resourceFileUrl":"https://filecdn.jinduolingchuang.com/music/resources/r_271292552055881728/content-426.mp4","resourceViewUrl":"https://filecdn.jinduolingchuang.com/music/resources/r_271292552055881728/content-426.mp4","published":false,"achieveFileUrl":"","description":""},{"musicCategoryCodeArray":["topics","9c09","2569"],"resourceId":"271319369399664640","title":"08节奏阅读","publisherCode":"","publisherName":"","gradeCode":"","gradeName":"","mediaType":"video","mediaTypeName":"视频","source":"internet","sourceName":"互联网","musicCategory":"topics,9c09,2569","musicCategoryNames":"主题课程,音乐游戏,节奏游戏","resourceType":"composite","resourceTypeName":"主题资源","builtin":false,"needUnzip":false,"thumbnailFileUrl":"https://filecdn.jinduolingchuang.com/music/resources/r_271319369399664640/thumbnail-8931.jpg","resourceFileUrl":"https://filecdn.jinduolingchuang.com/music/resources/r_271319369399664640/content-932.mp4","resourceViewUrl":"https://filecdn.jinduolingchuang.com/music/resources/r_271319369399664640/content-932.mp4","published":false,"achieveFileUrl":"","description":""}],"nonce":"0"}