{"pageNum":2,"retCode":"0000","message":"查询资源","timestamp":"1611642919392","page":1,"size":8,"count":8,"totalPages":5,"totalElements":"38","contents":[{"musicCategoryCodeArray":["topics","9c09","2569"],"resourceId":"271320296517009408","title":"09节凑阅读","publisherCode":"","publisherName":"","gradeCode":"","gradeName":"","mediaType":"video","mediaTypeName":"视频","source":"internet","sourceName":"互联网","musicCategory":"topics,9c09,2569","musicCategoryNames":"主题课程,音乐游戏,节奏游戏","resourceType":"composite","resourceTypeName":"主题资源","builtin":false,"needUnzip":false,"thumbnailFileUrl":"https://filecdn.jinduolingchuang.com/music/resources/r_271320296517009408/thumbnail-9966.jpg","resourceFileUrl":"https://filecdn.jinduolingchuang.com/music/resources/r_271320296517009408/content-967.mp4","resourceViewUrl":"https://filecdn.jinduolingchuang.com/music/resources/r_271320296517009408/content-967.mp4","published":false,"achieveFileUrl":"","description":""},{"musicCategoryCodeArray":["topics","9c09","2569"],"resourceId":"271288857608060928","title":"68拍-节奏练习","publisherCode":"","publisherName":"","gradeCode":"","gradeName":"","mediaType":"video","mediaTypeName":"视频","source":"internet","sourceName":"互联网","musicCategory":"topics,9c09,2569","musicCategoryNames":"主题课程,音乐游戏,节奏游戏","resourceType":"composite","resourceTypeName":"主题资源","builtin":false,"needUnzip":false,"thumbnailFileUrl":"https://filecdn.jinduolingchuang.com/music/resources/r_271288857608060928/thumbnail-4475.jpg","resourceFileUrl":"https://filecdn.jinduolingchuang.com/music/resources/r_271288857608060928/content-476.mp4","resourceViewUrl":"https://filecdn.jinduolingchuang.com/music/resources/r_271288857608060928/content-476.mp4","published":false,"achieveFileUrl":"","description":""},{"musicCategoryCodeArray":["topics","9c09","2569"],"resourceId":"271589989140135936","title":"中国舞-节奏练习","publisherCode":"","publisherName":"","gradeCode":"","gradeName":"","mediaType":"video","mediaTypeName":"视频","source":"internet","sourceName":"互联网","musicCategory":"topics,9c09,2569","musicCategoryNames":"主题课程,音乐游戏,节奏游戏","resourceType":"composite","resourceTypeName":"主题资源","builtin":false,"needUnzip":false,"thumbnailFileUrl":"https://filecdn.jinduolingchuang.com/music/resources/r_271589989140135936/thumbnail-9742.jpg","resourceFileUrl":"https://filecdn.jinduolingchuang.com/music/resources/r_271589989140135936/content-744.mp4","resourceViewUrl":"https://filecdn.jinduolingchuang.com/music/resources/r_271589989140135936/content-744.mp4","published":false,"achieveFileUrl":"","description":""},{"musicCategoryCodeArray":["topics","9c09","2569"],"resourceId":"271322437663064064","title":"二分音符-节奏练习","publisherCode":"","publisherName":"","gradeCode":"","gradeName":"","mediaType":"video","mediaTypeName":"视频","source":"internet","sourceName":"互联网","musicCategory":"topics,9c09,2569","musicCategoryNames":"主题课程,音乐游戏,节奏游戏","resourceType":"composite","resourceTypeName":"主题资源","builtin":false,"needUnzip":false,"thumbnailFileUrl":"https://filecdn.jinduolingchuang.com/music/resources/r_271322437663064064/thumbnail-445.jpg","resourceFileUrl":"https://filecdn.jinduolingchuang.com/music/resources/r_271322437663064064/content-447.mp4","resourceViewUrl":"https://filecdn.jinduolingchuang.com/music/resources/r_271322437663064064/content-447.mp4","published":false,"achieveFileUrl":"","description":""},{"musicCategoryCodeArray":["topics","9c09","2569"],"resourceId":"271585889962950656","title":"仙女林-节奏练习","publisherCode":"","publisherName":"","gradeCode":"","gradeName":"","mediaType":"video","mediaTypeName":"视频","source":"internet","sourceName":"互联网","musicCategory":"topics,9c09,2569","musicCategoryNames":"主题课程,音乐游戏,节奏游戏","resourceType":"composite","resourceTypeName":"主题资源","builtin":false,"needUnzip":false,"thumbnailFileUrl":"https://filecdn.jinduolingchuang.com/music/resources/r_271585889962950656/thumbnail-2356.jpg","resourceFileUrl":"https://filecdn.jinduolingchuang.com/music/resources/r_271585889962950656/content-357.mp4","resourceViewUrl":"https://filecdn.jinduolingchuang.com/music/resources/r_271585889962950656/content-357.mp4","published":false,"achieveFileUrl":"","description":""},{"musicCategoryCodeArray":["topics","9c09","2569"],"resourceId":"271585347626860544","title":"伟大的糖果狩猎-节奏练习","publisherCode":"","publisherName":"","gradeCode":"","gradeName":"","mediaType":"video","mediaTypeName":"视频","source":"internet","sourceName":"互联网","musicCategory":"topics,9c09,2569","musicCategoryNames":"主题课程,音乐游戏,节奏游戏","resourceType":"composite","resourceTypeName":"主题资源","builtin":false,"needUnzip":false,"thumbnailFileUrl":"https://filecdn.jinduolingchuang.com/music/resources/r_271585347626860544/thumbnail-3038.jpg","resourceFileUrl":"https://filecdn.jinduolingchuang.com/music/resources/r_271585347626860544/content-38.mp4","resourceViewUrl":"https://filecdn.jinduolingchuang.com/music/resources/r_271585347626860544/content-38.mp4","published":false,"achieveFileUrl":"","description":""},{"musicCategoryCodeArray":["topics","9c09","2569"],"resourceId":"271579194180239360","title":"全音符-节奏练习","publisherCode":"","publisherName":"","gradeCode":"","gradeName":"","mediaType":"video","mediaTypeName":"视频","source":"internet","sourceName":"互联网","musicCategory":"topics,9c09,2569","musicCategoryNames":"主题课程,音乐游戏,节奏游戏","resourceType":"composite","resourceTypeName":"主题资源","builtin":false,"needUnzip":false,"thumbnailFileUrl":"https://filecdn.jinduolingchuang.com/music/resources/r_271579194180239360/thumbnail-6289.jpg","resourceFileUrl":"https://filecdn.jinduolingchuang.com/music/resources/r_271579194180239360/content-305.mp4","resourceViewUrl":"https://filecdn.jinduolingchuang.com/music/resources/r_271579194180239360/content-305.mp4","published":false,"achieveFileUrl":"","description":""},{"musicCategoryCodeArray":["topics","9c09","2569"],"resourceId":"271321005505380352","title":"八分音符-节奏练习","publisherCode":"","publisherName":"","gradeCode":"","gradeName":"","mediaType":"video","mediaTypeName":"视频","source":"internet","sourceName":"互联网","musicCategory":"topics,9c09,2569","musicCategoryNames":"主题课程,音乐游戏,节奏游戏","resourceType":"composite","resourceTypeName":"主题资源","builtin":false,"needUnzip":false,"thumbnailFileUrl":"https://filecdn.jinduolingchuang.com/music/resources/r_271321005505380352/thumbnail-9065.jpg","resourceFileUrl":"https://filecdn.jinduolingchuang.com/music/resources/r_271321005505380352/content-66.mp4","resourceViewUrl":"https://filecdn.jinduolingchuang.com/music/resources/r_271321005505380352/content-66.mp4","published":false,"achieveFileUrl":"","description":""}],"nonce":"0"}