{"pageNum":3,"retCode":"0000","message":"查询资源","timestamp":"1611642936989","page":2,"size":8,"count":8,"totalPages":5,"totalElements":"38","contents":[{"musicCategoryCodeArray":["topics","9c09","2569"],"resourceId":"271328645514002432","title":"切分音-节奏练习","publisherCode":"","publisherName":"","gradeCode":"","gradeName":"","mediaType":"video","mediaTypeName":"视频","source":"internet","sourceName":"互联网","musicCategory":"topics,9c09,2569","musicCategoryNames":"主题课程,音乐游戏,节奏游戏","resourceType":"composite","resourceTypeName":"主题资源","builtin":false,"needUnzip":false,"thumbnailFileUrl":"https://filecdn.jinduolingchuang.com/music/resources/r_271328645514002432/thumbnail-531.jpg","resourceFileUrl":"https://filecdn.jinduolingchuang.com/music/resources/r_271328645514002432/content-532.mp4","resourceViewUrl":"https://filecdn.jinduolingchuang.com/music/resources/r_271328645514002432/content-532.mp4","published":false,"achieveFileUrl":"","description":""},{"musicCategoryCodeArray":["topics","9c09","2569"],"resourceId":"271581264505470976","title":"十六分音符-节奏练习","publisherCode":"","publisherName":"","gradeCode":"","gradeName":"","mediaType":"video","mediaTypeName":"视频","source":"internet","sourceName":"互联网","musicCategory":"topics,9c09,2569","musicCategoryNames":"主题课程,音乐游戏,节奏游戏","resourceType":"composite","resourceTypeName":"主题资源","builtin":false,"needUnzip":false,"thumbnailFileUrl":"https://filecdn.jinduolingchuang.com/music/resources/r_271581264505470976/thumbnail-9667.jpg","resourceFileUrl":"https://filecdn.jinduolingchuang.com/music/resources/r_271581264505470976/content-668.mp4","resourceViewUrl":"https://filecdn.jinduolingchuang.com/music/resources/r_271581264505470976/content-668.mp4","published":false,"achieveFileUrl":"","description":""},{"musicCategoryCodeArray":["topics","9c09","2569"],"resourceId":"271325963483086848","title":"卡门序曲-节奏练习","publisherCode":"","publisherName":"","gradeCode":"","gradeName":"","mediaType":"video","mediaTypeName":"视频","source":"internet","sourceName":"互联网","musicCategory":"topics,9c09,2569","musicCategoryNames":"主题课程,音乐游戏,节奏游戏","resourceType":"composite","resourceTypeName":"主题资源","builtin":false,"needUnzip":false,"thumbnailFileUrl":"https://filecdn.jinduolingchuang.com/music/resources/r_271325963483086848/thumbnail-4439.jpg","resourceFileUrl":"https://filecdn.jinduolingchuang.com/music/resources/r_271325963483086848/content-441.mp4","resourceViewUrl":"https://filecdn.jinduolingchuang.com/music/resources/r_271325963483086848/content-441.mp4","published":false,"achieveFileUrl":"","description":""},{"musicCategoryCodeArray":["topics","9c09","2569"],"resourceId":"271582413967065088","title":"四分音符-节奏练习","publisherCode":"","publisherName":"","gradeCode":"","gradeName":"","mediaType":"video","mediaTypeName":"视频","source":"internet","sourceName":"互联网","musicCategory":"topics,9c09,2569","musicCategoryNames":"主题课程,音乐游戏,节奏游戏","resourceType":"composite","resourceTypeName":"主题资源","builtin":false,"needUnzip":false,"thumbnailFileUrl":"https://filecdn.jinduolingchuang.com/music/resources/r_271582413967065088/thumbnail-3628.jpg","resourceFileUrl":"https://filecdn.jinduolingchuang.com/music/resources/r_271582413967065088/content-629.mp4","resourceViewUrl":"https://filecdn.jinduolingchuang.com/music/resources/r_271582413967065088/content-629.mp4","published":false,"achieveFileUrl":"","description":""},{"musicCategoryCodeArray":["topics","9c09","2569"],"resourceId":"271584751930834944","title":"土耳其进行曲-节奏练习","publisherCode":"","publisherName":"","gradeCode":"","gradeName":"","mediaType":"video","mediaTypeName":"视频","source":"internet","sourceName":"互联网","musicCategory":"topics,9c09,2569","musicCategoryNames":"主题课程,音乐游戏,节奏游戏","resourceType":"composite","resourceTypeName":"主题资源","builtin":false,"needUnzip":false,"thumbnailFileUrl":"https://filecdn.jinduolingchuang.com/music/resources/r_271584751930834944/thumbnail-1274.jpg","resourceFileUrl":"https://filecdn.jinduolingchuang.com/music/resources/r_271584751930834944/content-275.mp4","resourceViewUrl":"https://filecdn.jinduolingchuang.com/music/resources/r_271584751930834944/content-275.mp4","published":false,"achieveFileUrl":"","description":""},{"musicCategoryCodeArray":["topics","9c09","2569"],"resourceId":"271322207278333952","title":"多声部节奏","publisherCode":"","publisherName":"","gradeCode":"","gradeName":"","mediaType":"video","mediaTypeName":"视频","source":"internet","sourceName":"互联网","musicCategory":"topics,9c09,2569","musicCategoryNames":"主题课程,音乐游戏,节奏游戏","resourceType":"composite","resourceTypeName":"主题资源","builtin":false,"needUnzip":false,"thumbnailFileUrl":"https://filecdn.jinduolingchuang.com/music/resources/r_271322207278333952/thumbnail-5518.jpg","resourceFileUrl":"https://filecdn.jinduolingchuang.com/music/resources/r_271322207278333952/content-519.mp4","resourceViewUrl":"https://filecdn.jinduolingchuang.com/music/resources/r_271322207278333952/content-519.mp4","published":false,"achieveFileUrl":"","description":""},{"musicCategoryCodeArray":["topics","9c09","2569"],"resourceId":"271322889439936512","title":"愤怒的小鸟-节奏练习","publisherCode":"","publisherName":"","gradeCode":"","gradeName":"","mediaType":"video","mediaTypeName":"视频","source":"internet","sourceName":"互联网","musicCategory":"topics,9c09,2569","musicCategoryNames":"主题课程,音乐游戏,节奏游戏","resourceType":"composite","resourceTypeName":"主题资源","builtin":false,"needUnzip":false,"thumbnailFileUrl":"https://filecdn.jinduolingchuang.com/music/resources/r_271322889439936512/thumbnail-8217.jpg","resourceFileUrl":"https://filecdn.jinduolingchuang.com/music/resources/r_271322889439936512/content-218.mp4","resourceViewUrl":"https://filecdn.jinduolingchuang.com/music/resources/r_271322889439936512/content-218.mp4","published":false,"achieveFileUrl":"","description":""},{"musicCategoryCodeArray":["topics","9c09","2569"],"resourceId":"271584024579801088","title":"挑战贝多芬-节奏练习","publisherCode":"","publisherName":"","gradeCode":"","gradeName":"","mediaType":"video","mediaTypeName":"视频","source":"internet","sourceName":"互联网","musicCategory":"topics,9c09,2569","musicCategoryNames":"主题课程,音乐游戏,节奏游戏","resourceType":"composite","resourceTypeName":"主题资源","builtin":false,"needUnzip":false,"thumbnailFileUrl":"https://filecdn.jinduolingchuang.com/music/resources/r_271584024579801088/thumbnail-7613.jpg","resourceFileUrl":"https://filecdn.jinduolingchuang.com/music/resources/r_271584024579801088/content-614.mp4","resourceViewUrl":"https://filecdn.jinduolingchuang.com/music/resources/r_271584024579801088/content-614.mp4","published":false,"achieveFileUrl":"","description":""}],"nonce":"0"}