{"pageNum":4,"retCode":"0000","message":"查询资源","timestamp":"1611642955438","page":3,"size":8,"count":8,"totalPages":5,"totalElements":"38","contents":[{"musicCategoryCodeArray":["topics","9c09","2569"],"resourceId":"271586663862370304","title":"星球大战-节奏练习","publisherCode":"","publisherName":"","gradeCode":"","gradeName":"","mediaType":"video","mediaTypeName":"视频","source":"internet","sourceName":"互联网","musicCategory":"topics,9c09,2569","musicCategoryNames":"主题课程,音乐游戏,节奏游戏","resourceType":"composite","resourceTypeName":"主题资源","builtin":false,"needUnzip":false,"thumbnailFileUrl":"https://filecdn.jinduolingchuang.com/music/resources/r_271586663862370304/thumbnail-6861.jpg","resourceFileUrl":"https://filecdn.jinduolingchuang.com/music/resources/r_271586663862370304/content-862.mp4","resourceViewUrl":"https://filecdn.jinduolingchuang.com/music/resources/r_271586663862370304/content-862.mp4","published":false,"achieveFileUrl":"","description":""},{"musicCategoryCodeArray":["topics","9c09","2569"],"resourceId":"271324535393878016","title":"格里格-节奏练习","publisherCode":"","publisherName":"","gradeCode":"","gradeName":"","mediaType":"video","mediaTypeName":"视频","source":"internet","sourceName":"互联网","musicCategory":"topics,9c09,2569","musicCategoryNames":"主题课程,音乐游戏,节奏游戏","resourceType":"composite","resourceTypeName":"主题资源","builtin":false,"needUnzip":false,"thumbnailFileUrl":"https://filecdn.jinduolingchuang.com/music/resources/r_271324535393878016/thumbnail-1006.jpg","resourceFileUrl":"https://filecdn.jinduolingchuang.com/music/resources/r_271324535393878016/content-7.mp4","resourceViewUrl":"https://filecdn.jinduolingchuang.com/music/resources/r_271324535393878016/content-7.mp4","published":false,"achieveFileUrl":"","description":""},{"musicCategoryCodeArray":["topics","9c09","2569"],"resourceId":"271580479377899520","title":"森林小路-节奏练习","publisherCode":"","publisherName":"","gradeCode":"","gradeName":"","mediaType":"video","mediaTypeName":"视频","source":"internet","sourceName":"互联网","musicCategory":"topics,9c09,2569","musicCategoryNames":"主题课程,音乐游戏,节奏游戏","resourceType":"composite","resourceTypeName":"主题资源","builtin":false,"needUnzip":false,"thumbnailFileUrl":"https://filecdn.jinduolingchuang.com/music/resources/r_271580479377899520/thumbnail-2389.jpg","resourceFileUrl":"https://filecdn.jinduolingchuang.com/music/resources/r_271580479377899520/content-391.mp4","resourceViewUrl":"https://filecdn.jinduolingchuang.com/music/resources/r_271580479377899520/content-391.mp4","published":false,"achieveFileUrl":"","description":""},{"musicCategoryCodeArray":["topics","9c09","2569"],"resourceId":"271581921891319808","title":"水手村-节奏练习","publisherCode":"","publisherName":"","gradeCode":"","gradeName":"","mediaType":"video","mediaTypeName":"视频","source":"internet","sourceName":"互联网","musicCategory":"topics,9c09,2569","musicCategoryNames":"主题课程,音乐游戏,节奏游戏","resourceType":"composite","resourceTypeName":"主题资源","builtin":false,"needUnzip":false,"thumbnailFileUrl":"https://filecdn.jinduolingchuang.com/music/resources/r_271581921891319808/thumbnail-6532.jpg","resourceFileUrl":"https://filecdn.jinduolingchuang.com/music/resources/r_271581921891319808/content-533.mp4","resourceViewUrl":"https://filecdn.jinduolingchuang.com/music/resources/r_271581921891319808/content-533.mp4","published":false,"achieveFileUrl":"","description":""},{"musicCategoryCodeArray":["topics","9c09","2569"],"resourceId":"271321543055769600","title":"猜忌-节奏练习","publisherCode":"","publisherName":"","gradeCode":"","gradeName":"","mediaType":"video","mediaTypeName":"视频","source":"internet","sourceName":"互联网","musicCategory":"topics,9c09,2569","musicCategoryNames":"主题课程,音乐游戏,节奏游戏","resourceType":"composite","resourceTypeName":"主题资源","builtin":false,"needUnzip":false,"thumbnailFileUrl":"https://filecdn.jinduolingchuang.com/music/resources/r_271321543055769600/thumbnail-7379.jpg","resourceFileUrl":"https://filecdn.jinduolingchuang.com/music/resources/r_271321543055769600/content-380.mp4","resourceViewUrl":"https://filecdn.jinduolingchuang.com/music/resources/r_271321543055769600/content-380.mp4","published":false,"achieveFileUrl":"","description":""},{"musicCategoryCodeArray":["topics","9c09","2569"],"resourceId":"271326984028553216","title":"玲儿响叮当-节奏练习","publisherCode":"","publisherName":"","gradeCode":"","gradeName":"","mediaType":"video","mediaTypeName":"视频","source":"internet","sourceName":"互联网","musicCategory":"topics,9c09,2569","musicCategoryNames":"主题课程,音乐游戏,节奏游戏","resourceType":"composite","resourceTypeName":"主题资源","builtin":false,"needUnzip":false,"thumbnailFileUrl":"https://filecdn.jinduolingchuang.com/music/resources/r_271326984028553216/thumbnail-4397.jpg","resourceFileUrl":"https://filecdn.jinduolingchuang.com/music/resources/r_271326984028553216/content-398.mp4","resourceViewUrl":"https://filecdn.jinduolingchuang.com/music/resources/r_271326984028553216/content-398.mp4","published":false,"achieveFileUrl":"","description":""},{"musicCategoryCodeArray":["topics","9c09","2569"],"resourceId":"271582845795827712","title":"糖梅仙女之舞-节奏练习2","publisherCode":"","publisherName":"","gradeCode":"","gradeName":"","mediaType":"video","mediaTypeName":"视频","source":"internet","sourceName":"互联网","musicCategory":"topics,9c09,2569","musicCategoryNames":"主题课程,音乐游戏,节奏游戏","resourceType":"composite","resourceTypeName":"主题资源","builtin":false,"needUnzip":false,"thumbnailFileUrl":"https://filecdn.jinduolingchuang.com/music/resources/r_271582845795827712/thumbnail-6598.jpg","resourceFileUrl":"https://filecdn.jinduolingchuang.com/music/resources/r_271582845795827712/content-599.mp4","resourceViewUrl":"https://filecdn.jinduolingchuang.com/music/resources/r_271582845795827712/content-599.mp4","published":false,"achieveFileUrl":"","description":""},{"musicCategoryCodeArray":["topics","9c09","2569"],"resourceId":"271583410093293568","title":"糖梅仙子之舞-节奏练习","publisherCode":"","publisherName":"","gradeCode":"","gradeName":"","mediaType":"video","mediaTypeName":"视频","source":"internet","sourceName":"互联网","musicCategory":"topics,9c09,2569","musicCategoryNames":"主题课程,音乐游戏,节奏游戏","resourceType":"composite","resourceTypeName":"主题资源","builtin":false,"needUnzip":false,"thumbnailFileUrl":"https://filecdn.jinduolingchuang.com/music/resources/r_271583410093293568/thumbnail-1191.jpg","resourceFileUrl":"https://filecdn.jinduolingchuang.com/music/resources/r_271583410093293568/content-193.mp4","resourceViewUrl":"https://filecdn.jinduolingchuang.com/music/resources/r_271583410093293568/content-193.mp4","published":false,"achieveFileUrl":"","description":""}],"nonce":"0"}