{"pageNum":5,"retCode":"0000","message":"查询资源","timestamp":"1611642972731","page":4,"size":8,"count":6,"totalPages":5,"totalElements":"38","contents":[{"musicCategoryCodeArray":["topics","9c09","2569"],"resourceId":"271589174174285824","title":"羊肠小道-节奏练习","publisherCode":"","publisherName":"","gradeCode":"","gradeName":"","mediaType":"video","mediaTypeName":"视频","source":"internet","sourceName":"互联网","musicCategory":"topics,9c09,2569","musicCategoryNames":"主题课程,音乐游戏,节奏游戏","resourceType":"composite","resourceTypeName":"主题资源","builtin":false,"needUnzip":false,"thumbnailFileUrl":"https://filecdn.jinduolingchuang.com/music/resources/r_271589174174285824/thumbnail-5624.jpg","resourceFileUrl":"https://filecdn.jinduolingchuang.com/music/resources/r_271589174174285824/content-625.mp4","resourceViewUrl":"https://filecdn.jinduolingchuang.com/music/resources/r_271589174174285824/content-625.mp4","published":false,"achieveFileUrl":"","description":""},{"musicCategoryCodeArray":["topics","9c09","2569"],"resourceId":"271325475631005696","title":"胡桃夹子-糖梅仙女之舞-节奏练习","publisherCode":"","publisherName":"","gradeCode":"","gradeName":"","mediaType":"video","mediaTypeName":"视频","source":"internet","sourceName":"互联网","musicCategory":"topics,9c09,2569","musicCategoryNames":"主题课程,音乐游戏,节奏游戏","resourceType":"composite","resourceTypeName":"主题资源","builtin":false,"needUnzip":false,"thumbnailFileUrl":"https://filecdn.jinduolingchuang.com/music/resources/r_271325475631005696/thumbnail-4849.jpg","resourceFileUrl":"https://filecdn.jinduolingchuang.com/music/resources/r_271325475631005696/content-850.mp4","resourceViewUrl":"https://filecdn.jinduolingchuang.com/music/resources/r_271325475631005696/content-850.mp4","published":false,"achieveFileUrl":"","description":""},{"musicCategoryCodeArray":["topics","9c09","2569"],"resourceId":"271590414996209664","title":"装饰大厅-节奏练习","publisherCode":"","publisherName":"","gradeCode":"","gradeName":"","mediaType":"video","mediaTypeName":"视频","source":"internet","sourceName":"互联网","musicCategory":"topics,9c09,2569","musicCategoryNames":"主题课程,音乐游戏,节奏游戏","resourceType":"composite","resourceTypeName":"主题资源","builtin":false,"needUnzip":false,"thumbnailFileUrl":"https://filecdn.jinduolingchuang.com/music/resources/r_271590414996209664/thumbnail-1218.jpg","resourceFileUrl":"https://filecdn.jinduolingchuang.com/music/resources/r_271590414996209664/content-219.mp4","resourceViewUrl":"https://filecdn.jinduolingchuang.com/music/resources/r_271590414996209664/content-219.mp4","published":false,"achieveFileUrl":"","description":""},{"musicCategoryCodeArray":["topics","9c09","2569"],"resourceId":"271323462834847744","title":"附点四分音符-节奏练习","publisherCode":"","publisherName":"","gradeCode":"","gradeName":"","mediaType":"audio","mediaTypeName":"音频","source":"internet","sourceName":"互联网","musicCategory":"topics,9c09,2569","musicCategoryNames":"主题课程,音乐游戏,节奏游戏","resourceType":"composite","resourceTypeName":"主题资源","builtin":false,"needUnzip":false,"thumbnailFileUrl":"https://filecdn.jinduolingchuang.com/music/resources/r_271323462834847744/thumbnail-4879.jpg","resourceFileUrl":"https://filecdn.jinduolingchuang.com/music/resources/r_271323462834847744/content-880.mp4","resourceViewUrl":"https://filecdn.jinduolingchuang.com/music/resources/r_271323462834847744/content-880.mp4","published":false,"achieveFileUrl":"","description":""},{"musicCategoryCodeArray":["topics","9c09","2569"],"resourceId":"271589594678427648","title":"音符组合-节奏练习","publisherCode":"","publisherName":"","gradeCode":"","gradeName":"","mediaType":"video","mediaTypeName":"视频","source":"internet","sourceName":"互联网","musicCategory":"topics,9c09,2569","musicCategoryNames":"主题课程,音乐游戏,节奏游戏","resourceType":"composite","resourceTypeName":"主题资源","builtin":false,"needUnzip":false,"thumbnailFileUrl":"https://filecdn.jinduolingchuang.com/music/resources/r_271589594678427648/thumbnail-5667.jpg","resourceFileUrl":"https://filecdn.jinduolingchuang.com/music/resources/r_271589594678427648/content-669.mp4","resourceViewUrl":"https://filecdn.jinduolingchuang.com/music/resources/r_271589594678427648/content-669.mp4","published":false,"achieveFileUrl":"","description":""},{"musicCategoryCodeArray":["topics","9c09","2569"],"resourceId":"271327665598758912","title":"魔术师酒馆-节奏练习","publisherCode":"","publisherName":"","gradeCode":"","gradeName":"","mediaType":"video","mediaTypeName":"视频","source":"internet","sourceName":"互联网","musicCategory":"topics,9c09,2569","musicCategoryNames":"主题课程,音乐游戏,节奏游戏","resourceType":"composite","resourceTypeName":"主题资源","builtin":false,"needUnzip":false,"thumbnailFileUrl":"https://filecdn.jinduolingchuang.com/music/resources/r_271327665598758912/thumbnail-7182.jpg","resourceFileUrl":"https://filecdn.jinduolingchuang.com/music/resources/r_271327665598758912/content-183.mp4","resourceViewUrl":"https://filecdn.jinduolingchuang.com/music/resources/r_271327665598758912/content-183.mp4","published":false,"achieveFileUrl":"","description":""}],"nonce":"0"}