{"pageNum":1,"retCode":"0000","message":"查询资源","timestamp":"1610702676480","page":0,"size":8,"count":8,"totalPages":4,"totalElements":"25","contents":[{"musicCategoryCodeArray":["topics","7f12","3e99"],"resourceId":"163325750789799936","title":"节奏型01","publisherCode":"","publisherName":"","gradeCode":"","gradeName":"","mediaType":"course","mediaTypeName":"课程","source":"jinduo","sourceName":"发子","musicCategory":"topics,7f12,3e99","musicCategoryNames":"主题课程,身体打击乐,四拍子节奏","resourceType":"composite","resourceTypeName":"主题资源","builtin":false,"needUnzip":true,"thumbnailFileUrl":"https://filecdn.jinduolingchuang.com/music/resources/r_163325750789799936/thumbnail-62.jpg","resourceFileUrl":"https://filecdn.jinduolingchuang.com/music/resources/r_163325750789799936/content.zip","resourceViewUrl":"https://filecdn.jinduolingchuang.com/music/resources/r_163325750789799936/content/index.html","published":false,"achieveFileUrl":"","extractFiles":[{"fileId":"166954461447585792","resourceId":"163325750789799936","title":"中速","fileName":"中速.ogv","fileExt":"ogv","fileUrl":"https://filecdn.jinduolingchuang.com/music/resources/r_163325750789799936/content/节奏型1/中速.ogv","fileRelativeUrl":"节奏型1/中速.ogv"},{"fileId":"166954461451780096","resourceId":"163325750789799936","title":"慢速","fileName":"慢速.ogv","fileExt":"ogv","fileUrl":"https://filecdn.jinduolingchuang.com/music/resources/r_163325750789799936/content/节奏型1/慢速.ogv","fileRelativeUrl":"节奏型1/慢速.ogv"}],"description":""},{"musicCategoryCodeArray":["topics","7f12","5bef"],"resourceId":"163332395422973952","title":"节奏型01","publisherCode":"","publisherName":"","gradeCode":"","gradeName":"","mediaType":"course","mediaTypeName":"课程","source":"jinduo","sourceName":"发子","musicCategory":"topics,7f12,5bef","musicCategoryNames":"主题课程,身体打击乐,六拍子节奏","resourceType":"composite","resourceTypeName":"主题资源","builtin":false,"needUnzip":true,"thumbnailFileUrl":"https://filecdn.jinduolingchuang.com/music/resources/r_163332395422973952/thumbnail-7654.jpg","resourceFileUrl":"https://filecdn.jinduolingchuang.com/music/resources/r_163332395422973952/content.zip","resourceViewUrl":"https://filecdn.jinduolingchuang.com/music/resources/r_163332395422973952/content/index.html","published":false,"achieveFileUrl":"https://filecdn.jinduolingchuang.com/music/resources/r_163332395422973952/resource-163332395422973952-enc.zip","achieveFileSize":"6003186","achieveFileMd5":"d63c684bc155757983061f61983e0de4","achieveFileSha1":"f4968f272fa03f4c5140228c3a1b9be60c8905fe","achieveFileSha256":"8b1249e32e6e076345d705552564aa1a9fa1b372ee278bc19117eec8a726d35a","extractFiles":[{"fileId":"166954462252892160","resourceId":"163332395422973952","title":"快","fileName":"快.ogv","fileExt":"ogv","fileUrl":"https://filecdn.jinduolingchuang.com/music/resources/r_163332395422973952/content/节奏型1/快.ogv","fileRelativeUrl":"节奏型1/快.ogv"},{"fileId":"166954462257086464","resourceId":"163332395422973952","title":"慢","fileName":"慢.ogv","fileExt":"ogv","fileUrl":"https://filecdn.jinduolingchuang.com/music/resources/r_163332395422973952/content/节奏型1/慢.ogv","fileRelativeUrl":"节奏型1/慢.ogv"}],"description":""},{"musicCategoryCodeArray":["topics","7f12","3e99"],"resourceId":"163326392090492928","title":"节奏型02","publisherCode":"","publisherName":"","gradeCode":"","gradeName":"","mediaType":"course","mediaTypeName":"课程","source":"jinduo","sourceName":"发子","musicCategory":"topics,7f12,3e99","musicCategoryNames":"主题课程,身体打击乐,四拍子节奏","resourceType":"composite","resourceTypeName":"主题资源","builtin":false,"needUnzip":true,"thumbnailFileUrl":"https://filecdn.jinduolingchuang.com/music/resources/r_163326392090492928/thumbnail-4692.jpg","resourceFileUrl":"https://filecdn.jinduolingchuang.com/music/resources/r_163326392090492928/content.zip","resourceViewUrl":"https://filecdn.jinduolingchuang.com/music/resources/r_163326392090492928/content/index.html","published":false,"achieveFileUrl":"","extractFiles":[{"fileId":"166954461820878848","resourceId":"163326392090492928","title":"中速","fileName":"中速.ogv","fileExt":"ogv","fileUrl":"https://filecdn.jinduolingchuang.com/music/resources/r_163326392090492928/content/节奏型2/中速.ogv","fileRelativeUrl":"节奏型2/中速.ogv"},{"fileId":"166954461825073152","resourceId":"163326392090492928","title":"慢速","fileName":"慢速.ogv","fileExt":"ogv","fileUrl":"https://filecdn.jinduolingchuang.com/music/resources/r_163326392090492928/content/节奏型2/慢速.ogv","fileRelativeUrl":"节奏型2/慢速.ogv"}],"description":""},{"musicCategoryCodeArray":["topics","7f12","5bef"],"resourceId":"163332832662388736","title":"节奏型02","publisherCode":"","publisherName":"","gradeCode":"","gradeName":"","mediaType":"course","mediaTypeName":"课程","source":"jinduo","sourceName":"发子","musicCategory":"topics,7f12,5bef","musicCategoryNames":"主题课程,身体打击乐,六拍子节奏","resourceType":"composite","resourceTypeName":"主题资源","builtin":false,"needUnzip":true,"thumbnailFileUrl":"https://filecdn.jinduolingchuang.com/music/resources/r_163332832662388736/thumbnail-1898.jpg","resourceFileUrl":"https://filecdn.jinduolingchuang.com/music/resources/r_163332832662388736/content.zip","resourceViewUrl":"https://filecdn.jinduolingchuang.com/music/resources/r_163332832662388736/content/index.html","published":false,"achieveFileUrl":"","extractFiles":[{"fileId":"166954462483578880","resourceId":"163332832662388736","title":"快","fileName":"快.ogv","fileExt":"ogv","fileUrl":"https://filecdn.jinduolingchuang.com/music/resources/r_163332832662388736/content/节奏型2/快.ogv","fileRelativeUrl":"节奏型2/快.ogv"},{"fileId":"166954462487773184","resourceId":"163332832662388736","title":"慢","fileName":"慢.ogv","fileExt":"ogv","fileUrl":"https://filecdn.jinduolingchuang.com/music/resources/r_163332832662388736/content/节奏型2/慢.ogv","fileRelativeUrl":"节奏型2/慢.ogv"}],"description":""},{"musicCategoryCodeArray":["topics","7f12","3e99"],"resourceId":"163326821293621248","title":"节奏型03","publisherCode":"","publisherName":"","gradeCode":"","gradeName":"","mediaType":"course","mediaTypeName":"课程","source":"jinduo","sourceName":"发子","musicCategory":"topics,7f12,3e99","musicCategoryNames":"主题课程,身体打击乐,四拍子节奏","resourceType":"composite","resourceTypeName":"主题资源","builtin":false,"needUnzip":true,"thumbnailFileUrl":"https://filecdn.jinduolingchuang.com/music/resources/r_163326821293621248/thumbnail-5661.jpg","resourceFileUrl":"https://filecdn.jinduolingchuang.com/music/resources/r_163326821293621248/content.zip","resourceViewUrl":"https://filecdn.jinduolingchuang.com/music/resources/r_163326821293621248/content/index.html","published":false,"achieveFileUrl":"","extractFiles":[{"fileId":"166954462030594048","resourceId":"163326821293621248","title":"中速","fileName":"中速.ogv","fileExt":"ogv","fileUrl":"https://filecdn.jinduolingchuang.com/music/resources/r_163326821293621248/content/节奏型3/中速.ogv","fileRelativeUrl":"节奏型3/中速.ogv"},{"fileId":"166954462034788352","resourceId":"163326821293621248","title":"慢速","fileName":"慢速.ogv","fileExt":"ogv","fileUrl":"https://filecdn.jinduolingchuang.com/music/resources/r_163326821293621248/content/节奏型3/慢速.ogv","fileRelativeUrl":"节奏型3/慢速.ogv"}],"description":""},{"musicCategoryCodeArray":["topics","7f12","5bef"],"resourceId":"163333153019133952","title":"节奏型03","publisherCode":"","publisherName":"","gradeCode":"","gradeName":"","mediaType":"course","mediaTypeName":"课程","source":"jinduo","sourceName":"发子","musicCategory":"topics,7f12,5bef","musicCategoryNames":"主题课程,身体打击乐,六拍子节奏","resourceType":"composite","resourceTypeName":"主题资源","builtin":false,"needUnzip":true,"thumbnailFileUrl":"https://filecdn.jinduolingchuang.com/music/resources/r_163333153019133952/thumbnail-8275.jpg","resourceFileUrl":"https://filecdn.jinduolingchuang.com/music/resources/r_163333153019133952/content.zip","resourceViewUrl":"https://filecdn.jinduolingchuang.com/music/resources/r_163333153019133952/content/index.html","published":false,"achieveFileUrl":"","extractFiles":[{"fileId":"166954462714265600","resourceId":"163333153019133952","title":"快","fileName":"快.ogv","fileExt":"ogv","fileUrl":"https://filecdn.jinduolingchuang.com/music/resources/r_163333153019133952/content/节奏型3/快.ogv","fileRelativeUrl":"节奏型3/快.ogv"},{"fileId":"166954462718459904","resourceId":"163333153019133952","title":"慢","fileName":"慢.ogv","fileExt":"ogv","fileUrl":"https://filecdn.jinduolingchuang.com/music/resources/r_163333153019133952/content/节奏型3/慢.ogv","fileRelativeUrl":"节奏型3/慢.ogv"}],"description":""},{"musicCategoryCodeArray":["topics","7f12","5bef"],"resourceId":"163333565222748160","title":"节奏型04","publisherCode":"","publisherName":"","gradeCode":"","gradeName":"","mediaType":"course","mediaTypeName":"课程","source":"jinduo","sourceName":"发子","musicCategory":"topics,7f12,5bef","musicCategoryNames":"主题课程,身体打击乐,六拍子节奏","resourceType":"composite","resourceTypeName":"主题资源","builtin":false,"needUnzip":true,"thumbnailFileUrl":"https://filecdn.jinduolingchuang.com/music/resources/r_163333565222748160/thumbnail-6552.jpg","resourceFileUrl":"https://filecdn.jinduolingchuang.com/music/resources/r_163333565222748160/content.zip","resourceViewUrl":"https://filecdn.jinduolingchuang.com/music/resources/r_163333565222748160/content/index.html","published":false,"achieveFileUrl":"","extractFiles":[{"fileId":"166954462940758016","resourceId":"163333565222748160","title":"快","fileName":"快.ogv","fileExt":"ogv","fileUrl":"https://filecdn.jinduolingchuang.com/music/resources/r_163333565222748160/content/节奏型4/快.ogv","fileRelativeUrl":"节奏型4/快.ogv"},{"fileId":"166954462949146624","resourceId":"163333565222748160","title":"慢","fileName":"慢.ogv","fileExt":"ogv","fileUrl":"https://filecdn.jinduolingchuang.com/music/resources/r_163333565222748160/content/节奏型4/慢.ogv","fileRelativeUrl":"节奏型4/慢.ogv"}],"description":""},{"musicCategoryCodeArray":["topics","7f12","3e99"],"resourceId":"163327875850698752","title":"节奏型04--慢速","publisherCode":"","publisherName":"","gradeCode":"","gradeName":"","mediaType":"video","mediaTypeName":"视频","source":"jinduo","sourceName":"发子","musicCategory":"topics,7f12,3e99","musicCategoryNames":"主题课程,身体打击乐,四拍子节奏","resourceType":"composite","resourceTypeName":"主题资源","builtin":false,"needUnzip":false,"thumbnailFileUrl":"https://filecdn.jinduolingchuang.com/music/resources/r_163327875850698752/thumbnail-5415.jpg","resourceFileUrl":"https://filecdn.jinduolingchuang.com/music/resources/r_163327875850698752/content.ogv","resourceViewUrl":"https://filecdn.jinduolingchuang.com/music/resources/r_163327875850698752/content.ogv","published":false,"achieveFileUrl":"","description":""}]}