{"pageNum":2,"retCode":"0000","message":"查询资源","timestamp":"1610702776994","page":1,"size":8,"count":8,"totalPages":4,"totalElements":"25","contents":[{"musicCategoryCodeArray":["topics","7f12","5bef"],"resourceId":"163333928046821376","title":"节奏型05","publisherCode":"","publisherName":"","gradeCode":"","gradeName":"","mediaType":"course","mediaTypeName":"课程","source":"jinduo","sourceName":"发子","musicCategory":"topics,7f12,5bef","musicCategoryNames":"主题课程,身体打击乐,六拍子节奏","resourceType":"composite","resourceTypeName":"主题资源","builtin":false,"needUnzip":true,"thumbnailFileUrl":"https://filecdn.jinduolingchuang.com/music/resources/r_163333928046821376/thumbnail-3055.jpg","resourceFileUrl":"https://filecdn.jinduolingchuang.com/music/resources/r_163333928046821376/content-245.zip","resourceViewUrl":"https://filecdn.jinduolingchuang.com/music/resources/r_163333928046821376/content-245/index.html","published":false,"achieveFileUrl":"","extractFiles":[{"fileId":"183256755986235392","resourceId":"163333928046821376","title":"快","fileName":"快.ogv","fileExt":"ogv","fileUrl":"https://filecdn.jinduolingchuang.com/music/resources/r_163333928046821376/content-245/节奏型5/快.ogv","fileRelativeUrl":"节奏型5/快.ogv"},{"fileId":"183256755990429696","resourceId":"163333928046821376","title":"慢","fileName":"慢.ogv","fileExt":"ogv","fileUrl":"https://filecdn.jinduolingchuang.com/music/resources/r_163333928046821376/content-245/节奏型5/慢.ogv","fileRelativeUrl":"节奏型5/慢.ogv"}],"description":""},{"musicCategoryCodeArray":["topics","7f12","3e99"],"resourceId":"163328744700772352","title":"节奏型05--慢速","publisherCode":"","publisherName":"","gradeCode":"","gradeName":"","mediaType":"video","mediaTypeName":"视频","source":"jinduo","sourceName":"发子","musicCategory":"topics,7f12,3e99","musicCategoryNames":"主题课程,身体打击乐,四拍子节奏","resourceType":"composite","resourceTypeName":"主题资源","builtin":false,"needUnzip":false,"thumbnailFileUrl":"https://filecdn.jinduolingchuang.com/music/resources/r_163328744700772352/thumbnail-7258.jpg","resourceFileUrl":"https://filecdn.jinduolingchuang.com/music/resources/r_163328744700772352/content.ogv","resourceViewUrl":"https://filecdn.jinduolingchuang.com/music/resources/r_163328744700772352/content.ogv","published":false,"achieveFileUrl":"","description":""},{"musicCategoryCodeArray":["topics","7f12","3e99"],"resourceId":"163329650557190144","title":"节奏型05--慢速（双声部）","publisherCode":"","publisherName":"","gradeCode":"","gradeName":"","mediaType":"video","mediaTypeName":"视频","source":"jinduo","sourceName":"发子","musicCategory":"topics,7f12,3e99","musicCategoryNames":"主题课程,身体打击乐,四拍子节奏","resourceType":"composite","resourceTypeName":"主题资源","builtin":false,"needUnzip":false,"thumbnailFileUrl":"https://filecdn.jinduolingchuang.com/music/resources/r_163329650557190144/thumbnail-3219.jpg","resourceFileUrl":"https://filecdn.jinduolingchuang.com/music/resources/r_163329650557190144/content.ogv","resourceViewUrl":"https://filecdn.jinduolingchuang.com/music/resources/r_163329650557190144/content.ogv","published":false,"achieveFileUrl":"","description":""},{"musicCategoryCodeArray":["topics","7f12","5bef"],"resourceId":"163334177779875840","title":"节奏型06","publisherCode":"","publisherName":"","gradeCode":"","gradeName":"","mediaType":"course","mediaTypeName":"课程","source":"jinduo","sourceName":"发子","musicCategory":"topics,7f12,5bef","musicCategoryNames":"主题课程,身体打击乐,六拍子节奏","resourceType":"composite","resourceTypeName":"主题资源","builtin":false,"needUnzip":true,"thumbnailFileUrl":"https://filecdn.jinduolingchuang.com/music/resources/r_163334177779875840/thumbnail-2596.jpg","resourceFileUrl":"https://filecdn.jinduolingchuang.com/music/resources/r_163334177779875840/content.zip","resourceViewUrl":"https://filecdn.jinduolingchuang.com/music/resources/r_163334177779875840/content/index.html","published":false,"achieveFileUrl":"","extractFiles":[{"fileId":"166954463200804864","resourceId":"163334177779875840","title":"快","fileName":"快.ogv","fileExt":"ogv","fileUrl":"https://filecdn.jinduolingchuang.com/music/resources/r_163334177779875840/content/节奏型6/快.ogv","fileRelativeUrl":"节奏型6/快.ogv"},{"fileId":"166954463209193472","resourceId":"163334177779875840","title":"慢","fileName":"慢.ogv","fileExt":"ogv","fileUrl":"https://filecdn.jinduolingchuang.com/music/resources/r_163334177779875840/content/节奏型6/慢.ogv","fileRelativeUrl":"节奏型6/慢.ogv"}],"description":""},{"musicCategoryCodeArray":["topics","7f12","3e99"],"resourceId":"163329401067405312","title":"节奏型06--中速（双声部）","publisherCode":"","publisherName":"","gradeCode":"","gradeName":"","mediaType":"video","mediaTypeName":"视频","source":"jinduo","sourceName":"发子","musicCategory":"topics,7f12,3e99","musicCategoryNames":"主题课程,身体打击乐,四拍子节奏","resourceType":"composite","resourceTypeName":"主题资源","builtin":false,"needUnzip":false,"thumbnailFileUrl":"https://filecdn.jinduolingchuang.com/music/resources/r_163329401067405312/thumbnail-3737.jpg","resourceFileUrl":"https://filecdn.jinduolingchuang.com/music/resources/r_163329401067405312/content.ogv","resourceViewUrl":"https://filecdn.jinduolingchuang.com/music/resources/r_163329401067405312/content.ogv","published":false,"achieveFileUrl":"","description":""},{"musicCategoryCodeArray":["topics","7f12","3e99"],"resourceId":"163329014792978432","title":"节奏型06--慢速","publisherCode":"","publisherName":"","gradeCode":"","gradeName":"","mediaType":"video","mediaTypeName":"视频","source":"jinduo","sourceName":"发子","musicCategory":"topics,7f12,3e99","musicCategoryNames":"主题课程,身体打击乐,四拍子节奏","resourceType":"composite","resourceTypeName":"主题资源","builtin":false,"needUnzip":false,"thumbnailFileUrl":"https://filecdn.jinduolingchuang.com/music/resources/r_163329014792978432/thumbnail-1641.jpg","resourceFileUrl":"https://filecdn.jinduolingchuang.com/music/resources/r_163329014792978432/content.ogv","resourceViewUrl":"https://filecdn.jinduolingchuang.com/music/resources/r_163329014792978432/content.ogv","published":false,"achieveFileUrl":"","description":""},{"musicCategoryCodeArray":["topics","7f12","5bef"],"resourceId":"163334425109594112","title":"节奏型07","publisherCode":"","publisherName":"","gradeCode":"","gradeName":"","mediaType":"course","mediaTypeName":"课程","source":"jinduo","sourceName":"发子","musicCategory":"topics,7f12,5bef","musicCategoryNames":"主题课程,身体打击乐,六拍子节奏","resourceType":"composite","resourceTypeName":"主题资源","builtin":false,"needUnzip":true,"thumbnailFileUrl":"https://filecdn.jinduolingchuang.com/music/resources/r_163334425109594112/thumbnail-1565.jpg","resourceFileUrl":"https://filecdn.jinduolingchuang.com/music/resources/r_163334425109594112/content.zip","resourceViewUrl":"https://filecdn.jinduolingchuang.com/music/resources/r_163334425109594112/content/index.html","published":false,"achieveFileUrl":"","extractFiles":[{"fileId":"166954463511183360","resourceId":"163334425109594112","title":"快","fileName":"快.ogv","fileExt":"ogv","fileUrl":"https://filecdn.jinduolingchuang.com/music/resources/r_163334425109594112/content/节奏型7/快.ogv","fileRelativeUrl":"节奏型7/快.ogv"},{"fileId":"166954463515377664","resourceId":"163334425109594112","title":"慢","fileName":"慢.ogv","fileExt":"ogv","fileUrl":"https://filecdn.jinduolingchuang.com/music/resources/r_163334425109594112/content/节奏型7/慢.ogv","fileRelativeUrl":"节奏型7/慢.ogv"}],"description":""},{"musicCategoryCodeArray":["topics","7f12","3e99"],"resourceId":"163330305300627456","title":"节奏型07--慢速","publisherCode":"","publisherName":"","gradeCode":"","gradeName":"","mediaType":"video","mediaTypeName":"视频","source":"jinduo","sourceName":"发子","musicCategory":"topics,7f12,3e99","musicCategoryNames":"主题课程,身体打击乐,四拍子节奏","resourceType":"composite","resourceTypeName":"主题资源","builtin":false,"needUnzip":false,"thumbnailFileUrl":"https://filecdn.jinduolingchuang.com/music/resources/r_163330305300627456/thumbnail-6583.jpg","resourceFileUrl":"https://filecdn.jinduolingchuang.com/music/resources/r_163330305300627456/content.ogv","resourceViewUrl":"https://filecdn.jinduolingchuang.com/music/resources/r_163330305300627456/content.ogv","published":false,"achieveFileUrl":"","description":""}]}