{"pageNum":4,"retCode":"0000","message":"查询资源","timestamp":"1610702829379","page":3,"size":8,"count":1,"totalPages":4,"totalElements":"25","contents":[{"musicCategoryCodeArray":["topics","7f12","3e99"],"resourceId":"163332004933271552","title":"节奏型16--中速","publisherCode":"","publisherName":"","gradeCode":"","gradeName":"","mediaType":"video","mediaTypeName":"视频","source":"jinduo","sourceName":"发子","musicCategory":"topics,7f12,3e99","musicCategoryNames":"主题课程,身体打击乐,四拍子节奏","resourceType":"composite","resourceTypeName":"主题资源","builtin":false,"needUnzip":false,"thumbnailFileUrl":"https://filecdn.jinduolingchuang.com/music/resources/r_163332004933271552/thumbnail-4551.jpg","resourceFileUrl":"https://filecdn.jinduolingchuang.com/music/resources/r_163332004933271552/content.ogv","resourceViewUrl":"https://filecdn.jinduolingchuang.com/music/resources/r_163332004933271552/content.ogv","published":false,"achieveFileUrl":"","description":""}]}