{"pageNum":1,"retCode":"0000","message":"查询资源","timestamp":"1610704793653","page":0,"size":8,"count":8,"totalPages":3,"totalElements":"21","contents":[{"musicCategoryCodeArray":["topics","9b39"],"resourceId":"163336775131987968","title":"口哨与小狗","publisherCode":"","publisherName":"","gradeCode":"","gradeName":"","mediaType":"video","mediaTypeName":"视频","source":"jinduo","sourceName":"发子","musicCategory":"topics,9b39","musicCategoryNames":"主题课程,乐曲欣赏","resourceType":"composite","resourceTypeName":"主题资源","builtin":false,"needUnzip":false,"thumbnailFileUrl":"https://filecdn.jinduolingchuang.com/music/resources/r_163336775131987968/thumbnail-1851.jpg","resourceFileUrl":"https://filecdn.jinduolingchuang.com/music/resources/r_163336775131987968/content.ogv","resourceViewUrl":"https://filecdn.jinduolingchuang.com/music/resources/r_163336775131987968/content.ogv","published":false,"achieveFileUrl":"","description":""},{"musicCategoryCodeArray":["topics","9b39"],"resourceId":"163338161487872000","title":"四季冬（第一乐章）","publisherCode":"","publisherName":"","gradeCode":"","gradeName":"","mediaType":"video","mediaTypeName":"视频","source":"jinduo","sourceName":"发子","musicCategory":"topics,9b39","musicCategoryNames":"主题课程,乐曲欣赏","resourceType":"composite","resourceTypeName":"主题资源","builtin":false,"needUnzip":false,"thumbnailFileUrl":"https://filecdn.jinduolingchuang.com/music/resources/r_163338161487872000/thumbnail-2384.jpg","resourceFileUrl":"https://filecdn.jinduolingchuang.com/music/resources/r_163338161487872000/content.ogv","resourceViewUrl":"https://filecdn.jinduolingchuang.com/music/resources/r_163338161487872000/content.ogv","published":false,"achieveFileUrl":"","description":""},{"musicCategoryCodeArray":["topics","9b39"],"resourceId":"163338565613256704","title":"四季冬（第三乐章）","publisherCode":"","publisherName":"","gradeCode":"","gradeName":"","mediaType":"video","mediaTypeName":"视频","source":"jinduo","sourceName":"发子","musicCategory":"topics,9b39","musicCategoryNames":"主题课程,乐曲欣赏","resourceType":"composite","resourceTypeName":"主题资源","builtin":false,"needUnzip":false,"thumbnailFileUrl":"https://filecdn.jinduolingchuang.com/music/resources/r_163338565613256704/thumbnail-8734.jpg","resourceFileUrl":"https://filecdn.jinduolingchuang.com/music/resources/r_163338565613256704/content.ogv","resourceViewUrl":"https://filecdn.jinduolingchuang.com/music/resources/r_163338565613256704/content.ogv","published":false,"achieveFileUrl":"","description":""},{"musicCategoryCodeArray":["topics","9b39"],"resourceId":"163338301393076224","title":"四季冬（第二乐章）","publisherCode":"","publisherName":"","gradeCode":"","gradeName":"","mediaType":"video","mediaTypeName":"视频","source":"jinduo","sourceName":"发子","musicCategory":"topics,9b39","musicCategoryNames":"主题课程,乐曲欣赏","resourceType":"composite","resourceTypeName":"主题资源","builtin":false,"needUnzip":false,"thumbnailFileUrl":"https://filecdn.jinduolingchuang.com/music/resources/r_163338301393076224/thumbnail-5740.jpg","resourceFileUrl":"https://filecdn.jinduolingchuang.com/music/resources/r_163338301393076224/content.ogv","resourceViewUrl":"https://filecdn.jinduolingchuang.com/music/resources/r_163338301393076224/content.ogv","published":false,"achieveFileUrl":"","description":""},{"musicCategoryCodeArray":["topics","9b39"],"resourceId":"163392912699162624","title":"四季夏（第一乐章）","publisherCode":"","publisherName":"","gradeCode":"","gradeName":"","mediaType":"video","mediaTypeName":"视频","source":"jinduo","sourceName":"发子","musicCategory":"topics,9b39","musicCategoryNames":"主题课程,乐曲欣赏","resourceType":"composite","resourceTypeName":"主题资源","builtin":false,"needUnzip":false,"thumbnailFileUrl":"https://filecdn.jinduolingchuang.com/music/resources/r_163392912699162624/thumbnail-6089.jpg","resourceFileUrl":"https://filecdn.jinduolingchuang.com/music/resources/r_163392912699162624/content.ogv","resourceViewUrl":"https://filecdn.jinduolingchuang.com/music/resources/r_163392912699162624/content.ogv","published":false,"achieveFileUrl":"","description":""},{"musicCategoryCodeArray":["topics","9b39"],"resourceId":"163392749876281344","title":"四季夏（第三乐章）","publisherCode":"","publisherName":"","gradeCode":"","gradeName":"","mediaType":"video","mediaTypeName":"视频","source":"jinduo","sourceName":"发子","musicCategory":"topics,9b39","musicCategoryNames":"主题课程,乐曲欣赏","resourceType":"composite","resourceTypeName":"主题资源","builtin":false,"needUnzip":false,"thumbnailFileUrl":"https://filecdn.jinduolingchuang.com/music/resources/r_163392749876281344/thumbnail-7269.jpg","resourceFileUrl":"https://filecdn.jinduolingchuang.com/music/resources/r_163392749876281344/content.ogv","resourceViewUrl":"https://filecdn.jinduolingchuang.com/music/resources/r_163392749876281344/content.ogv","published":false,"achieveFileUrl":"","description":""},{"musicCategoryCodeArray":["topics","9b39"],"resourceId":"163344883774390272","title":"四季夏（第二乐章）","publisherCode":"","publisherName":"","gradeCode":"","gradeName":"","mediaType":"video","mediaTypeName":"视频","source":"jinduo","sourceName":"发子","musicCategory":"topics,9b39","musicCategoryNames":"主题课程,乐曲欣赏","resourceType":"composite","resourceTypeName":"主题资源","builtin":false,"needUnzip":false,"thumbnailFileUrl":"https://filecdn.jinduolingchuang.com/music/resources/r_163344883774390272/thumbnail-5103.jpg","resourceFileUrl":"https://filecdn.jinduolingchuang.com/music/resources/r_163344883774390272/content.ogv","resourceViewUrl":"https://filecdn.jinduolingchuang.com/music/resources/r_163344883774390272/content.ogv","published":false,"achieveFileUrl":"","description":""},{"musicCategoryCodeArray":["topics","9b39"],"resourceId":"163337447281786880","title":"四季春（第一乐章）","publisherCode":"","publisherName":"","gradeCode":"","gradeName":"","mediaType":"video","mediaTypeName":"视频","source":"jinduo","sourceName":"发子","musicCategory":"topics,9b39","musicCategoryNames":"主题课程,乐曲欣赏","resourceType":"composite","resourceTypeName":"主题资源","builtin":false,"needUnzip":false,"thumbnailFileUrl":"https://filecdn.jinduolingchuang.com/music/resources/r_163337447281786880/thumbnail-2104.jpg","resourceFileUrl":"https://filecdn.jinduolingchuang.com/music/resources/r_163337447281786880/content.ogv","resourceViewUrl":"https://filecdn.jinduolingchuang.com/music/resources/r_163337447281786880/content.ogv","published":false,"achieveFileUrl":"","description":""}]}