{"pageNum":2,"retCode":"0000","message":"查询资源","timestamp":"1610704873442","page":1,"size":8,"count":8,"totalPages":3,"totalElements":"21","contents":[{"musicCategoryCodeArray":["topics","9b39"],"resourceId":"163337774831763456","title":"四季春（第三乐章）","publisherCode":"","publisherName":"","gradeCode":"","gradeName":"","mediaType":"video","mediaTypeName":"视频","source":"jinduo","sourceName":"发子","musicCategory":"topics,9b39","musicCategoryNames":"主题课程,乐曲欣赏","resourceType":"composite","resourceTypeName":"主题资源","builtin":false,"needUnzip":false,"thumbnailFileUrl":"https://filecdn.jinduolingchuang.com/music/resources/r_163337774831763456/thumbnail-198.jpg","resourceFileUrl":"https://filecdn.jinduolingchuang.com/music/resources/r_163337774831763456/content.ogv","resourceViewUrl":"https://filecdn.jinduolingchuang.com/music/resources/r_163337774831763456/content.ogv","published":false,"achieveFileUrl":"","description":""},{"musicCategoryCodeArray":["topics","9b39"],"resourceId":"163337602953379840","title":"四季春（第二乐章）","publisherCode":"","publisherName":"","gradeCode":"","gradeName":"","mediaType":"video","mediaTypeName":"视频","source":"jinduo","sourceName":"发子","musicCategory":"topics,9b39","musicCategoryNames":"主题课程,乐曲欣赏","resourceType":"composite","resourceTypeName":"主题资源","builtin":false,"needUnzip":false,"thumbnailFileUrl":"https://filecdn.jinduolingchuang.com/music/resources/r_163337602953379840/thumbnail-9220.jpg","resourceFileUrl":"https://filecdn.jinduolingchuang.com/music/resources/r_163337602953379840/content.ogv","resourceViewUrl":"https://filecdn.jinduolingchuang.com/music/resources/r_163337602953379840/content.ogv","published":false,"achieveFileUrl":"","description":""},{"musicCategoryCodeArray":["topics","9b39"],"resourceId":"163340837768396800","title":"四季秋（第一乐章）","publisherCode":"","publisherName":"","gradeCode":"","gradeName":"","mediaType":"video","mediaTypeName":"视频","source":"jinduo","sourceName":"发子","musicCategory":"topics,9b39","musicCategoryNames":"主题课程,乐曲欣赏","resourceType":"composite","resourceTypeName":"主题资源","builtin":false,"needUnzip":false,"thumbnailFileUrl":"https://filecdn.jinduolingchuang.com/music/resources/r_163340837768396800/thumbnail-7996.jpg","resourceFileUrl":"https://filecdn.jinduolingchuang.com/music/resources/r_163340837768396800/content.ogv","resourceViewUrl":"https://filecdn.jinduolingchuang.com/music/resources/r_163340837768396800/content.ogv","published":false,"achieveFileUrl":"","description":""},{"musicCategoryCodeArray":["topics","9b39"],"resourceId":"163341861518311424","title":"四季秋（第三乐章）","publisherCode":"","publisherName":"","gradeCode":"","gradeName":"","mediaType":"video","mediaTypeName":"视频","source":"jinduo","sourceName":"发子","musicCategory":"topics,9b39","musicCategoryNames":"主题课程,乐曲欣赏","resourceType":"composite","resourceTypeName":"主题资源","builtin":false,"needUnzip":false,"thumbnailFileUrl":"https://filecdn.jinduolingchuang.com/music/resources/r_163341861518311424/thumbnail-4539.jpg","resourceFileUrl":"https://filecdn.jinduolingchuang.com/music/resources/r_163341861518311424/content.ogv","resourceViewUrl":"https://filecdn.jinduolingchuang.com/music/resources/r_163341861518311424/content.ogv","published":false,"achieveFileUrl":"","description":""},{"musicCategoryCodeArray":["topics","9b39"],"resourceId":"163341578830610432","title":"四季秋（第二乐章）","publisherCode":"","publisherName":"","gradeCode":"","gradeName":"","mediaType":"video","mediaTypeName":"视频","source":"jinduo","sourceName":"发子","musicCategory":"topics,9b39","musicCategoryNames":"主题课程,乐曲欣赏","resourceType":"composite","resourceTypeName":"主题资源","builtin":false,"needUnzip":false,"thumbnailFileUrl":"https://filecdn.jinduolingchuang.com/music/resources/r_163341578830610432/thumbnail-7141.jpg","resourceFileUrl":"https://filecdn.jinduolingchuang.com/music/resources/r_163341578830610432/content.ogv","resourceViewUrl":"https://filecdn.jinduolingchuang.com/music/resources/r_163341578830610432/content.ogv","published":false,"achieveFileUrl":"","description":""},{"musicCategoryCodeArray":["topics","9b39"],"resourceId":"163393290907942912","title":"小狗圆舞曲","publisherCode":"","publisherName":"","gradeCode":"","gradeName":"","mediaType":"video","mediaTypeName":"视频","source":"jinduo","sourceName":"发子","musicCategory":"topics,9b39","musicCategoryNames":"主题课程,乐曲欣赏","resourceType":"composite","resourceTypeName":"主题资源","builtin":false,"needUnzip":false,"thumbnailFileUrl":"https://filecdn.jinduolingchuang.com/music/resources/r_163393290907942912/thumbnail-6260.jpg","resourceFileUrl":"https://filecdn.jinduolingchuang.com/music/resources/r_163393290907942912/content.ogv","resourceViewUrl":"https://filecdn.jinduolingchuang.com/music/resources/r_163393290907942912/content.ogv","published":false,"achieveFileUrl":"","description":""},{"musicCategoryCodeArray":["topics","9b39"],"resourceId":"163393419236868096","title":"小猫圆舞曲","publisherCode":"","publisherName":"","gradeCode":"","gradeName":"","mediaType":"video","mediaTypeName":"视频","source":"jinduo","sourceName":"发子","musicCategory":"topics,9b39","musicCategoryNames":"主题课程,乐曲欣赏","resourceType":"composite","resourceTypeName":"主题资源","builtin":false,"needUnzip":false,"thumbnailFileUrl":"https://filecdn.jinduolingchuang.com/music/resources/r_163393419236868096/thumbnail-6857.jpg","resourceFileUrl":"https://filecdn.jinduolingchuang.com/music/resources/r_163393419236868096/content.ogv","resourceViewUrl":"https://filecdn.jinduolingchuang.com/music/resources/r_163393419236868096/content.ogv","published":false,"achieveFileUrl":"","description":""},{"musicCategoryCodeArray":["topics","9b39"],"resourceId":"163393560639438848","title":"小鸟店","publisherCode":"","publisherName":"","gradeCode":"","gradeName":"","mediaType":"video","mediaTypeName":"视频","source":"jinduo","sourceName":"发子","musicCategory":"topics,9b39","musicCategoryNames":"主题课程,乐曲欣赏","resourceType":"composite","resourceTypeName":"主题资源","builtin":false,"needUnzip":false,"thumbnailFileUrl":"https://filecdn.jinduolingchuang.com/music/resources/r_163393560639438848/thumbnail-570.jpg","resourceFileUrl":"https://filecdn.jinduolingchuang.com/music/resources/r_163393560639438848/content.ogv","resourceViewUrl":"https://filecdn.jinduolingchuang.com/music/resources/r_163393560639438848/content.ogv","published":false,"achieveFileUrl":"","description":""}]}