{"pageNum":3,"retCode":"0000","message":"查询资源","timestamp":"1610704893267","page":2,"size":8,"count":5,"totalPages":3,"totalElements":"21","contents":[{"musicCategoryCodeArray":["topics","9b39"],"resourceId":"163393696815906816","title":"巡逻兵进行曲","publisherCode":"","publisherName":"","gradeCode":"","gradeName":"","mediaType":"video","mediaTypeName":"视频","source":"jinduo","sourceName":"发子","musicCategory":"topics,9b39","musicCategoryNames":"主题课程,乐曲欣赏","resourceType":"composite","resourceTypeName":"主题资源","builtin":false,"needUnzip":false,"thumbnailFileUrl":"https://filecdn.jinduolingchuang.com/music/resources/r_163393696815906816/thumbnail-3037.jpg","resourceFileUrl":"https://filecdn.jinduolingchuang.com/music/resources/r_163393696815906816/content.ogv","resourceViewUrl":"https://filecdn.jinduolingchuang.com/music/resources/r_163393696815906816/content.ogv","published":false,"achieveFileUrl":"","description":""},{"musicCategoryCodeArray":["topics","9b39"],"resourceId":"163336594298765312","title":"打字协奏曲","publisherCode":"","publisherName":"","gradeCode":"","gradeName":"","mediaType":"video","mediaTypeName":"视频","source":"jinduo","sourceName":"发子","musicCategory":"topics,9b39","musicCategoryNames":"主题课程,乐曲欣赏","resourceType":"composite","resourceTypeName":"主题资源","builtin":false,"needUnzip":false,"thumbnailFileUrl":"https://filecdn.jinduolingchuang.com/music/resources/r_163336594298765312/thumbnail-8741.jpg","resourceFileUrl":"https://filecdn.jinduolingchuang.com/music/resources/r_163336594298765312/content.ogv","resourceViewUrl":"https://filecdn.jinduolingchuang.com/music/resources/r_163336594298765312/content.ogv","published":false,"achieveFileUrl":"","description":""},{"musicCategoryCodeArray":["topics","9b39"],"resourceId":"163337248241090560","title":"时钟店","publisherCode":"","publisherName":"","gradeCode":"","gradeName":"","mediaType":"video","mediaTypeName":"视频","source":"jinduo","sourceName":"发子","musicCategory":"topics,9b39","musicCategoryNames":"主题课程,乐曲欣赏","resourceType":"composite","resourceTypeName":"主题资源","builtin":false,"needUnzip":false,"thumbnailFileUrl":"https://filecdn.jinduolingchuang.com/music/resources/r_163337248241090560/thumbnail-4649.jpg","resourceFileUrl":"https://filecdn.jinduolingchuang.com/music/resources/r_163337248241090560/content.ogv","resourceViewUrl":"https://filecdn.jinduolingchuang.com/music/resources/r_163337248241090560/content.ogv","published":false,"achieveFileUrl":"","description":""},{"musicCategoryCodeArray":["topics","9b39"],"resourceId":"163393824096256000","title":"邮递马车","publisherCode":"","publisherName":"","gradeCode":"","gradeName":"","mediaType":"video","mediaTypeName":"视频","source":"jinduo","sourceName":"发子","musicCategory":"topics,9b39","musicCategoryNames":"主题课程,乐曲欣赏","resourceType":"composite","resourceTypeName":"主题资源","builtin":false,"needUnzip":false,"thumbnailFileUrl":"https://filecdn.jinduolingchuang.com/music/resources/r_163393824096256000/thumbnail-3382.jpg","resourceFileUrl":"https://filecdn.jinduolingchuang.com/music/resources/r_163393824096256000/content.ogv","resourceViewUrl":"https://filecdn.jinduolingchuang.com/music/resources/r_163393824096256000/content.ogv","published":false,"achieveFileUrl":"","description":""},{"musicCategoryCodeArray":["topics","9b39"],"resourceId":"163337060285939712","title":"闪电雷鸣布尔卡","publisherCode":"","publisherName":"","gradeCode":"","gradeName":"","mediaType":"video","mediaTypeName":"视频","source":"jinduo","sourceName":"发子","musicCategory":"topics,9b39","musicCategoryNames":"主题课程,乐曲欣赏","resourceType":"composite","resourceTypeName":"主题资源","builtin":false,"needUnzip":false,"thumbnailFileUrl":"https://filecdn.jinduolingchuang.com/music/resources/r_163337060285939712/thumbnail-9839.jpg","resourceFileUrl":"https://filecdn.jinduolingchuang.com/music/resources/r_163337060285939712/content.ogv","resourceViewUrl":"https://filecdn.jinduolingchuang.com/music/resources/r_163337060285939712/content.ogv","published":false,"achieveFileUrl":"","description":""}]}