{"pageNum":1,"retCode":"0000","message":"查询资源","timestamp":"1610704502124","page":0,"size":8,"count":8,"totalPages":5,"totalElements":"33","contents":[{"musicCategoryCodeArray":["topics","476e"],"resourceId":"164020245747466240","title":"课时01 五线谱与高音谱号","publisherCode":"","publisherName":"","gradeCode":"","gradeName":"","mediaType":"course","mediaTypeName":"课程","source":"jinduo","sourceName":"发子","musicCategory":"topics,476e","musicCategoryNames":"主题课程,五线谱教学","resourceType":"composite","resourceTypeName":"主题资源","builtin":false,"needUnzip":true,"thumbnailFileUrl":"https://filecdn.jinduolingchuang.com/music/resources/r_164020245747466240/thumbnail-1018.jpg","resourceFileUrl":"https://filecdn.jinduolingchuang.com/music/resources/r_164020245747466240/content-138.zip","resourceViewUrl":"https://filecdn.jinduolingchuang.com/music/resources/r_164020245747466240/content-138/index.html","published":false,"achieveFileUrl":"","extractFiles":[{"fileId":"172655901897916416","resourceId":"164020245747466240","title":"1-1","fileName":"1-1.ogv","fileExt":"ogv","fileUrl":"https://filecdn.jinduolingchuang.com/music/resources/r_164020245747466240/content-138/1-1.ogv","fileRelativeUrl":"1-1.ogv"},{"fileId":"172655901906305024","resourceId":"164020245747466240","title":"1-2","fileName":"1-2.ogv","fileExt":"ogv","fileUrl":"https://filecdn.jinduolingchuang.com/music/resources/r_164020245747466240/content-138/1-2.ogv","fileRelativeUrl":"1-2.ogv"}],"description":""},{"musicCategoryCodeArray":["topics","476e"],"resourceId":"164020349871063040","title":"课时02 do mi so的位置","publisherCode":"","publisherName":"","gradeCode":"","gradeName":"","mediaType":"course","mediaTypeName":"课程","source":"jinduo","sourceName":"发子","musicCategory":"topics,476e","musicCategoryNames":"主题课程,五线谱教学","resourceType":"composite","resourceTypeName":"主题资源","builtin":false,"needUnzip":true,"thumbnailFileUrl":"https://filecdn.jinduolingchuang.com/music/resources/r_164020349871063040/thumbnail-6712.jpg","resourceFileUrl":"https://filecdn.jinduolingchuang.com/music/resources/r_164020349871063040/content-554.zip","resourceViewUrl":"https://filecdn.jinduolingchuang.com/music/resources/r_164020349871063040/content-554/index.html","published":false,"achieveFileUrl":"","extractFiles":[{"fileId":"183173040266280960","resourceId":"164020349871063040","title":"2-1","fileName":"2-1.ogv","fileExt":"ogv","fileUrl":"https://filecdn.jinduolingchuang.com/music/resources/r_164020349871063040/content-554/2-1.ogv","fileRelativeUrl":"2-1.ogv"},{"fileId":"183173040270475264","resourceId":"164020349871063040","title":"2-2","fileName":"2-2.ogv","fileExt":"ogv","fileUrl":"https://filecdn.jinduolingchuang.com/music/resources/r_164020349871063040/content-554/2-2.ogv","fileRelativeUrl":"2-2.ogv"},{"fileId":"183173040274669568","resourceId":"164020349871063040","title":"2-3","fileName":"2-3.ogv","fileExt":"ogv","fileUrl":"https://filecdn.jinduolingchuang.com/music/resources/r_164020349871063040/content-554/2-3.ogv","fileRelativeUrl":"2-3.ogv"},{"fileId":"183173040278863872","resourceId":"164020349871063040","title":"2-4","fileName":"2-4.ogv","fileExt":"ogv","fileUrl":"https://filecdn.jinduolingchuang.com/music/resources/r_164020349871063040/content-554/2-4.ogv","fileRelativeUrl":"2-4.ogv"},{"fileId":"183173040278863873","resourceId":"164020349871063040","title":"2-5","fileName":"2-5.ogv","fileExt":"ogv","fileUrl":"https://filecdn.jinduolingchuang.com/music/resources/r_164020349871063040/content-554/2-5.ogv","fileRelativeUrl":"2-5.ogv"},{"fileId":"183173040283058176","resourceId":"164020349871063040","title":"2-6","fileName":"2-6.ogv","fileExt":"ogv","fileUrl":"https://filecdn.jinduolingchuang.com/music/resources/r_164020349871063040/content-554/2-6.ogv","fileRelativeUrl":"2-6.ogv"}],"description":""},{"musicCategoryCodeArray":["topics","476e"],"resourceId":"164020450400141312","title":"课时03 全音符与四分音符","publisherCode":"","publisherName":"","gradeCode":"","gradeName":"","mediaType":"course","mediaTypeName":"课程","source":"jinduo","sourceName":"发子","musicCategory":"topics,476e","musicCategoryNames":"主题课程,五线谱教学","resourceType":"composite","resourceTypeName":"主题资源","builtin":false,"needUnzip":true,"thumbnailFileUrl":"https://filecdn.jinduolingchuang.com/music/resources/r_164020450400141312/thumbnail-7257.jpg","resourceFileUrl":"https://filecdn.jinduolingchuang.com/music/resources/r_164020450400141312/content.zip","resourceViewUrl":"https://filecdn.jinduolingchuang.com/music/resources/r_164020450400141312/content/index.html","published":false,"achieveFileUrl":"","extractFiles":[{"fileId":"166954465352482816","resourceId":"164020450400141312","title":"3-1","fileName":"3-1.ogv","fileExt":"ogv","fileUrl":"https://filecdn.jinduolingchuang.com/music/resources/r_164020450400141312/content/课时3 全音符与四分音符/3-1.ogv","fileRelativeUrl":"课时3 全音符与四分音符/3-1.ogv"},{"fileId":"166954465356677120","resourceId":"164020450400141312","title":"3-2","fileName":"3-2.ogv","fileExt":"ogv","fileUrl":"https://filecdn.jinduolingchuang.com/music/resources/r_164020450400141312/content/课时3 全音符与四分音符/3-2.ogv","fileRelativeUrl":"课时3 全音符与四分音符/3-2.ogv"},{"fileId":"166954465360871424","resourceId":"164020450400141312","title":"3-3","fileName":"3-3.ogv","fileExt":"ogv","fileUrl":"https://filecdn.jinduolingchuang.com/music/resources/r_164020450400141312/content/课时3 全音符与四分音符/3-3.ogv","fileRelativeUrl":"课时3 全音符与四分音符/3-3.ogv"},{"fileId":"166954465365065728","resourceId":"164020450400141312","title":"3-4","fileName":"3-4.ogv","fileExt":"ogv","fileUrl":"https://filecdn.jinduolingchuang.com/music/resources/r_164020450400141312/content/课时3 全音符与四分音符/3-4.ogv","fileRelativeUrl":"课时3 全音符与四分音符/3-4.ogv"}],"description":""},{"musicCategoryCodeArray":["topics","476e"],"resourceId":"164020565076606976","title":"课时04 二分音符  RE、LA","publisherCode":"","publisherName":"","gradeCode":"","gradeName":"","mediaType":"course","mediaTypeName":"课程","source":"jinduo","sourceName":"发子","musicCategory":"topics,476e","musicCategoryNames":"主题课程,五线谱教学","resourceType":"composite","resourceTypeName":"主题资源","builtin":false,"needUnzip":true,"thumbnailFileUrl":"https://filecdn.jinduolingchuang.com/music/resources/r_164020565076606976/thumbnail-4055.jpg","resourceFileUrl":"https://filecdn.jinduolingchuang.com/music/resources/r_164020565076606976/content.zip","resourceViewUrl":"https://filecdn.jinduolingchuang.com/music/resources/r_164020565076606976/content/index.html","published":false,"achieveFileUrl":"","extractFiles":[{"fileId":"166954465683832832","resourceId":"164020565076606976","title":"4-1","fileName":"4-1.ogv","fileExt":"ogv","fileUrl":"https://filecdn.jinduolingchuang.com/music/resources/r_164020565076606976/content/课时4 二分音符  RE、LA/4-1.ogv","fileRelativeUrl":"课时4 二分音符  RE、LA/4-1.ogv"},{"fileId":"166954465688027136","resourceId":"164020565076606976","title":"4-2","fileName":"4-2.ogv","fileExt":"ogv","fileUrl":"https://filecdn.jinduolingchuang.com/music/resources/r_164020565076606976/content/课时4 二分音符  RE、LA/4-2.ogv","fileRelativeUrl":"课时4 二分音符  RE、LA/4-2.ogv"},{"fileId":"166954465692221440","resourceId":"164020565076606976","title":"4-3","fileName":"4-3.ogv","fileExt":"ogv","fileUrl":"https://filecdn.jinduolingchuang.com/music/resources/r_164020565076606976/content/课时4 二分音符  RE、LA/4-3.ogv","fileRelativeUrl":"课时4 二分音符  RE、LA/4-3.ogv"}],"description":""},{"musicCategoryCodeArray":["topics","476e"],"resourceId":"164020694236004352","title":"课时05 小节线、终止线、四四拍与FA","publisherCode":"","publisherName":"","gradeCode":"","gradeName":"","mediaType":"course","mediaTypeName":"课程","source":"jinduo","sourceName":"发子","musicCategory":"topics,476e","musicCategoryNames":"主题课程,五线谱教学","resourceType":"composite","resourceTypeName":"主题资源","builtin":false,"needUnzip":true,"thumbnailFileUrl":"https://filecdn.jinduolingchuang.com/music/resources/r_164020694236004352/thumbnail-476.jpg","resourceFileUrl":"https://filecdn.jinduolingchuang.com/music/resources/r_164020694236004352/content.zip","resourceViewUrl":"https://filecdn.jinduolingchuang.com/music/resources/r_164020694236004352/content/index.html","published":false,"achieveFileUrl":"","extractFiles":[{"fileId":"166954465977434112","resourceId":"164020694236004352","title":"5-1","fileName":"5-1.ogv","fileExt":"ogv","fileUrl":"https://filecdn.jinduolingchuang.com/music/resources/r_164020694236004352/content/小节线、终止线、四四拍与FA/5-1.ogv","fileRelativeUrl":"小节线、终止线、四四拍与FA/5-1.ogv"},{"fileId":"166954465981628416","resourceId":"164020694236004352","title":"5-2","fileName":"5-2.ogv","fileExt":"ogv","fileUrl":"https://filecdn.jinduolingchuang.com/music/resources/r_164020694236004352/content/小节线、终止线、四四拍与FA/5-2.ogv","fileRelativeUrl":"小节线、终止线、四四拍与FA/5-2.ogv"},{"fileId":"166954465985822720","resourceId":"164020694236004352","title":"5-3","fileName":"5-3.ogv","fileExt":"ogv","fileUrl":"https://filecdn.jinduolingchuang.com/music/resources/r_164020694236004352/content/小节线、终止线、四四拍与FA/5-3.ogv","fileRelativeUrl":"小节线、终止线、四四拍与FA/5-3.ogv"}],"description":""},{"musicCategoryCodeArray":["topics","476e"],"resourceId":"164020791766155264","title":"课时06 复习  视唱小星星","publisherCode":"","publisherName":"","gradeCode":"","gradeName":"","mediaType":"course","mediaTypeName":"课程","source":"jinduo","sourceName":"发子","musicCategory":"topics,476e","musicCategoryNames":"主题课程,五线谱教学","resourceType":"composite","resourceTypeName":"主题资源","builtin":false,"needUnzip":true,"thumbnailFileUrl":"https://filecdn.jinduolingchuang.com/music/resources/r_164020791766155264/thumbnail-7176.jpg","resourceFileUrl":"https://filecdn.jinduolingchuang.com/music/resources/r_164020791766155264/content.zip","resourceViewUrl":"https://filecdn.jinduolingchuang.com/music/resources/r_164020791766155264/content/index.html","published":false,"achieveFileUrl":"","extractFiles":[{"fileId":"166954466300395520","resourceId":"164020791766155264","title":"6-1","fileName":"6-1.ogv","fileExt":"ogv","fileUrl":"https://filecdn.jinduolingchuang.com/music/resources/r_164020791766155264/content/课时6 复习  视唱小星星/6-1.ogv","fileRelativeUrl":"课时6 复习  视唱小星星/6-1.ogv"},{"fileId":"166954466304589824","resourceId":"164020791766155264","title":"6-2","fileName":"6-2.ogv","fileExt":"ogv","fileUrl":"https://filecdn.jinduolingchuang.com/music/resources/r_164020791766155264/content/课时6 复习  视唱小星星/6-2.ogv","fileRelativeUrl":"课时6 复习  视唱小星星/6-2.ogv"},{"fileId":"166954466308784128","resourceId":"164020791766155264","title":"6-3","fileName":"6-3.ogv","fileExt":"ogv","fileUrl":"https://filecdn.jinduolingchuang.com/music/resources/r_164020791766155264/content/课时6 复习  视唱小星星/6-3.ogv","fileRelativeUrl":"课时6 复习  视唱小星星/6-3.ogv"},{"fileId":"166954466312978432","resourceId":"164020791766155264","title":"6-4","fileName":"6-4.ogv","fileExt":"ogv","fileUrl":"https://filecdn.jinduolingchuang.com/music/resources/r_164020791766155264/content/课时6 复习  视唱小星星/6-4.ogv","fileRelativeUrl":"课时6 复习  视唱小星星/6-4.ogv"}],"description":""},{"musicCategoryCodeArray":["topics","476e"],"resourceId":"164020891636727808","title":"课时07 休止符","publisherCode":"","publisherName":"","gradeCode":"","gradeName":"","mediaType":"course","mediaTypeName":"课程","source":"jinduo","sourceName":"发子","musicCategory":"topics,476e","musicCategoryNames":"主题课程,五线谱教学","resourceType":"composite","resourceTypeName":"主题资源","builtin":false,"needUnzip":true,"thumbnailFileUrl":"https://filecdn.jinduolingchuang.com/music/resources/r_164020891636727808/thumbnail-8135.jpg","resourceFileUrl":"https://filecdn.jinduolingchuang.com/music/resources/r_164020891636727808/content.zip","resourceViewUrl":"https://filecdn.jinduolingchuang.com/music/resources/r_164020891636727808/content/index.html","published":false,"achieveFileUrl":"","extractFiles":[{"fileId":"166954466614968320","resourceId":"164020891636727808","title":"7-1","fileName":"7-1.ogv","fileExt":"ogv","fileUrl":"https://filecdn.jinduolingchuang.com/music/resources/r_164020891636727808/content/课时7 休止符/7-1.ogv","fileRelativeUrl":"课时7 休止符/7-1.ogv"}],"description":""},{"musicCategoryCodeArray":["topics","476e"],"resourceId":"164020995315728384","title":"课时08 复习巩固","publisherCode":"","publisherName":"","gradeCode":"","gradeName":"","mediaType":"course","mediaTypeName":"课程","source":"jinduo","sourceName":"发子","musicCategory":"topics,476e","musicCategoryNames":"主题课程,五线谱教学","resourceType":"composite","resourceTypeName":"主题资源","builtin":false,"needUnzip":true,"thumbnailFileUrl":"https://filecdn.jinduolingchuang.com/music/resources/r_164020995315728384/thumbnail-2781.jpg","resourceFileUrl":"https://filecdn.jinduolingchuang.com/music/resources/r_164020995315728384/content-227.zip","resourceViewUrl":"https://filecdn.jinduolingchuang.com/music/resources/r_164020995315728384/content-227/index.html","published":false,"achieveFileUrl":"","extractFiles":[{"fileId":"177367451002994688","resourceId":"164020995315728384","title":"8-01","fileName":"8-01.ogv","fileExt":"ogv","fileUrl":"https://filecdn.jinduolingchuang.com/music/resources/r_164020995315728384/content-227/8-01.ogv","fileRelativeUrl":"8-01.ogv"},{"fileId":"177367451007188992","resourceId":"164020995315728384","title":"8-02","fileName":"8-02.ogv","fileExt":"ogv","fileUrl":"https://filecdn.jinduolingchuang.com/music/resources/r_164020995315728384/content-227/8-02.ogv","fileRelativeUrl":"8-02.ogv"},{"fileId":"177367451015577600","resourceId":"164020995315728384","title":"8-03","fileName":"8-03.ogv","fileExt":"ogv","fileUrl":"https://filecdn.jinduolingchuang.com/music/resources/r_164020995315728384/content-227/8-03.ogv","fileRelativeUrl":"8-03.ogv"},{"fileId":"177367451023966208","resourceId":"164020995315728384","title":"8-04","fileName":"8-04.ogv","fileExt":"ogv","fileUrl":"https://filecdn.jinduolingchuang.com/music/resources/r_164020995315728384/content-227/8-04.ogv","fileRelativeUrl":"8-04.ogv"},{"fileId":"177367451032354816","resourceId":"164020995315728384","title":"8-05","fileName":"8-05.ogv","fileExt":"ogv","fileUrl":"https://filecdn.jinduolingchuang.com/music/resources/r_164020995315728384/content-227/8-05.ogv","fileRelativeUrl":"8-05.ogv"},{"fileId":"177367451036549120","resourceId":"164020995315728384","title":"8-06","fileName":"8-06.ogv","fileExt":"ogv","fileUrl":"https://filecdn.jinduolingchuang.com/music/resources/r_164020995315728384/content-227/8-06.ogv","fileRelativeUrl":"8-06.ogv"},{"fileId":"177367451044937728","resourceId":"164020995315728384","title":"8-07","fileName":"8-07.ogv","fileExt":"ogv","fileUrl":"https://filecdn.jinduolingchuang.com/music/resources/r_164020995315728384/content-227/8-07.ogv","fileRelativeUrl":"8-07.ogv"},{"fileId":"177367451053326336","resourceId":"164020995315728384","title":"8-08","fileName":"8-08.ogv","fileExt":"ogv","fileUrl":"https://filecdn.jinduolingchuang.com/music/resources/r_164020995315728384/content-227/8-08.ogv","fileRelativeUrl":"8-08.ogv"},{"fileId":"177367451057520640","resourceId":"164020995315728384","title":"8-09","fileName":"8-09.ogv","fileExt":"ogv","fileUrl":"https://filecdn.jinduolingchuang.com/music/resources/r_164020995315728384/content-227/8-09.ogv","fileRelativeUrl":"8-09.ogv"},{"fileId":"177367451065909248","resourceId":"164020995315728384","title":"8-10","fileName":"8-10.ogv","fileExt":"ogv","fileUrl":"https://filecdn.jinduolingchuang.com/music/resources/r_164020995315728384/content-227/8-10.ogv","fileRelativeUrl":"8-10.ogv"},{"fileId":"177367451074297856","resourceId":"164020995315728384","title":"8-11","fileName":"8-11.ogv","fileExt":"ogv","fileUrl":"https://filecdn.jinduolingchuang.com/music/resources/r_164020995315728384/content-227/8-11.ogv","fileRelativeUrl":"8-11.ogv"},{"fileId":"177367451078492160","resourceId":"164020995315728384","title":"8-12","fileName":"8-12.ogv","fileExt":"ogv","fileUrl":"https://filecdn.jinduolingchuang.com/music/resources/r_164020995315728384/content-227/8-12.ogv","fileRelativeUrl":"8-12.ogv"},{"fileId":"177367451086880768","resourceId":"164020995315728384","title":"8-13","fileName":"8-13.ogv","fileExt":"ogv","fileUrl":"https://filecdn.jinduolingchuang.com/music/resources/r_164020995315728384/content-227/8-13.ogv","fileRelativeUrl":"8-13.ogv"},{"fileId":"177367451091075072","resourceId":"164020995315728384","title":"8-14","fileName":"8-14.ogv","fileExt":"ogv","fileUrl":"https://filecdn.jinduolingchuang.com/music/resources/r_164020995315728384/content-227/8-14.ogv","fileRelativeUrl":"8-14.ogv"},{"fileId":"177367451099463680","resourceId":"164020995315728384","title":"8-15","fileName":"8-15.ogv","fileExt":"ogv","fileUrl":"https://filecdn.jinduolingchuang.com/music/resources/r_164020995315728384/content-227/8-15.ogv","fileRelativeUrl":"8-15.ogv"}],"description":""}]}