{"pageNum":2,"retCode":"0000","message":"查询资源","timestamp":"1610704571979","page":1,"size":8,"count":8,"totalPages":5,"totalElements":"33","contents":[{"musicCategoryCodeArray":["topics","476e"],"resourceId":"164021066983800832","title":"课时09 低音谱号与大谱表","publisherCode":"","publisherName":"","gradeCode":"","gradeName":"","mediaType":"course","mediaTypeName":"课程","source":"jinduo","sourceName":"发子","musicCategory":"topics,476e","musicCategoryNames":"主题课程,五线谱教学","resourceType":"composite","resourceTypeName":"主题资源","builtin":false,"needUnzip":true,"thumbnailFileUrl":"https://filecdn.jinduolingchuang.com/music/resources/r_164021066983800832/thumbnail-205.jpg","resourceFileUrl":"https://filecdn.jinduolingchuang.com/music/resources/r_164021066983800832/content.zip","resourceViewUrl":"https://filecdn.jinduolingchuang.com/music/resources/r_164021066983800832/content/index.html","published":false,"achieveFileUrl":"","extractFiles":[{"fileId":"166954467470606336","resourceId":"164021066983800832","title":"9-1","fileName":"9-1.ogv","fileExt":"ogv","fileUrl":"https://filecdn.jinduolingchuang.com/music/resources/r_164021066983800832/content/课时9 低音谱号与大谱表/9-1.ogv","fileRelativeUrl":"课时9 低音谱号与大谱表/9-1.ogv"},{"fileId":"166954467474800640","resourceId":"164021066983800832","title":"9-2","fileName":"9-2.ogv","fileExt":"ogv","fileUrl":"https://filecdn.jinduolingchuang.com/music/resources/r_164021066983800832/content/课时9 低音谱号与大谱表/9-2.ogv","fileRelativeUrl":"课时9 低音谱号与大谱表/9-2.ogv"},{"fileId":"166954467478994944","resourceId":"164021066983800832","title":"9-3","fileName":"9-3.ogv","fileExt":"ogv","fileUrl":"https://filecdn.jinduolingchuang.com/music/resources/r_164021066983800832/content/课时9 低音谱号与大谱表/9-3.ogv","fileRelativeUrl":"课时9 低音谱号与大谱表/9-3.ogv"},{"fileId":"166954467483189248","resourceId":"164021066983800832","title":"9-4","fileName":"9-4.ogv","fileExt":"ogv","fileUrl":"https://filecdn.jinduolingchuang.com/music/resources/r_164021066983800832/content/课时9 低音谱号与大谱表/9-4.ogv","fileRelativeUrl":"课时9 低音谱号与大谱表/9-4.ogv"}],"description":""},{"musicCategoryCodeArray":["topics","476e"],"resourceId":"164021197099499520","title":"课时10 小字组XI与视唱练习","publisherCode":"","publisherName":"","gradeCode":"","gradeName":"","mediaType":"course","mediaTypeName":"课程","source":"jinduo","sourceName":"发子","musicCategory":"topics,476e","musicCategoryNames":"主题课程,五线谱教学","resourceType":"composite","resourceTypeName":"主题资源","builtin":false,"needUnzip":true,"thumbnailFileUrl":"https://filecdn.jinduolingchuang.com/music/resources/r_164021197099499520/thumbnail-4811.jpg","resourceFileUrl":"https://filecdn.jinduolingchuang.com/music/resources/r_164021197099499520/content.zip","resourceViewUrl":"https://filecdn.jinduolingchuang.com/music/resources/r_164021197099499520/content/index.html","published":false,"achieveFileUrl":"","extractFiles":[{"fileId":"166954467952951296","resourceId":"164021197099499520","title":"10-1","fileName":"10-1.ogv","fileExt":"ogv","fileUrl":"https://filecdn.jinduolingchuang.com/music/resources/r_164021197099499520/content/小字组SI与视唱练习/10-1.ogv","fileRelativeUrl":"小字组SI与视唱练习/10-1.ogv"},{"fileId":"166954467957145600","resourceId":"164021197099499520","title":"10-2","fileName":"10-2.ogv","fileExt":"ogv","fileUrl":"https://filecdn.jinduolingchuang.com/music/resources/r_164021197099499520/content/小字组SI与视唱练习/10-2.ogv","fileRelativeUrl":"小字组SI与视唱练习/10-2.ogv"},{"fileId":"166954467965534208","resourceId":"164021197099499520","title":"10-3","fileName":"10-3.ogv","fileExt":"ogv","fileUrl":"https://filecdn.jinduolingchuang.com/music/resources/r_164021197099499520/content/小字组SI与视唱练习/10-3.ogv","fileRelativeUrl":"小字组SI与视唱练习/10-3.ogv"}],"description":""},{"musicCategoryCodeArray":["topics","476e"],"resourceId":"164021279546933248","title":"课时11 小字组LA与视唱练习","publisherCode":"","publisherName":"","gradeCode":"","gradeName":"","mediaType":"course","mediaTypeName":"课程","source":"jinduo","sourceName":"发子","musicCategory":"topics,476e","musicCategoryNames":"主题课程,五线谱教学","resourceType":"composite","resourceTypeName":"主题资源","builtin":false,"needUnzip":true,"thumbnailFileUrl":"https://filecdn.jinduolingchuang.com/music/resources/r_164021279546933248/thumbnail-3437.jpg","resourceFileUrl":"https://filecdn.jinduolingchuang.com/music/resources/r_164021279546933248/content-82.zip","resourceViewUrl":"https://filecdn.jinduolingchuang.com/music/resources/r_164021279546933248/content-82/index.html","published":false,"achieveFileUrl":"","extractFiles":[{"fileId":"173000202267918336","resourceId":"164021279546933248","title":"11-1","fileName":"11-1.ogv","fileExt":"ogv","fileUrl":"https://filecdn.jinduolingchuang.com/music/resources/r_164021279546933248/content-82/11-1.ogv","fileRelativeUrl":"11-1.ogv"},{"fileId":"173000202272112640","resourceId":"164021279546933248","title":"11-2","fileName":"11-2.ogv","fileExt":"ogv","fileUrl":"https://filecdn.jinduolingchuang.com/music/resources/r_164021279546933248/content-82/11-2.ogv","fileRelativeUrl":"11-2.ogv"},{"fileId":"173000202276306944","resourceId":"164021279546933248","title":"11-3","fileName":"11-3.ogv","fileExt":"ogv","fileUrl":"https://filecdn.jinduolingchuang.com/music/resources/r_164021279546933248/content-82/11-3.ogv","fileRelativeUrl":"11-3.ogv"},{"fileId":"173000202280501248","resourceId":"164021279546933248","title":"11-4","fileName":"11-4.ogv","fileExt":"ogv","fileUrl":"https://filecdn.jinduolingchuang.com/music/resources/r_164021279546933248/content-82/11-4.ogv","fileRelativeUrl":"11-4.ogv"},{"fileId":"173000202280501249","resourceId":"164021279546933248","title":"11-5","fileName":"11-5.ogv","fileExt":"ogv","fileUrl":"https://filecdn.jinduolingchuang.com/music/resources/r_164021279546933248/content-82/11-5.ogv","fileRelativeUrl":"11-5.ogv"},{"fileId":"173000202284695552","resourceId":"164021279546933248","title":"11-6","fileName":"11-6.ogv","fileExt":"ogv","fileUrl":"https://filecdn.jinduolingchuang.com/music/resources/r_164021279546933248/content-82/11-6.ogv","fileRelativeUrl":"11-6.ogv"},{"fileId":"173000202288889856","resourceId":"164021279546933248","title":"11-7","fileName":"11-7.ogv","fileExt":"ogv","fileUrl":"https://filecdn.jinduolingchuang.com/music/resources/r_164021279546933248/content-82/11-7.ogv","fileRelativeUrl":"11-7.ogv"}],"description":""},{"musicCategoryCodeArray":["topics","476e"],"resourceId":"164021360253730816","title":"课时12 小字组SO与视唱练习","publisherCode":"","publisherName":"","gradeCode":"","gradeName":"","mediaType":"course","mediaTypeName":"课程","source":"jinduo","sourceName":"发子","musicCategory":"topics,476e","musicCategoryNames":"主题课程,五线谱教学","resourceType":"composite","resourceTypeName":"主题资源","builtin":false,"needUnzip":true,"thumbnailFileUrl":"https://filecdn.jinduolingchuang.com/music/resources/r_164021360253730816/thumbnail-9185.jpg","resourceFileUrl":"https://filecdn.jinduolingchuang.com/music/resources/r_164021360253730816/content-825.zip","resourceViewUrl":"https://filecdn.jinduolingchuang.com/music/resources/r_164021360253730816/content-825/index.html","published":false,"achieveFileUrl":"","extractFiles":[{"fileId":"172666480591110144","resourceId":"164021360253730816","title":"12-1","fileName":"12-1.ogv","fileExt":"ogv","fileUrl":"https://filecdn.jinduolingchuang.com/music/resources/r_164021360253730816/content-825/12-1.ogv","fileRelativeUrl":"12-1.ogv"},{"fileId":"172666480595304448","resourceId":"164021360253730816","title":"12-2","fileName":"12-2.ogv","fileExt":"ogv","fileUrl":"https://filecdn.jinduolingchuang.com/music/resources/r_164021360253730816/content-825/12-2.ogv","fileRelativeUrl":"12-2.ogv"},{"fileId":"172666480599498752","resourceId":"164021360253730816","title":"12-3","fileName":"12-3.ogv","fileExt":"ogv","fileUrl":"https://filecdn.jinduolingchuang.com/music/resources/r_164021360253730816/content-825/12-3.ogv","fileRelativeUrl":"12-3.ogv"},{"fileId":"172666480603693056","resourceId":"164021360253730816","title":"12-4","fileName":"12-4.ogv","fileExt":"ogv","fileUrl":"https://filecdn.jinduolingchuang.com/music/resources/r_164021360253730816/content-825/12-4.ogv","fileRelativeUrl":"12-4.ogv"},{"fileId":"172666480603693057","resourceId":"164021360253730816","title":"12-5","fileName":"12-5.ogv","fileExt":"ogv","fileUrl":"https://filecdn.jinduolingchuang.com/music/resources/r_164021360253730816/content-825/12-5.ogv","fileRelativeUrl":"12-5.ogv"},{"fileId":"172666480607887360","resourceId":"164021360253730816","title":"12-6","fileName":"12-6.ogv","fileExt":"ogv","fileUrl":"https://filecdn.jinduolingchuang.com/music/resources/r_164021360253730816/content-825/12-6.ogv","fileRelativeUrl":"12-6.ogv"},{"fileId":"172666480612081664","resourceId":"164021360253730816","title":"12-7","fileName":"12-7.ogv","fileExt":"ogv","fileUrl":"https://filecdn.jinduolingchuang.com/music/resources/r_164021360253730816/content-825/12-7.ogv","fileRelativeUrl":"12-7.ogv"}],"description":""},{"musicCategoryCodeArray":["topics","476e"],"resourceId":"164021417942188032","title":"课时13 小字组FA与视唱练习","publisherCode":"","publisherName":"","gradeCode":"","gradeName":"","mediaType":"course","mediaTypeName":"课程","source":"jinduo","sourceName":"发子","musicCategory":"topics,476e","musicCategoryNames":"主题课程,五线谱教学","resourceType":"composite","resourceTypeName":"主题资源","builtin":false,"needUnzip":true,"thumbnailFileUrl":"https://filecdn.jinduolingchuang.com/music/resources/r_164021417942188032/thumbnail-9358.jpg","resourceFileUrl":"https://filecdn.jinduolingchuang.com/music/resources/r_164021417942188032/content-364.zip","resourceViewUrl":"https://filecdn.jinduolingchuang.com/music/resources/r_164021417942188032/content-364/index.html","published":false,"achieveFileUrl":"","extractFiles":[{"fileId":"172667692061294592","resourceId":"164021417942188032","title":"13-1","fileName":"13-1.ogv","fileExt":"ogv","fileUrl":"https://filecdn.jinduolingchuang.com/music/resources/r_164021417942188032/content-364/13-1.ogv","fileRelativeUrl":"13-1.ogv"},{"fileId":"172667692061294593","resourceId":"164021417942188032","title":"13-2","fileName":"13-2.ogv","fileExt":"ogv","fileUrl":"https://filecdn.jinduolingchuang.com/music/resources/r_164021417942188032/content-364/13-2.ogv","fileRelativeUrl":"13-2.ogv"},{"fileId":"172667692065488896","resourceId":"164021417942188032","title":"13-3","fileName":"13-3.ogv","fileExt":"ogv","fileUrl":"https://filecdn.jinduolingchuang.com/music/resources/r_164021417942188032/content-364/13-3.ogv","fileRelativeUrl":"13-3.ogv"},{"fileId":"172667692069683200","resourceId":"164021417942188032","title":"13-4","fileName":"13-4.ogv","fileExt":"ogv","fileUrl":"https://filecdn.jinduolingchuang.com/music/resources/r_164021417942188032/content-364/13-4.ogv","fileRelativeUrl":"13-4.ogv"}],"description":""},{"musicCategoryCodeArray":["topics","476e"],"resourceId":"164021586083446784","title":"课时14 连音线与视唱练习","publisherCode":"","publisherName":"","gradeCode":"","gradeName":"","mediaType":"course","mediaTypeName":"课程","source":"jinduo","sourceName":"发子","musicCategory":"topics,476e","musicCategoryNames":"主题课程,五线谱教学","resourceType":"composite","resourceTypeName":"主题资源","builtin":false,"needUnzip":true,"thumbnailFileUrl":"https://filecdn.jinduolingchuang.com/music/resources/r_164021586083446784/thumbnail-7281.jpg","resourceFileUrl":"https://filecdn.jinduolingchuang.com/music/resources/r_164021586083446784/content.zip","resourceViewUrl":"https://filecdn.jinduolingchuang.com/music/resources/r_164021586083446784/content/index.html","published":false,"achieveFileUrl":"","extractFiles":[{"fileId":"166954470851215360","resourceId":"164021586083446784","title":"14-1","fileName":"14-1.ogv","fileExt":"ogv","fileUrl":"https://filecdn.jinduolingchuang.com/music/resources/r_164021586083446784/content/课时14 连音线与视唱练习/14-1.ogv","fileRelativeUrl":"课时14 连音线与视唱练习/14-1.ogv"},{"fileId":"166954470855409664","resourceId":"164021586083446784","title":"14-2","fileName":"14-2.ogv","fileExt":"ogv","fileUrl":"https://filecdn.jinduolingchuang.com/music/resources/r_164021586083446784/content/课时14 连音线与视唱练习/14-2.ogv","fileRelativeUrl":"课时14 连音线与视唱练习/14-2.ogv"},{"fileId":"166954470859603968","resourceId":"164021586083446784","title":"14-3","fileName":"14-3.ogv","fileExt":"ogv","fileUrl":"https://filecdn.jinduolingchuang.com/music/resources/r_164021586083446784/content/课时14 连音线与视唱练习/14-3.ogv","fileRelativeUrl":"课时14 连音线与视唱练习/14-3.ogv"},{"fileId":"166954470863798272","resourceId":"164021586083446784","title":"14-4","fileName":"14-4.ogv","fileExt":"ogv","fileUrl":"https://filecdn.jinduolingchuang.com/music/resources/r_164021586083446784/content/课时14 连音线与视唱练习/14-4.ogv","fileRelativeUrl":"课时14 连音线与视唱练习/14-4.ogv"},{"fileId":"166954470867992576","resourceId":"164021586083446784","title":"14-5","fileName":"14-5.ogv","fileExt":"ogv","fileUrl":"https://filecdn.jinduolingchuang.com/music/resources/r_164021586083446784/content/课时14 连音线与视唱练习/14-5.ogv","fileRelativeUrl":"课时14 连音线与视唱练习/14-5.ogv"}],"description":""},{"musicCategoryCodeArray":["topics","476e"],"resourceId":"164021692425830400","title":"课时15 呼吸、重音记号与视唱练耳","publisherCode":"","publisherName":"","gradeCode":"","gradeName":"","mediaType":"course","mediaTypeName":"课程","source":"jinduo","sourceName":"发子","musicCategory":"topics,476e","musicCategoryNames":"主题课程,五线谱教学","resourceType":"composite","resourceTypeName":"主题资源","builtin":false,"needUnzip":true,"thumbnailFileUrl":"https://filecdn.jinduolingchuang.com/music/resources/r_164021692425830400/thumbnail-2466.jpg","resourceFileUrl":"https://filecdn.jinduolingchuang.com/music/resources/r_164021692425830400/content.zip","resourceViewUrl":"https://filecdn.jinduolingchuang.com/music/resources/r_164021692425830400/content/index.html","published":false,"achieveFileUrl":"","extractFiles":[{"fileId":"166954471375503360","resourceId":"164021692425830400","title":"15-1","fileName":"15-1.ogv","fileExt":"ogv","fileUrl":"https://filecdn.jinduolingchuang.com/music/resources/r_164021692425830400/content/课时15 呼吸、重音记号与视唱练耳/15-1.ogv","fileRelativeUrl":"课时15 呼吸、重音记号与视唱练耳/15-1.ogv"},{"fileId":"166954471383891968","resourceId":"164021692425830400","title":"15-2","fileName":"15-2.ogv","fileExt":"ogv","fileUrl":"https://filecdn.jinduolingchuang.com/music/resources/r_164021692425830400/content/课时15 呼吸、重音记号与视唱练耳/15-2.ogv","fileRelativeUrl":"课时15 呼吸、重音记号与视唱练耳/15-2.ogv"},{"fileId":"166954471388086272","resourceId":"164021692425830400","title":"15-3","fileName":"15-3.ogv","fileExt":"ogv","fileUrl":"https://filecdn.jinduolingchuang.com/music/resources/r_164021692425830400/content/课时15 呼吸、重音记号与视唱练耳/15-3.ogv","fileRelativeUrl":"课时15 呼吸、重音记号与视唱练耳/15-3.ogv"},{"fileId":"166954471396474880","resourceId":"164021692425830400","title":"15-4","fileName":"15-4.ogv","fileExt":"ogv","fileUrl":"https://filecdn.jinduolingchuang.com/music/resources/r_164021692425830400/content/课时15 呼吸、重音记号与视唱练耳/15-4.ogv","fileRelativeUrl":"课时15 呼吸、重音记号与视唱练耳/15-4.ogv"},{"fileId":"166954471400669184","resourceId":"164021692425830400","title":"15-5","fileName":"15-5.ogv","fileExt":"ogv","fileUrl":"https://filecdn.jinduolingchuang.com/music/resources/r_164021692425830400/content/课时15 呼吸、重音记号与视唱练耳/15-5.ogv","fileRelativeUrl":"课时15 呼吸、重音记号与视唱练耳/15-5.ogv"},{"fileId":"166954471409057792","resourceId":"164021692425830400","title":"15-6","fileName":"15-6.ogv","fileExt":"ogv","fileUrl":"https://filecdn.jinduolingchuang.com/music/resources/r_164021692425830400/content/课时15 呼吸、重音记号与视唱练耳/15-6.ogv","fileRelativeUrl":"课时15 呼吸、重音记号与视唱练耳/15-6.ogv"}],"description":""},{"musicCategoryCodeArray":["topics","476e"],"resourceId":"164021780367802368","title":"课时16 四三拍与读谱练习","publisherCode":"","publisherName":"","gradeCode":"","gradeName":"","mediaType":"course","mediaTypeName":"课程","source":"jinduo","sourceName":"发子","musicCategory":"topics,476e","musicCategoryNames":"主题课程,五线谱教学","resourceType":"composite","resourceTypeName":"主题资源","builtin":false,"needUnzip":true,"thumbnailFileUrl":"https://filecdn.jinduolingchuang.com/music/resources/r_164021780367802368/thumbnail-2972.jpg","resourceFileUrl":"https://filecdn.jinduolingchuang.com/music/resources/r_164021780367802368/content.zip","resourceViewUrl":"https://filecdn.jinduolingchuang.com/music/resources/r_164021780367802368/content/index.html","published":false,"achieveFileUrl":"","extractFiles":[{"fileId":"166954471920762880","resourceId":"164021780367802368","title":"16-1","fileName":"16-1.ogv","fileExt":"ogv","fileUrl":"https://filecdn.jinduolingchuang.com/music/resources/r_164021780367802368/content/课时16 四三拍与读谱练习/16-1.ogv","fileRelativeUrl":"课时16 四三拍与读谱练习/16-1.ogv"},{"fileId":"166954471929151488","resourceId":"164021780367802368","title":"16-2","fileName":"16-2.ogv","fileExt":"ogv","fileUrl":"https://filecdn.jinduolingchuang.com/music/resources/r_164021780367802368/content/课时16 四三拍与读谱练习/16-2.ogv","fileRelativeUrl":"课时16 四三拍与读谱练习/16-2.ogv"},{"fileId":"166954471937540096","resourceId":"164021780367802368","title":"16-3","fileName":"16-3.ogv","fileExt":"ogv","fileUrl":"https://filecdn.jinduolingchuang.com/music/resources/r_164021780367802368/content/课时16 四三拍与读谱练习/16-3.ogv","fileRelativeUrl":"课时16 四三拍与读谱练习/16-3.ogv"}],"description":""}]}