{"pageNum":3,"retCode":"0000","message":"查询资源","timestamp":"1610704599207","page":2,"size":8,"count":8,"totalPages":5,"totalElements":"33","contents":[{"musicCategoryCodeArray":["topics","476e"],"resourceId":"164021865830940672","title":"课时17 二分附点音符与视唱练习","publisherCode":"","publisherName":"","gradeCode":"","gradeName":"","mediaType":"course","mediaTypeName":"课程","source":"jinduo","sourceName":"发子","musicCategory":"topics,476e","musicCategoryNames":"主题课程,五线谱教学","resourceType":"composite","resourceTypeName":"主题资源","builtin":false,"needUnzip":true,"thumbnailFileUrl":"https://filecdn.jinduolingchuang.com/music/resources/r_164021865830940672/thumbnail-3772.jpg","resourceFileUrl":"https://filecdn.jinduolingchuang.com/music/resources/r_164021865830940672/content.zip","resourceViewUrl":"https://filecdn.jinduolingchuang.com/music/resources/r_164021865830940672/content/index.html","published":false,"achieveFileUrl":"","extractFiles":[{"fileId":"166954472482799616","resourceId":"164021865830940672","title":"17-1","fileName":"17-1.ogv","fileExt":"ogv","fileUrl":"https://filecdn.jinduolingchuang.com/music/resources/r_164021865830940672/content/课时17 二分附点音符与视唱练习/17-1.ogv","fileRelativeUrl":"课时17 二分附点音符与视唱练习/17-1.ogv"},{"fileId":"166954472491188224","resourceId":"164021865830940672","title":"17-2","fileName":"17-2.ogv","fileExt":"ogv","fileUrl":"https://filecdn.jinduolingchuang.com/music/resources/r_164021865830940672/content/课时17 二分附点音符与视唱练习/17-2.ogv","fileRelativeUrl":"课时17 二分附点音符与视唱练习/17-2.ogv"},{"fileId":"166954472495382528","resourceId":"164021865830940672","title":"17-3","fileName":"17-3.ogv","fileExt":"ogv","fileUrl":"https://filecdn.jinduolingchuang.com/music/resources/r_164021865830940672/content/课时17 二分附点音符与视唱练习/17-3.ogv","fileRelativeUrl":"课时17 二分附点音符与视唱练习/17-3.ogv"},{"fileId":"166954472499576832","resourceId":"164021865830940672","title":"17-4","fileName":"17-4.ogv","fileExt":"ogv","fileUrl":"https://filecdn.jinduolingchuang.com/music/resources/r_164021865830940672/content/课时17 二分附点音符与视唱练习/17-4.ogv","fileRelativeUrl":"课时17 二分附点音符与视唱练习/17-4.ogv"},{"fileId":"166954472503771136","resourceId":"164021865830940672","title":"17-5","fileName":"17-5.ogv","fileExt":"ogv","fileUrl":"https://filecdn.jinduolingchuang.com/music/resources/r_164021865830940672/content/课时17 二分附点音符与视唱练习/17-5.ogv","fileRelativeUrl":"课时17 二分附点音符与视唱练习/17-5.ogv"},{"fileId":"166954472512159744","resourceId":"164021865830940672","title":"17-6","fileName":"17-6.ogv","fileExt":"ogv","fileUrl":"https://filecdn.jinduolingchuang.com/music/resources/r_164021865830940672/content/课时17 二分附点音符与视唱练习/17-6.ogv","fileRelativeUrl":"课时17 二分附点音符与视唱练习/17-6.ogv"},{"fileId":"166954472516354048","resourceId":"164021865830940672","title":"17-7","fileName":"17-7.ogv","fileExt":"ogv","fileUrl":"https://filecdn.jinduolingchuang.com/music/resources/r_164021865830940672/content/课时17 二分附点音符与视唱练习/17-7.ogv","fileRelativeUrl":"课时17 二分附点音符与视唱练习/17-7.ogv"}],"description":""},{"musicCategoryCodeArray":["topics","476e"],"resourceId":"164021957551980544","title":"课时18 反复记号与视唱练习","publisherCode":"","publisherName":"","gradeCode":"","gradeName":"","mediaType":"course","mediaTypeName":"课程","source":"jinduo","sourceName":"发子","musicCategory":"topics,476e","musicCategoryNames":"主题课程,五线谱教学","resourceType":"composite","resourceTypeName":"主题资源","builtin":false,"needUnzip":true,"thumbnailFileUrl":"https://filecdn.jinduolingchuang.com/music/resources/r_164021957551980544/thumbnail-5551.jpg","resourceFileUrl":"https://filecdn.jinduolingchuang.com/music/resources/r_164021957551980544/content.zip","resourceViewUrl":"https://filecdn.jinduolingchuang.com/music/resources/r_164021957551980544/content/index.html","published":false,"achieveFileUrl":"","extractFiles":[{"fileId":"166954473040642048","resourceId":"164021957551980544","title":"18-1","fileName":"18-1.ogv","fileExt":"ogv","fileUrl":"https://filecdn.jinduolingchuang.com/music/resources/r_164021957551980544/content/课时18 反复记号与视唱练习/18-1.ogv","fileRelativeUrl":"课时18 反复记号与视唱练习/18-1.ogv"},{"fileId":"166954473044836352","resourceId":"164021957551980544","title":"18-2","fileName":"18-2.ogv","fileExt":"ogv","fileUrl":"https://filecdn.jinduolingchuang.com/music/resources/r_164021957551980544/content/课时18 反复记号与视唱练习/18-2.ogv","fileRelativeUrl":"课时18 反复记号与视唱练习/18-2.ogv"},{"fileId":"166954473049030656","resourceId":"164021957551980544","title":"18-3","fileName":"18-3.ogv","fileExt":"ogv","fileUrl":"https://filecdn.jinduolingchuang.com/music/resources/r_164021957551980544/content/课时18 反复记号与视唱练习/18-3.ogv","fileRelativeUrl":"课时18 反复记号与视唱练习/18-3.ogv"},{"fileId":"166954473053224960","resourceId":"164021957551980544","title":"18-4","fileName":"18-4.ogv","fileExt":"ogv","fileUrl":"https://filecdn.jinduolingchuang.com/music/resources/r_164021957551980544/content/课时18 反复记号与视唱练习/18-4.ogv","fileRelativeUrl":"课时18 反复记号与视唱练习/18-4.ogv"},{"fileId":"166954473057419264","resourceId":"164021957551980544","title":"18-5","fileName":"18-5.ogv","fileExt":"ogv","fileUrl":"https://filecdn.jinduolingchuang.com/music/resources/r_164021957551980544/content/课时18 反复记号与视唱练习/18-5.ogv","fileRelativeUrl":"课时18 反复记号与视唱练习/18-5.ogv"},{"fileId":"166954473061613568","resourceId":"164021957551980544","title":"18-6","fileName":"18-6.ogv","fileExt":"ogv","fileUrl":"https://filecdn.jinduolingchuang.com/music/resources/r_164021957551980544/content/课时18 反复记号与视唱练习/18-6.ogv","fileRelativeUrl":"课时18 反复记号与视唱练习/18-6.ogv"},{"fileId":"166954473065807872","resourceId":"164021957551980544","title":"18-7","fileName":"18-7.ogv","fileExt":"ogv","fileUrl":"https://filecdn.jinduolingchuang.com/music/resources/r_164021957551980544/content/课时18 反复记号与视唱练习/18-7.ogv","fileRelativeUrl":"课时18 反复记号与视唱练习/18-7.ogv"},{"fileId":"166954473065807873","resourceId":"164021957551980544","title":"18-8","fileName":"18-8.ogv","fileExt":"ogv","fileUrl":"https://filecdn.jinduolingchuang.com/music/resources/r_164021957551980544/content/课时18 反复记号与视唱练习/18-8.ogv","fileRelativeUrl":"课时18 反复记号与视唱练习/18-8.ogv"}],"description":""},{"musicCategoryCodeArray":["topics","476e"],"resourceId":"164022054700449792","title":"课时19 小字一组XI与视唱练习","publisherCode":"","publisherName":"","gradeCode":"","gradeName":"","mediaType":"course","mediaTypeName":"课程","source":"jinduo","sourceName":"发子","musicCategory":"topics,476e","musicCategoryNames":"主题课程,五线谱教学","resourceType":"composite","resourceTypeName":"主题资源","builtin":false,"needUnzip":true,"thumbnailFileUrl":"https://filecdn.jinduolingchuang.com/music/resources/r_164022054700449792/thumbnail-9370.jpg","resourceFileUrl":"https://filecdn.jinduolingchuang.com/music/resources/r_164022054700449792/content.zip","resourceViewUrl":"https://filecdn.jinduolingchuang.com/music/resources/r_164022054700449792/content/index.html","published":false,"achieveFileUrl":"","extractFiles":[{"fileId":"166954473598484480","resourceId":"164022054700449792","title":"19-1","fileName":"19-1.ogv","fileExt":"ogv","fileUrl":"https://filecdn.jinduolingchuang.com/music/resources/r_164022054700449792/content/课时19 小字一组XI与视唱练习/19-1.ogv","fileRelativeUrl":"课时19 小字一组XI与视唱练习/19-1.ogv"},{"fileId":"166954473602678784","resourceId":"164022054700449792","title":"19-2","fileName":"19-2.ogv","fileExt":"ogv","fileUrl":"https://filecdn.jinduolingchuang.com/music/resources/r_164022054700449792/content/课时19 小字一组XI与视唱练习/19-2.ogv","fileRelativeUrl":"课时19 小字一组XI与视唱练习/19-2.ogv"},{"fileId":"166954473606873088","resourceId":"164022054700449792","title":"19-3","fileName":"19-3.ogv","fileExt":"ogv","fileUrl":"https://filecdn.jinduolingchuang.com/music/resources/r_164022054700449792/content/课时19 小字一组XI与视唱练习/19-3.ogv","fileRelativeUrl":"课时19 小字一组XI与视唱练习/19-3.ogv"},{"fileId":"166954473611067392","resourceId":"164022054700449792","title":"19-4","fileName":"19-4.ogv","fileExt":"ogv","fileUrl":"https://filecdn.jinduolingchuang.com/music/resources/r_164022054700449792/content/课时19 小字一组XI与视唱练习/19-4.ogv","fileRelativeUrl":"课时19 小字一组XI与视唱练习/19-4.ogv"},{"fileId":"166954473615261696","resourceId":"164022054700449792","title":"19-5","fileName":"19-5.ogv","fileExt":"ogv","fileUrl":"https://filecdn.jinduolingchuang.com/music/resources/r_164022054700449792/content/课时19 小字一组XI与视唱练习/19-5.ogv","fileRelativeUrl":"课时19 小字一组XI与视唱练习/19-5.ogv"},{"fileId":"166954473619456000","resourceId":"164022054700449792","title":"19-6","fileName":"19-6.ogv","fileExt":"ogv","fileUrl":"https://filecdn.jinduolingchuang.com/music/resources/r_164022054700449792/content/课时19 小字一组XI与视唱练习/19-6.ogv","fileRelativeUrl":"课时19 小字一组XI与视唱练习/19-6.ogv"},{"fileId":"166954473623650304","resourceId":"164022054700449792","title":"19-7","fileName":"19-7.ogv","fileExt":"ogv","fileUrl":"https://filecdn.jinduolingchuang.com/music/resources/r_164022054700449792/content/课时19 小字一组XI与视唱练习/19-7.ogv","fileRelativeUrl":"课时19 小字一组XI与视唱练习/19-7.ogv"}],"description":""},{"musicCategoryCodeArray":["topics","476e"],"resourceId":"164022644105019392","title":"课时20 小字组MI、RE、DO与视唱练习","publisherCode":"","publisherName":"","gradeCode":"","gradeName":"","mediaType":"course","mediaTypeName":"课程","source":"jinduo","sourceName":"发子","musicCategory":"topics,476e","musicCategoryNames":"主题课程,五线谱教学","resourceType":"composite","resourceTypeName":"主题资源","builtin":false,"needUnzip":true,"thumbnailFileUrl":"https://filecdn.jinduolingchuang.com/music/resources/r_164022644105019392/thumbnail-6329.jpg","resourceFileUrl":"https://filecdn.jinduolingchuang.com/music/resources/r_164022644105019392/content.zip","resourceViewUrl":"https://filecdn.jinduolingchuang.com/music/resources/r_164022644105019392/content/index.html","published":false,"achieveFileUrl":"","extractFiles":[{"fileId":"166954474126966784","resourceId":"164022644105019392","title":"20-1","fileName":"20-1.ogv","fileExt":"ogv","fileUrl":"https://filecdn.jinduolingchuang.com/music/resources/r_164022644105019392/content/课时20 小字组MI、RE、DO与视唱练习/20-1.ogv","fileRelativeUrl":"课时20 小字组MI、RE、DO与视唱练习/20-1.ogv"},{"fileId":"166954474131161088","resourceId":"164022644105019392","title":"20-2","fileName":"20-2.ogv","fileExt":"ogv","fileUrl":"https://filecdn.jinduolingchuang.com/music/resources/r_164022644105019392/content/课时20 小字组MI、RE、DO与视唱练习/20-2.ogv","fileRelativeUrl":"课时20 小字组MI、RE、DO与视唱练习/20-2.ogv"},{"fileId":"166954474135355392","resourceId":"164022644105019392","title":"20-3","fileName":"20-3.ogv","fileExt":"ogv","fileUrl":"https://filecdn.jinduolingchuang.com/music/resources/r_164022644105019392/content/课时20 小字组MI、RE、DO与视唱练习/20-3.ogv","fileRelativeUrl":"课时20 小字组MI、RE、DO与视唱练习/20-3.ogv"},{"fileId":"166954474139549696","resourceId":"164022644105019392","title":"20-4","fileName":"20-4.ogv","fileExt":"ogv","fileUrl":"https://filecdn.jinduolingchuang.com/music/resources/r_164022644105019392/content/课时20 小字组MI、RE、DO与视唱练习/20-4.ogv","fileRelativeUrl":"课时20 小字组MI、RE、DO与视唱练习/20-4.ogv"},{"fileId":"166954474143744000","resourceId":"164022644105019392","title":"20-5","fileName":"20-5.ogv","fileExt":"ogv","fileUrl":"https://filecdn.jinduolingchuang.com/music/resources/r_164022644105019392/content/课时20 小字组MI、RE、DO与视唱练习/20-5.ogv","fileRelativeUrl":"课时20 小字组MI、RE、DO与视唱练习/20-5.ogv"},{"fileId":"166954474147938304","resourceId":"164022644105019392","title":"20-6","fileName":"20-6.ogv","fileExt":"ogv","fileUrl":"https://filecdn.jinduolingchuang.com/music/resources/r_164022644105019392/content/课时20 小字组MI、RE、DO与视唱练习/20-6.ogv","fileRelativeUrl":"课时20 小字组MI、RE、DO与视唱练习/20-6.ogv"}],"description":""},{"musicCategoryCodeArray":["topics","476e"],"resourceId":"164022744168529920","title":"课时21 八分音符与视唱练习","publisherCode":"","publisherName":"","gradeCode":"","gradeName":"","mediaType":"course","mediaTypeName":"课程","source":"jinduo","sourceName":"发子","musicCategory":"topics,476e","musicCategoryNames":"主题课程,五线谱教学","resourceType":"composite","resourceTypeName":"主题资源","builtin":false,"needUnzip":true,"thumbnailFileUrl":"https://filecdn.jinduolingchuang.com/music/resources/r_164022744168529920/thumbnail-8697.jpg","resourceFileUrl":"https://filecdn.jinduolingchuang.com/music/resources/r_164022744168529920/content.zip","resourceViewUrl":"https://filecdn.jinduolingchuang.com/music/resources/r_164022744168529920/content/index.html","published":false,"achieveFileUrl":"","extractFiles":[{"fileId":"166954474634477568","resourceId":"164022744168529920","title":"21-1","fileName":"21-1.ogv","fileExt":"ogv","fileUrl":"https://filecdn.jinduolingchuang.com/music/resources/r_164022744168529920/content/课时21 八分音符与视唱练习/21-1.ogv","fileRelativeUrl":"课时21 八分音符与视唱练习/21-1.ogv"},{"fileId":"166954474638671872","resourceId":"164022744168529920","title":"21-2","fileName":"21-2.ogv","fileExt":"ogv","fileUrl":"https://filecdn.jinduolingchuang.com/music/resources/r_164022744168529920/content/课时21 八分音符与视唱练习/21-2.ogv","fileRelativeUrl":"课时21 八分音符与视唱练习/21-2.ogv"},{"fileId":"166954474642866176","resourceId":"164022744168529920","title":"21-3","fileName":"21-3.ogv","fileExt":"ogv","fileUrl":"https://filecdn.jinduolingchuang.com/music/resources/r_164022744168529920/content/课时21 八分音符与视唱练习/21-3.ogv","fileRelativeUrl":"课时21 八分音符与视唱练习/21-3.ogv"},{"fileId":"166954474642866177","resourceId":"164022744168529920","title":"21-4","fileName":"21-4.ogv","fileExt":"ogv","fileUrl":"https://filecdn.jinduolingchuang.com/music/resources/r_164022744168529920/content/课时21 八分音符与视唱练习/21-4.ogv","fileRelativeUrl":"课时21 八分音符与视唱练习/21-4.ogv"},{"fileId":"166954474647060480","resourceId":"164022744168529920","title":"21-5","fileName":"21-5.ogv","fileExt":"ogv","fileUrl":"https://filecdn.jinduolingchuang.com/music/resources/r_164022744168529920/content/课时21 八分音符与视唱练习/21-5.ogv","fileRelativeUrl":"课时21 八分音符与视唱练习/21-5.ogv"}],"description":""},{"musicCategoryCodeArray":["topics","476e"],"resourceId":"164022854910738432","title":"课时22 小字一组re与视唱练耳","publisherCode":"","publisherName":"","gradeCode":"","gradeName":"","mediaType":"course","mediaTypeName":"课程","source":"jinduo","sourceName":"发子","musicCategory":"topics,476e","musicCategoryNames":"主题课程,五线谱教学","resourceType":"composite","resourceTypeName":"主题资源","builtin":false,"needUnzip":true,"thumbnailFileUrl":"https://filecdn.jinduolingchuang.com/music/resources/r_164022854910738432/thumbnail-5369.jpg","resourceFileUrl":"https://filecdn.jinduolingchuang.com/music/resources/r_164022854910738432/content.zip","resourceViewUrl":"https://filecdn.jinduolingchuang.com/music/resources/r_164022854910738432/content/index.html","published":false,"achieveFileUrl":"","extractFiles":[{"fileId":"166954476521914368","resourceId":"164022854910738432","title":"22-1","fileName":"22-1.ogv","fileExt":"ogv","fileUrl":"https://filecdn.jinduolingchuang.com/music/resources/r_164022854910738432/content/课时22 小字一组re与视唱练耳/22-1.ogv","fileRelativeUrl":"课时22 小字一组re与视唱练耳/22-1.ogv"},{"fileId":"166954476526108672","resourceId":"164022854910738432","title":"22-2","fileName":"22-2.ogv","fileExt":"ogv","fileUrl":"https://filecdn.jinduolingchuang.com/music/resources/r_164022854910738432/content/课时22 小字一组re与视唱练耳/22-2.ogv","fileRelativeUrl":"课时22 小字一组re与视唱练耳/22-2.ogv"},{"fileId":"166954476526108673","resourceId":"164022854910738432","title":"22-3","fileName":"22-3.ogv","fileExt":"ogv","fileUrl":"https://filecdn.jinduolingchuang.com/music/resources/r_164022854910738432/content/课时22 小字一组re与视唱练耳/22-3.ogv","fileRelativeUrl":"课时22 小字一组re与视唱练耳/22-3.ogv"},{"fileId":"166954476530302976","resourceId":"164022854910738432","title":"22-4","fileName":"22-4.ogv","fileExt":"ogv","fileUrl":"https://filecdn.jinduolingchuang.com/music/resources/r_164022854910738432/content/课时22 小字一组re与视唱练耳/22-4.ogv","fileRelativeUrl":"课时22 小字一组re与视唱练耳/22-4.ogv"},{"fileId":"166954476534497280","resourceId":"164022854910738432","title":"22-5","fileName":"22-5.ogv","fileExt":"ogv","fileUrl":"https://filecdn.jinduolingchuang.com/music/resources/r_164022854910738432/content/课时22 小字一组re与视唱练耳/22-5.ogv","fileRelativeUrl":"课时22 小字一组re与视唱练耳/22-5.ogv"},{"fileId":"166954476538691584","resourceId":"164022854910738432","title":"22-6","fileName":"22-6.ogv","fileExt":"ogv","fileUrl":"https://filecdn.jinduolingchuang.com/music/resources/r_164022854910738432/content/课时22 小字一组re与视唱练耳/22-6.ogv","fileRelativeUrl":"课时22 小字一组re与视唱练耳/22-6.ogv"},{"fileId":"166954476542885888","resourceId":"164022854910738432","title":"22-7","fileName":"22-7.ogv","fileExt":"ogv","fileUrl":"https://filecdn.jinduolingchuang.com/music/resources/r_164022854910738432/content/课时22 小字一组re与视唱练耳/22-7.ogv","fileRelativeUrl":"课时22 小字一组re与视唱练耳/22-7.ogv"},{"fileId":"166954476547080192","resourceId":"164022854910738432","title":"22-8","fileName":"22-8.ogv","fileExt":"ogv","fileUrl":"https://filecdn.jinduolingchuang.com/music/resources/r_164022854910738432/content/课时22 小字一组re与视唱练耳/22-8.ogv","fileRelativeUrl":"课时22 小字一组re与视唱练耳/22-8.ogv"},{"fileId":"166954476551274496","resourceId":"164022854910738432","title":"22-9","fileName":"22-9.ogv","fileExt":"ogv","fileUrl":"https://filecdn.jinduolingchuang.com/music/resources/r_164022854910738432/content/课时22 小字一组re与视唱练耳/22-9.ogv","fileRelativeUrl":"课时22 小字一组re与视唱练耳/22-9.ogv"}],"description":""},{"musicCategoryCodeArray":["topics","476e"],"resourceId":"164022937303646208","title":"课时23 小字二组do与视唱练习","publisherCode":"","publisherName":"","gradeCode":"","gradeName":"","mediaType":"course","mediaTypeName":"课程","source":"jinduo","sourceName":"发子","musicCategory":"topics,476e","musicCategoryNames":"主题课程,五线谱教学","resourceType":"composite","resourceTypeName":"主题资源","builtin":false,"needUnzip":true,"thumbnailFileUrl":"https://filecdn.jinduolingchuang.com/music/resources/r_164022937303646208/thumbnail-1681.jpg","resourceFileUrl":"https://filecdn.jinduolingchuang.com/music/resources/r_164022937303646208/content.zip","resourceViewUrl":"https://filecdn.jinduolingchuang.com/music/resources/r_164022937303646208/content/index.html","published":false,"achieveFileUrl":"","extractFiles":[{"fileId":"166954477369163776","resourceId":"164022937303646208","title":"23-1","fileName":"23-1.ogv","fileExt":"ogv","fileUrl":"https://filecdn.jinduolingchuang.com/music/resources/r_164022937303646208/content/课时23 小字二组do与视唱练习/23-1.ogv","fileRelativeUrl":"课时23 小字二组do与视唱练习/23-1.ogv"},{"fileId":"166954477373358080","resourceId":"164022937303646208","title":"23-2","fileName":"23-2.ogv","fileExt":"ogv","fileUrl":"https://filecdn.jinduolingchuang.com/music/resources/r_164022937303646208/content/课时23 小字二组do与视唱练习/23-2.ogv","fileRelativeUrl":"课时23 小字二组do与视唱练习/23-2.ogv"},{"fileId":"166954477377552384","resourceId":"164022937303646208","title":"23-3","fileName":"23-3.ogv","fileExt":"ogv","fileUrl":"https://filecdn.jinduolingchuang.com/music/resources/r_164022937303646208/content/课时23 小字二组do与视唱练习/23-3.ogv","fileRelativeUrl":"课时23 小字二组do与视唱练习/23-3.ogv"},{"fileId":"166954477381746688","resourceId":"164022937303646208","title":"23-4","fileName":"23-4.ogv","fileExt":"ogv","fileUrl":"https://filecdn.jinduolingchuang.com/music/resources/r_164022937303646208/content/课时23 小字二组do与视唱练习/23-4.ogv","fileRelativeUrl":"课时23 小字二组do与视唱练习/23-4.ogv"},{"fileId":"166954477381746689","resourceId":"164022937303646208","title":"23-5","fileName":"23-5.ogv","fileExt":"ogv","fileUrl":"https://filecdn.jinduolingchuang.com/music/resources/r_164022937303646208/content/课时23 小字二组do与视唱练习/23-5.ogv","fileRelativeUrl":"课时23 小字二组do与视唱练习/23-5.ogv"},{"fileId":"166954477385940992","resourceId":"164022937303646208","title":"23-6","fileName":"23-6.ogv","fileExt":"ogv","fileUrl":"https://filecdn.jinduolingchuang.com/music/resources/r_164022937303646208/content/课时23 小字二组do与视唱练习/23-6.ogv","fileRelativeUrl":"课时23 小字二组do与视唱练习/23-6.ogv"},{"fileId":"166954477390135296","resourceId":"164022937303646208","title":"23-7","fileName":"23-7.ogv","fileExt":"ogv","fileUrl":"https://filecdn.jinduolingchuang.com/music/resources/r_164022937303646208/content/课时23 小字二组do与视唱练习/23-7.ogv","fileRelativeUrl":"课时23 小字二组do与视唱练习/23-7.ogv"},{"fileId":"166954477394329600","resourceId":"164022937303646208","title":"23-8","fileName":"23-8.ogv","fileExt":"ogv","fileUrl":"https://filecdn.jinduolingchuang.com/music/resources/r_164022937303646208/content/课时23 小字二组do与视唱练习/23-8.ogv","fileRelativeUrl":"课时23 小字二组do与视唱练习/23-8.ogv"}],"description":""},{"musicCategoryCodeArray":["topics","476e"],"resourceId":"164023048851161088","title":"课时24 四二拍与视唱练习","publisherCode":"","publisherName":"","gradeCode":"","gradeName":"","mediaType":"course","mediaTypeName":"课程","source":"jinduo","sourceName":"发子","musicCategory":"topics,476e","musicCategoryNames":"主题课程,五线谱教学","resourceType":"composite","resourceTypeName":"主题资源","builtin":false,"needUnzip":true,"thumbnailFileUrl":"https://filecdn.jinduolingchuang.com/music/resources/r_164023048851161088/thumbnail-6112.jpg","resourceFileUrl":"https://filecdn.jinduolingchuang.com/music/resources/r_164023048851161088/content.zip","resourceViewUrl":"https://filecdn.jinduolingchuang.com/music/resources/r_164023048851161088/content/index.html","published":false,"achieveFileUrl":"","extractFiles":[{"fileId":"166954477939589120","resourceId":"164023048851161088","title":"24-1","fileName":"24-1.ogv","fileExt":"ogv","fileUrl":"https://filecdn.jinduolingchuang.com/music/resources/r_164023048851161088/content/课时24 四二拍与视唱练习/24-1.ogv","fileRelativeUrl":"课时24 四二拍与视唱练习/24-1.ogv"},{"fileId":"166954477943783424","resourceId":"164023048851161088","title":"24-2","fileName":"24-2.ogv","fileExt":"ogv","fileUrl":"https://filecdn.jinduolingchuang.com/music/resources/r_164023048851161088/content/课时24 四二拍与视唱练习/24-2.ogv","fileRelativeUrl":"课时24 四二拍与视唱练习/24-2.ogv"},{"fileId":"166954477947977728","resourceId":"164023048851161088","title":"24-3","fileName":"24-3.ogv","fileExt":"ogv","fileUrl":"https://filecdn.jinduolingchuang.com/music/resources/r_164023048851161088/content/课时24 四二拍与视唱练习/24-3.ogv","fileRelativeUrl":"课时24 四二拍与视唱练习/24-3.ogv"},{"fileId":"166954477947977729","resourceId":"164023048851161088","title":"24-4","fileName":"24-4.ogv","fileExt":"ogv","fileUrl":"https://filecdn.jinduolingchuang.com/music/resources/r_164023048851161088/content/课时24 四二拍与视唱练习/24-4.ogv","fileRelativeUrl":"课时24 四二拍与视唱练习/24-4.ogv"}],"description":""}]}