{"pageNum":4,"retCode":"0000","message":"查询资源","timestamp":"1610704622750","page":3,"size":8,"count":8,"totalPages":5,"totalElements":"33","contents":[{"musicCategoryCodeArray":["topics","476e"],"resourceId":"164023129746702336","title":"课时25 视唱练习","publisherCode":"","publisherName":"","gradeCode":"","gradeName":"","mediaType":"course","mediaTypeName":"课程","source":"jinduo","sourceName":"发子","musicCategory":"topics,476e","musicCategoryNames":"主题课程,五线谱教学","resourceType":"composite","resourceTypeName":"主题资源","builtin":false,"needUnzip":true,"thumbnailFileUrl":"https://filecdn.jinduolingchuang.com/music/resources/r_164023129746702336/thumbnail-3093.jpg","resourceFileUrl":"https://filecdn.jinduolingchuang.com/music/resources/r_164023129746702336/content.zip","resourceViewUrl":"https://filecdn.jinduolingchuang.com/music/resources/r_164023129746702336/content/index.html","published":false,"achieveFileUrl":"","extractFiles":[{"fileId":"166954478442905600","resourceId":"164023129746702336","title":"25-1","fileName":"25-1.ogv","fileExt":"ogv","fileUrl":"https://filecdn.jinduolingchuang.com/music/resources/r_164023129746702336/content/课时25 视唱练习/25-1.ogv","fileRelativeUrl":"课时25 视唱练习/25-1.ogv"},{"fileId":"166954478447099904","resourceId":"164023129746702336","title":"25-2","fileName":"25-2.ogv","fileExt":"ogv","fileUrl":"https://filecdn.jinduolingchuang.com/music/resources/r_164023129746702336/content/课时25 视唱练习/25-2.ogv","fileRelativeUrl":"课时25 视唱练习/25-2.ogv"},{"fileId":"166954478451294208","resourceId":"164023129746702336","title":"25-3","fileName":"25-3.ogv","fileExt":"ogv","fileUrl":"https://filecdn.jinduolingchuang.com/music/resources/r_164023129746702336/content/课时25 视唱练习/25-3.ogv","fileRelativeUrl":"课时25 视唱练习/25-3.ogv"}],"description":""},{"musicCategoryCodeArray":["topics","476e"],"resourceId":"164023211439161344","title":"课时26 视唱练习","publisherCode":"","publisherName":"","gradeCode":"","gradeName":"","mediaType":"course","mediaTypeName":"课程","source":"jinduo","sourceName":"发子","musicCategory":"topics,476e","musicCategoryNames":"主题课程,五线谱教学","resourceType":"composite","resourceTypeName":"主题资源","builtin":false,"needUnzip":true,"thumbnailFileUrl":"https://filecdn.jinduolingchuang.com/music/resources/r_164023211439161344/thumbnail-2217.jpg","resourceFileUrl":"https://filecdn.jinduolingchuang.com/music/resources/r_164023211439161344/content.zip","resourceViewUrl":"https://filecdn.jinduolingchuang.com/music/resources/r_164023211439161344/content/index.html","published":false,"achieveFileUrl":"","extractFiles":[{"fileId":"166954478933639168","resourceId":"164023211439161344","title":"26-1","fileName":"26-1.ogv","fileExt":"ogv","fileUrl":"https://filecdn.jinduolingchuang.com/music/resources/r_164023211439161344/content/课时26 视唱练习/26-1.ogv","fileRelativeUrl":"课时26 视唱练习/26-1.ogv"},{"fileId":"166954478937833472","resourceId":"164023211439161344","title":"26-2","fileName":"26-2.ogv","fileExt":"ogv","fileUrl":"https://filecdn.jinduolingchuang.com/music/resources/r_164023211439161344/content/课时26 视唱练习/26-2.ogv","fileRelativeUrl":"课时26 视唱练习/26-2.ogv"},{"fileId":"166954478942027776","resourceId":"164023211439161344","title":"26-3","fileName":"26-3.ogv","fileExt":"ogv","fileUrl":"https://filecdn.jinduolingchuang.com/music/resources/r_164023211439161344/content/课时26 视唱练习/26-3.ogv","fileRelativeUrl":"课时26 视唱练习/26-3.ogv"}],"description":""},{"musicCategoryCodeArray":["topics","476e"],"resourceId":"164023286039052288","title":"课时27 视唱练习","publisherCode":"","publisherName":"","gradeCode":"","gradeName":"","mediaType":"course","mediaTypeName":"课程","source":"jinduo","sourceName":"发子","musicCategory":"topics,476e","musicCategoryNames":"主题课程,五线谱教学","resourceType":"composite","resourceTypeName":"主题资源","builtin":false,"needUnzip":true,"thumbnailFileUrl":"https://filecdn.jinduolingchuang.com/music/resources/r_164023286039052288/thumbnail-1859.jpg","resourceFileUrl":"https://filecdn.jinduolingchuang.com/music/resources/r_164023286039052288/content.zip","resourceViewUrl":"https://filecdn.jinduolingchuang.com/music/resources/r_164023286039052288/content/index.html","published":false,"achieveFileUrl":"","extractFiles":[{"fileId":"166954479428567040","resourceId":"164023286039052288","title":"27-1","fileName":"27-1.ogv","fileExt":"ogv","fileUrl":"https://filecdn.jinduolingchuang.com/music/resources/r_164023286039052288/content/课时27 视唱练习/27-1.ogv","fileRelativeUrl":"课时27 视唱练习/27-1.ogv"},{"fileId":"166954479432761344","resourceId":"164023286039052288","title":"27-2","fileName":"27-2.ogv","fileExt":"ogv","fileUrl":"https://filecdn.jinduolingchuang.com/music/resources/r_164023286039052288/content/课时27 视唱练习/27-2.ogv","fileRelativeUrl":"课时27 视唱练习/27-2.ogv"},{"fileId":"166954479436955648","resourceId":"164023286039052288","title":"27-3","fileName":"27-3.ogv","fileExt":"ogv","fileUrl":"https://filecdn.jinduolingchuang.com/music/resources/r_164023286039052288/content/课时27 视唱练习/27-3.ogv","fileRelativeUrl":"课时27 视唱练习/27-3.ogv"}],"description":""},{"musicCategoryCodeArray":["topics","476e"],"resourceId":"164023365571444736","title":"课时28 视唱练习","publisherCode":"","publisherName":"","gradeCode":"","gradeName":"","mediaType":"course","mediaTypeName":"课程","source":"jinduo","sourceName":"发子","musicCategory":"topics,476e","musicCategoryNames":"主题课程,五线谱教学","resourceType":"composite","resourceTypeName":"主题资源","builtin":false,"needUnzip":true,"thumbnailFileUrl":"https://filecdn.jinduolingchuang.com/music/resources/r_164023365571444736/thumbnail-8901.jpg","resourceFileUrl":"https://filecdn.jinduolingchuang.com/music/resources/r_164023365571444736/content.zip","resourceViewUrl":"https://filecdn.jinduolingchuang.com/music/resources/r_164023365571444736/content/index.html","published":false,"achieveFileUrl":"","extractFiles":[{"fileId":"166954479986409472","resourceId":"164023365571444736","title":"28-1","fileName":"28-1.ogv","fileExt":"ogv","fileUrl":"https://filecdn.jinduolingchuang.com/music/resources/r_164023365571444736/content/课时28 视唱练习/28-1.ogv","fileRelativeUrl":"课时28 视唱练习/28-1.ogv"},{"fileId":"166954479990603776","resourceId":"164023365571444736","title":"28-2","fileName":"28-2.ogv","fileExt":"ogv","fileUrl":"https://filecdn.jinduolingchuang.com/music/resources/r_164023365571444736/content/课时28 视唱练习/28-2.ogv","fileRelativeUrl":"课时28 视唱练习/28-2.ogv"},{"fileId":"166954479994798080","resourceId":"164023365571444736","title":"28-3","fileName":"28-3.ogv","fileExt":"ogv","fileUrl":"https://filecdn.jinduolingchuang.com/music/resources/r_164023365571444736/content/课时28 视唱练习/28-3.ogv","fileRelativeUrl":"课时28 视唱练习/28-3.ogv"},{"fileId":"166954479998992384","resourceId":"164023365571444736","title":"28-4","fileName":"28-4.ogv","fileExt":"ogv","fileUrl":"https://filecdn.jinduolingchuang.com/music/resources/r_164023365571444736/content/课时28 视唱练习/28-4.ogv","fileRelativeUrl":"课时28 视唱练习/28-4.ogv"},{"fileId":"166954480003186688","resourceId":"164023365571444736","title":"28-5","fileName":"28-5.ogv","fileExt":"ogv","fileUrl":"https://filecdn.jinduolingchuang.com/music/resources/r_164023365571444736/content/课时28 视唱练习/28-5.ogv","fileRelativeUrl":"课时28 视唱练习/28-5.ogv"},{"fileId":"166954480007380992","resourceId":"164023365571444736","title":"28-6","fileName":"28-6.ogv","fileExt":"ogv","fileUrl":"https://filecdn.jinduolingchuang.com/music/resources/r_164023365571444736/content/课时28 视唱练习/28-6.ogv","fileRelativeUrl":"课时28 视唱练习/28-6.ogv"},{"fileId":"166954480011575296","resourceId":"164023365571444736","title":"28-7","fileName":"28-7.ogv","fileExt":"ogv","fileUrl":"https://filecdn.jinduolingchuang.com/music/resources/r_164023365571444736/content/课时28 视唱练习/28-7.ogv","fileRelativeUrl":"课时28 视唱练习/28-7.ogv"}],"description":""},{"musicCategoryCodeArray":["topics","476e"],"resourceId":"164023465244884992","title":"课时29 视唱练习","publisherCode":"","publisherName":"","gradeCode":"","gradeName":"","mediaType":"course","mediaTypeName":"课程","source":"jinduo","sourceName":"发子","musicCategory":"topics,476e","musicCategoryNames":"主题课程,五线谱教学","resourceType":"composite","resourceTypeName":"主题资源","builtin":false,"needUnzip":true,"thumbnailFileUrl":"https://filecdn.jinduolingchuang.com/music/resources/r_164023465244884992/thumbnail-7575.jpg","resourceFileUrl":"https://filecdn.jinduolingchuang.com/music/resources/r_164023465244884992/content.zip","resourceViewUrl":"https://filecdn.jinduolingchuang.com/music/resources/r_164023465244884992/content/index.html","published":false,"achieveFileUrl":"","extractFiles":[{"fileId":"166954480619749376","resourceId":"164023465244884992","title":"29-1","fileName":"29-1.ogv","fileExt":"ogv","fileUrl":"https://filecdn.jinduolingchuang.com/music/resources/r_164023465244884992/content/课时29 视唱练习/29-1.ogv","fileRelativeUrl":"课时29 视唱练习/29-1.ogv"},{"fileId":"166954480623943680","resourceId":"164023465244884992","title":"29-2","fileName":"29-2.ogv","fileExt":"ogv","fileUrl":"https://filecdn.jinduolingchuang.com/music/resources/r_164023465244884992/content/课时29 视唱练习/29-2.ogv","fileRelativeUrl":"课时29 视唱练习/29-2.ogv"},{"fileId":"166954480623943681","resourceId":"164023465244884992","title":"29-3","fileName":"29-3.ogv","fileExt":"ogv","fileUrl":"https://filecdn.jinduolingchuang.com/music/resources/r_164023465244884992/content/课时29 视唱练习/29-3.ogv","fileRelativeUrl":"课时29 视唱练习/29-3.ogv"},{"fileId":"166954480628137984","resourceId":"164023465244884992","title":"29-4","fileName":"29-4.ogv","fileExt":"ogv","fileUrl":"https://filecdn.jinduolingchuang.com/music/resources/r_164023465244884992/content/课时29 视唱练习/29-4.ogv","fileRelativeUrl":"课时29 视唱练习/29-4.ogv"},{"fileId":"166954480632332288","resourceId":"164023465244884992","title":"29-5","fileName":"29-5.ogv","fileExt":"ogv","fileUrl":"https://filecdn.jinduolingchuang.com/music/resources/r_164023465244884992/content/课时29 视唱练习/29-5.ogv","fileRelativeUrl":"课时29 视唱练习/29-5.ogv"},{"fileId":"166954480636526592","resourceId":"164023465244884992","title":"29-6","fileName":"29-6.ogv","fileExt":"ogv","fileUrl":"https://filecdn.jinduolingchuang.com/music/resources/r_164023465244884992/content/课时29 视唱练习/29-6.ogv","fileRelativeUrl":"课时29 视唱练习/29-6.ogv"},{"fileId":"166954480640720896","resourceId":"164023465244884992","title":"29-7","fileName":"29-7.ogv","fileExt":"ogv","fileUrl":"https://filecdn.jinduolingchuang.com/music/resources/r_164023465244884992/content/课时29 视唱练习/29-7.ogv","fileRelativeUrl":"课时29 视唱练习/29-7.ogv"}],"description":""},{"musicCategoryCodeArray":["topics","476e"],"resourceId":"164023550464753664","title":"课时30 小字一组re与视唱练习","publisherCode":"","publisherName":"","gradeCode":"","gradeName":"","mediaType":"course","mediaTypeName":"课程","source":"jinduo","sourceName":"发子","musicCategory":"topics,476e","musicCategoryNames":"主题课程,五线谱教学","resourceType":"composite","resourceTypeName":"主题资源","builtin":false,"needUnzip":true,"thumbnailFileUrl":"https://filecdn.jinduolingchuang.com/music/resources/r_164023550464753664/thumbnail-1156.jpg","resourceFileUrl":"https://filecdn.jinduolingchuang.com/music/resources/r_164023550464753664/content.zip","resourceViewUrl":"https://filecdn.jinduolingchuang.com/music/resources/r_164023550464753664/content/index.html","published":false,"achieveFileUrl":"","extractFiles":[{"fileId":"166954481257283584","resourceId":"164023550464753664","title":"30-1","fileName":"30-1.ogv","fileExt":"ogv","fileUrl":"https://filecdn.jinduolingchuang.com/music/resources/r_164023550464753664/content/课时30 小字一组re与视唱练习/30-1.ogv","fileRelativeUrl":"课时30 小字一组re与视唱练习/30-1.ogv"},{"fileId":"166954481261477888","resourceId":"164023550464753664","title":"30-2","fileName":"30-2.ogv","fileExt":"ogv","fileUrl":"https://filecdn.jinduolingchuang.com/music/resources/r_164023550464753664/content/课时30 小字一组re与视唱练习/30-2.ogv","fileRelativeUrl":"课时30 小字一组re与视唱练习/30-2.ogv"},{"fileId":"166954481261477889","resourceId":"164023550464753664","title":"30-3","fileName":"30-3.ogv","fileExt":"ogv","fileUrl":"https://filecdn.jinduolingchuang.com/music/resources/r_164023550464753664/content/课时30 小字一组re与视唱练习/30-3.ogv","fileRelativeUrl":"课时30 小字一组re与视唱练习/30-3.ogv"},{"fileId":"166954481265672192","resourceId":"164023550464753664","title":"30-4","fileName":"30-4.ogv","fileExt":"ogv","fileUrl":"https://filecdn.jinduolingchuang.com/music/resources/r_164023550464753664/content/课时30 小字一组re与视唱练习/30-4.ogv","fileRelativeUrl":"课时30 小字一组re与视唱练习/30-4.ogv"},{"fileId":"166954481269866496","resourceId":"164023550464753664","title":"30-5","fileName":"30-5.ogv","fileExt":"ogv","fileUrl":"https://filecdn.jinduolingchuang.com/music/resources/r_164023550464753664/content/课时30 小字一组re与视唱练习/30-5.ogv","fileRelativeUrl":"课时30 小字一组re与视唱练习/30-5.ogv"},{"fileId":"166954481274060800","resourceId":"164023550464753664","title":"30-6","fileName":"30-6.ogv","fileExt":"ogv","fileUrl":"https://filecdn.jinduolingchuang.com/music/resources/r_164023550464753664/content/课时30 小字一组re与视唱练习/30-6.ogv","fileRelativeUrl":"课时30 小字一组re与视唱练习/30-6.ogv"}],"description":""},{"musicCategoryCodeArray":["topics","476e"],"resourceId":"164023640306745344","title":"课时31 视唱练习","publisherCode":"","publisherName":"","gradeCode":"","gradeName":"","mediaType":"course","mediaTypeName":"课程","source":"jinduo","sourceName":"发子","musicCategory":"topics,476e","musicCategoryNames":"主题课程,五线谱教学","resourceType":"composite","resourceTypeName":"主题资源","builtin":false,"needUnzip":true,"thumbnailFileUrl":"https://filecdn.jinduolingchuang.com/music/resources/r_164023640306745344/thumbnail-6220.jpg","resourceFileUrl":"https://filecdn.jinduolingchuang.com/music/resources/r_164023640306745344/content-265.zip","resourceViewUrl":"https://filecdn.jinduolingchuang.com/music/resources/r_164023640306745344/content-265/index.html","published":false,"achieveFileUrl":"","extractFiles":[{"fileId":"183241897072918528","resourceId":"164023640306745344","title":"31-1","fileName":"31-1.ogv","fileExt":"ogv","fileUrl":"https://filecdn.jinduolingchuang.com/music/resources/r_164023640306745344/content-265/31-1.ogv","fileRelativeUrl":"31-1.ogv"},{"fileId":"183241897077112832","resourceId":"164023640306745344","title":"31-2","fileName":"31-2.ogv","fileExt":"ogv","fileUrl":"https://filecdn.jinduolingchuang.com/music/resources/r_164023640306745344/content-265/31-2.ogv","fileRelativeUrl":"31-2.ogv"},{"fileId":"183241897077112833","resourceId":"164023640306745344","title":"31-3","fileName":"31-3.ogv","fileExt":"ogv","fileUrl":"https://filecdn.jinduolingchuang.com/music/resources/r_164023640306745344/content-265/31-3.ogv","fileRelativeUrl":"31-3.ogv"},{"fileId":"183241897081307136","resourceId":"164023640306745344","title":"31-4","fileName":"31-4.ogv","fileExt":"ogv","fileUrl":"https://filecdn.jinduolingchuang.com/music/resources/r_164023640306745344/content-265/31-4.ogv","fileRelativeUrl":"31-4.ogv"},{"fileId":"183241897085501440","resourceId":"164023640306745344","title":"31-5","fileName":"31-5.ogv","fileExt":"ogv","fileUrl":"https://filecdn.jinduolingchuang.com/music/resources/r_164023640306745344/content-265/31-5.ogv","fileRelativeUrl":"31-5.ogv"},{"fileId":"183241897093890048","resourceId":"164023640306745344","title":"31-6","fileName":"31-6.ogv","fileExt":"ogv","fileUrl":"https://filecdn.jinduolingchuang.com/music/resources/r_164023640306745344/content-265/31-6.ogv","fileRelativeUrl":"31-6.ogv"},{"fileId":"183241897098084352","resourceId":"164023640306745344","title":"31-7","fileName":"31-7.ogv","fileExt":"ogv","fileUrl":"https://filecdn.jinduolingchuang.com/music/resources/r_164023640306745344/content-265/31-7.ogv","fileRelativeUrl":"31-7.ogv"}],"description":""},{"musicCategoryCodeArray":["topics","476e"],"resourceId":"164023748050026496","title":"课时32 视唱练习","publisherCode":"","publisherName":"","gradeCode":"","gradeName":"","mediaType":"course","mediaTypeName":"课程","source":"jinduo","sourceName":"发子","musicCategory":"topics,476e","musicCategoryNames":"主题课程,五线谱教学","resourceType":"composite","resourceTypeName":"主题资源","builtin":false,"needUnzip":true,"thumbnailFileUrl":"https://filecdn.jinduolingchuang.com/music/resources/r_164023748050026496/thumbnail-8512.jpg","resourceFileUrl":"https://filecdn.jinduolingchuang.com/music/resources/r_164023748050026496/content.zip","resourceViewUrl":"https://filecdn.jinduolingchuang.com/music/resources/r_164023748050026496/content/index.html","published":false,"achieveFileUrl":"","extractFiles":[{"fileId":"166954483039862784","resourceId":"164023748050026496","title":"32-1","fileName":"32-1.ogv","fileExt":"ogv","fileUrl":"https://filecdn.jinduolingchuang.com/music/resources/r_164023748050026496/content/课时32 视唱练习/32-1.ogv","fileRelativeUrl":"课时32 视唱练习/32-1.ogv"},{"fileId":"166954483044057088","resourceId":"164023748050026496","title":"32-2","fileName":"32-2.ogv","fileExt":"ogv","fileUrl":"https://filecdn.jinduolingchuang.com/music/resources/r_164023748050026496/content/课时32 视唱练习/32-2.ogv","fileRelativeUrl":"课时32 视唱练习/32-2.ogv"},{"fileId":"166954483048251392","resourceId":"164023748050026496","title":"32-3","fileName":"32-3.ogv","fileExt":"ogv","fileUrl":"https://filecdn.jinduolingchuang.com/music/resources/r_164023748050026496/content/课时32 视唱练习/32-3.ogv","fileRelativeUrl":"课时32 视唱练习/32-3.ogv"},{"fileId":"166954483052445696","resourceId":"164023748050026496","title":"32-4","fileName":"32-4.ogv","fileExt":"ogv","fileUrl":"https://filecdn.jinduolingchuang.com/music/resources/r_164023748050026496/content/课时32 视唱练习/32-4.ogv","fileRelativeUrl":"课时32 视唱练习/32-4.ogv"},{"fileId":"166954483056640000","resourceId":"164023748050026496","title":"32-5","fileName":"32-5.ogv","fileExt":"ogv","fileUrl":"https://filecdn.jinduolingchuang.com/music/resources/r_164023748050026496/content/课时32 视唱练习/32-5.ogv","fileRelativeUrl":"课时32 视唱练习/32-5.ogv"},{"fileId":"166954483060834304","resourceId":"164023748050026496","title":"32-6","fileName":"32-6.ogv","fileExt":"ogv","fileUrl":"https://filecdn.jinduolingchuang.com/music/resources/r_164023748050026496/content/课时32 视唱练习/32-6.ogv","fileRelativeUrl":"课时32 视唱练习/32-6.ogv"}],"description":""}]}