{"pageNum":5,"retCode":"0000","message":"查询资源","timestamp":"1610704642068","page":4,"size":8,"count":1,"totalPages":5,"totalElements":"33","contents":[{"musicCategoryCodeArray":["topics","476e"],"resourceId":"164023839246778368","title":"课时33 视唱练习","publisherCode":"","publisherName":"","gradeCode":"","gradeName":"","mediaType":"course","mediaTypeName":"课程","source":"jinduo","sourceName":"发子","musicCategory":"topics,476e","musicCategoryNames":"主题课程,五线谱教学","resourceType":"composite","resourceTypeName":"主题资源","builtin":false,"needUnzip":true,"thumbnailFileUrl":"https://filecdn.jinduolingchuang.com/music/resources/r_164023839246778368/thumbnail-2134.jpg","resourceFileUrl":"https://filecdn.jinduolingchuang.com/music/resources/r_164023839246778368/content-507.zip","resourceViewUrl":"https://filecdn.jinduolingchuang.com/music/resources/r_164023839246778368/content-507/index.html","published":false,"achieveFileUrl":"","extractFiles":[{"fileId":"183247817492398080","resourceId":"164023839246778368","title":"33-1","fileName":"33-1.ogv","fileExt":"ogv","fileUrl":"https://filecdn.jinduolingchuang.com/music/resources/r_164023839246778368/content-507/33-1.ogv","fileRelativeUrl":"33-1.ogv"},{"fileId":"183247817496592384","resourceId":"164023839246778368","title":"33-2","fileName":"33-2.ogv","fileExt":"ogv","fileUrl":"https://filecdn.jinduolingchuang.com/music/resources/r_164023839246778368/content-507/33-2.ogv","fileRelativeUrl":"33-2.ogv"},{"fileId":"183247817500786688","resourceId":"164023839246778368","title":"33-3","fileName":"33-3.ogv","fileExt":"ogv","fileUrl":"https://filecdn.jinduolingchuang.com/music/resources/r_164023839246778368/content-507/33-3.ogv","fileRelativeUrl":"33-3.ogv"},{"fileId":"183247817504980992","resourceId":"164023839246778368","title":"33-4","fileName":"33-4.ogv","fileExt":"ogv","fileUrl":"https://filecdn.jinduolingchuang.com/music/resources/r_164023839246778368/content-507/33-4.ogv","fileRelativeUrl":"33-4.ogv"},{"fileId":"183247817504980993","resourceId":"164023839246778368","title":"33-5","fileName":"33-5.ogv","fileExt":"ogv","fileUrl":"https://filecdn.jinduolingchuang.com/music/resources/r_164023839246778368/content-507/33-5.ogv","fileRelativeUrl":"33-5.ogv"},{"fileId":"183247817509175296","resourceId":"164023839246778368","title":"33-6","fileName":"33-6.ogv","fileExt":"ogv","fileUrl":"https://filecdn.jinduolingchuang.com/music/resources/r_164023839246778368/content-507/33-6.ogv","fileRelativeUrl":"33-6.ogv"}],"description":""}]}